Timestamp;Temp;Hum;_RESISTANCE_0810;_RESISTANCE_0850;_CAPACITANCE_0810;_CAPACITANCE_0850
0.248;----;----;4.2835230096072E7;3.62165921124775E7;0.3693359375;0.39345703125000003;
0.489;----;----;4.2923368429603E7;3.1607207661798567E7;0.3693359375000001;0.39052734375000003;
0.721;----;----;4.274745298521936E7;3.1655170040648017E7;0.36914062500000006;0.38935546875000004;
0.952;----;----;4.3369557290617585E7;3.1799934537785124E7;0.36943359375;0.39052734375;
1.184;----;----;4.188907039515471E7;3.2544082771898672E7;0.369140625;0.38828125;
1.418;----;----;4.345991053497304E7;4.283523009607194E7;0.36923828125;0.39296875000000003;
1.651;----;----;4.345991053497301E7;3.151171760843967E7;0.36943359374999996;0.39003906250000003;
1.882;----;----;4.205797793707071E7;3.179993453778515E7;0.36875;0.3888671875000001;
2.296;----;----;4.336955729061756E7;3.465242036011141E7;0.3689453125000001;0.38759765625000003;
2.532;----;----;4.2835230096072026E7;3.194602918344114E7;0.36982421875000004;0.39208984375;
2.765;----;----;4.257297358527972E7;3.386486535192702E7;0.3693359375000001;0.38740234375000004;
2.997;----;----;4.345991053497303E7;4.214294354906473E7;0.3695312500000001;0.3927734375000001;
3.231;----;----;4.27474529852194E7;3.1751532810939208E7;0.36962890625000006;0.39160156249999994;
3.461;----;----;4.2142943549064726E7;3.1559390403611284E7;0.36923828125;0.3887695312500001;
3.692;----;----;4.318997320245765E7;3.290340229777137E7;0.36982421875000004;0.38818359375000006;
3.926;----;----;4.257297358527974E7;3.494264163615924E7;0.36923828125;0.3880859375;
4.157;----;----;4.3733243305633254E7;4.2228253151390836E7;0.36904296875000003;0.3931640625;
4.39;----;----;4.24862669180999E7;3.1511717608439665E7;0.36923828125;0.39287109374999996;
4.622;----;----;4.205797793707064E7;3.1655170040648054E7;0.36943359375;0.3890625000000001;
4.854;----;----;4.33695572906176E7;3.27999324792249E7;0.36923828125;0.3884765625;
5.086;----;----;4.2923368429603E7;4.2313908837296285E7;0.36904296875;0.39462890624999997;
5.32;----;----;4.336955729061758E7;3.316495557517814E7;0.3697265625;0.3918945312499999;
5.553;----;----;4.382511986719969E7;3.3217766013992142E7;0.3693359375000001;0.3884765625;
5.786;----;----;4.2660034880955085E7;3.51191196242206E7;0.36894531249999996;0.3889648437500001;
6.018;----;----;4.336955729061762E7;4.019413691095767E7;0.36933593750000004;0.39355468750000006;
6.249;----;----;4.301187022017951E7;3.35922013796893E7;0.3692382812500001;0.3931640625;
6.481;----;----;4.266003488095512E7;3.1751532810939223E7;0.36933593750000016;0.39003906250000003;
6.715;----;----;4.373324330563324E7;3.5178342422912404E7;0.36943359375;0.38935546875000004;
6.948;----;----;4.257297358527972E7;4.003984079997514E7;0.36845703125;0.39462890624999997;
7.18;----;----;4.2923368429603E7;3.2594932901229773E7;0.36904296875;0.3920898437500001;
