Timestamp;Temp;Hum;POT;POT;POT;POT;POT;POT
0.178;----;----;-1250.0;-1250.0;-0.00128173828125;-0.00128173828125;0.0;0.0;
0.281;----;----;-1240.0;-1240.0;-0.00128173828125;0.0;0.0;0.0;
0.383;----;----;-1230.0;-1230.0;0.0;-0.00128173828125;0.0;0.0;
0.486;----;----;-1220.0;-1220.0;-0.00128173828125;0.0;0.0;0.0;
0.589;----;----;-1210.0;-1210.0;-0.00128173828125;0.0;0.0;0.0;
0.693;----;----;-1200.0;-1200.0;-0.00128173828125;0.0;0.0;0.0;
0.797;----;----;-1190.0;-1190.0;0.0;0.0;0.0;0.0;
0.899;----;----;-1180.0;-1180.0;-0.00128173828125;0.0;0.0;0.0;
1.002;----;----;-1170.0;-1170.0;-0.00128173828125;0.0;0.0;0.0;
1.103;----;----;-1160.0;-1160.0;-0.0025634765625;-0.00128173828125;0.0;0.0;
1.206;----;----;-1150.0;-1150.0;0.0;0.0;0.0;0.0;
1.309;----;----;-1140.0;-1140.0;0.0;0.0;0.0;0.0;
1.412;----;----;-1130.0;-1130.0;-0.00128173828125;-0.00128173828125;0.0;0.0;
1.514;----;----;-1120.0;-1120.0;0.0;0.0;0.0;0.0;
1.616;----;----;-1110.0;-1110.0;0.0;0.0;0.0;0.0;
1.72;----;----;-1100.0;-1100.0;-0.00128173828125;-0.00128173828125;0.0;0.0;
1.822;----;----;-1090.0;-1090.0;0.0;-0.00128173828125;0.0;0.0;
1.925;----;----;-1080.0;-1080.0;0.0;0.0;0.0;0.0;
2.028;----;----;-1070.0;-1070.0;0.0;0.0;0.0;0.0;
2.13;----;----;-1060.0;-1060.0;0.0;0.0;0.0;0.0;
2.233;----;----;-1050.0;-1050.0;-0.00128173828125;0.0;0.0;0.0;
2.336;----;----;-1040.0;-1040.0;-0.00128173828125;-0.00128173828125;0.0;0.0;
2.438;----;----;-1030.0;-1030.0;0.0;0.0;0.0;0.0;
2.541;----;----;-1020.0;-1020.0;0.00128173828125;-0.00128173828125;0.0;0.0;
2.642;----;----;-1010.0;-1010.0;0.0;-0.00128173828125;0.0;0.0;
2.743;----;----;-1000.0;-1000.0;-0.00128173828125;-0.00128173828125;0.0;0.0;
2.845;----;----;-990.0;-990.0;-0.00128173828125;-0.00128173828125;0.0;0.0;
2.947;----;----;-980.0;-980.0;0.0;-0.00128173828125;0.0;0.0;
3.05;----;----;-970.0;-970.0;0.0;0.0;0.0;0.0;
3.151;----;----;-960.0;-960.0;-0.00128173828125;0.00128173828125;0.0;0.0;
3.253;----;----;-950.0;-950.0;-0.00128173828125;0.00128173828125;0.0;0.0;
3.356;----;----;-940.0;-940.0;0.0;0.0;0.0;0.0;
3.459;----;----;-930.0;-930.0;-0.00128173828125;0.0;0.0;0.0;
3.562;----;----;-920.0;-920.0;-0.00128173828125;0.0;0.0;0.0;
3.665;----;----;-910.0;-910.0;0.0;0.0;0.0;0.0;
3.767;----;----;-900.0;-900.0;0.0;-0.00128173828125;0.0;0.0;
3.87;----;----;-890.0;-890.0;-0.00128173828125;-0.00128173828125;0.0;0.0;
3.973;----;----;-880.0;-880.0;-0.00128173828125;-0.00128173828125;0.0;0.0;
4.076;----;----;-870.0;-870.0;-0.00128173828125;0.0;0.0;0.0;
4.178;----;----;-860.0;-860.0;0.0;-0.0025634765625;0.0;0.0;
4.279;----;----;-850.0;-850.0;0.0;0.0;0.0;0.0;
4.382;----;----;-840.0;-840.0;-0.00128173828125;-0.00128173828125;0.0;0.0;
4.486;----;----;-830.0;-830.0;-0.00128173828125;-0.00128173828125;0.0;0.0;
4.588;----;----;-820.0;-820.0;0.0;-0.00128173828125;0.0;0.0;
4.691;----;----;-810.0;-810.0;0.0;0.00128173828125;0.0;0.0;
4.792;----;----;-800.0;-800.0;0.0;-0.00128173828125;0.0;0.0;
4.894;----;----;-790.0;-790.0;0.0;0.0;0.0;0.0;
4.995;----;----;-780.0;-780.0;0.0;0.0;0.0;0.0;
5.099;----;----;-770.0;-770.0;-0.00128173828125;-0.00128173828125;0.0;0.0;
5.203;----;----;-760.0;-760.0;-0.00128173828125;0.0;0.0;0.0;
5.306;----;----;-750.0;-750.0;0.0;0.0;0.0;0.0;
5.408;----;----;-740.0;-740.0;-0.00128173828125;-0.0025634765625;0.0;0.0;
5.51;----;----;-730.0;-730.0;0.0;-0.00128173828125;0.0;0.0;
5.612;----;----;-720.0;-720.0;0.0;-0.00128173828125;0.0;0.0;
5.714;----;----;-710.0;-710.0;0.0;-0.00128173828125;0.0;0.0;
5.817;----;----;-700.0;-700.0;0.0;0.0;0.0;0.0;
5.92;----;----;-690.0;-690.0;0.0;0.0;0.0;0.0;
6.023;----;----;-680.0;-680.0;0.0;0.0;0.0;0.0;
6.126;----;----;-670.0;-670.0;0.0;-0.00128173828125;0.0;0.0;
6.229;----;----;-660.0;-660.0;-0.00128173828125;-0.00128173828125;0.0;0.0;
6.331;----;----;-650.0;-650.0;-0.00128173828125;-0.0025634765625;0.0;0.0;
6.434;----;----;-640.0;-640.0;0.0;0.0;0.0;0.0;
6.537;----;----;-630.0;-630.0;0.0;0.00128173828125;0.0;0.0;
6.638;----;----;-620.0;-620.0;-0.00128173828125;-0.00128173828125;0.0;0.0;
6.741;----;----;-610.0;-610.0;0.0;-0.00128173828125;0.0;0.0;
6.842;----;----;-600.0;-600.0;0.0;0.00128173828125;0.0;0.0;
6.945;----;----;-590.0;-590.0;-0.00128173828125;0.00128173828125;0.0;0.0;
7.048;----;----;-580.0;-580.0;0.0;0.0025634765625;0.0;0.0;
7.15;----;----;-570.0;-570.0;0.0;-0.00128173828125;0.0;0.0;
7.252;----;----;-560.0;-560.0;0.0;0.0;0.0;0.0;
7.354;----;----;-550.0;-550.0;-0.00128173828125;0.0;0.0;0.0;
7.458;----;----;-540.0;-540.0;0.0;-0.00128173828125;0.0;0.0;
7.561;----;----;-530.0;-530.0;-0.00128173828125;0.0;0.0;0.0;
7.663;----;----;-520.0;-520.0;0.0;-0.0025634765625;0.0;0.0;
7.766;----;----;-510.0;-510.0;-0.00128173828125;-0.00128173828125;0.0;0.0;
7.868;----;----;-500.0;-500.0;-0.00128173828125;0.0;0.0;0.0;
7.97;----;----;-490.0;-490.0;-0.00128173828125;-0.00128173828125;0.0;0.0;
8.073;----;----;-480.0;-480.0;0.0;0.0;0.0;0.0;
8.176;----;----;-470.0;-470.0;0.0;-0.00128173828125;0.0;0.0;
8.279;----;----;-460.0;-460.0;0.0;-0.00128173828125;0.0;0.0;
8.381;----;----;-450.0;-450.0;-0.00128173828125;-0.00128173828125;0.0;0.0;
8.483;----;----;-440.0;-440.0;-0.00128173828125;-0.00128173828125;0.0;0.0;
8.586;----;----;-430.0;-430.0;-0.00128173828125;-0.00128173828125;0.0;0.0;
8.688;----;----;-420.0;-420.0;0.0;-0.00128173828125;0.0;0.0;
8.79;----;----;-410.0;-410.0;0.0;0.0;0.0;0.0;
8.894;----;----;-400.0;-400.0;-0.00128173828125;-0.00128173828125;0.0;0.0;
8.997;----;----;-390.0;-390.0;-0.00128173828125;0.0;0.0;0.0;
9.1;----;----;-380.0;-380.0;0.0;0.0;0.0;0.0;
9.202;----;----;-370.0;-370.0;-0.00128173828125;-0.00128173828125;0.0;0.0;
9.305;----;----;-360.0;-360.0;0.0;-0.00128173828125;0.0;0.0;
9.408;----;----;-350.0;-350.0;-0.00128173828125;0.0;0.0;0.0;
9.511;----;----;-340.0;-340.0;0.0;0.0;0.0;0.0;
9.613;----;----;-330.0;-330.0;-0.00128173828125;0.0;0.0;0.0;
9.717;----;----;-320.0;-320.0;0.0;-0.00128173828125;0.0;0.0;
9.818;----;----;-310.0;-310.0;0.0;-0.00128173828125;0.0;0.0;
9.921;----;----;-300.0;-300.0;-0.00128173828125;0.0;0.0;0.0;
10.025;----;----;-290.0;-290.0;-0.00128173828125;-0.00128173828125;0.0;0.0;
10.128;----;----;-280.0;-280.0;0.0;0.00128173828125;0.0;0.0;
10.231;----;----;-270.0;-270.0;0.0;-0.00128173828125;0.0;0.0;
10.333;----;----;-260.0;-260.0;0.0;0.0;0.0;0.0;
10.436;----;----;-250.0;-250.0;-0.00128173828125;-0.00128173828125;0.0;0.0;
10.538;----;----;-240.0;-240.0;0.0;0.0;0.0;0.0;
10.64;----;----;-230.0;-230.0;-0.00128173828125;-0.00128173828125;0.0;0.0;
10.744;----;----;-220.0;-220.0;0.0;-0.00128173828125;0.0;0.0;
10.847;----;----;-210.0;-210.0;0.0;-0.00128173828125;0.0;0.0;
10.95;----;----;-200.0;-200.0;0.0;-0.00128173828125;0.0;0.0;
11.053;----;----;-190.0;-190.0;0.0;-0.00128173828125;0.0;0.0;
11.155;----;----;-180.0;-180.0;-0.00128173828125;0.0;0.0;0.0;
11.258;----;----;-170.0;-170.0;-0.00128173828125;0.0;0.0;0.0;
11.359;----;----;-160.0;-160.0;-0.00128173828125;-0.00128173828125;0.0;0.0;
11.461;----;----;-150.0;-150.0;-0.00128173828125;0.0;0.0;0.0;
11.564;----;----;-140.0;-140.0;-0.00128173828125;-0.00128173828125;0.0;0.0;
11.667;----;----;-130.0;-130.0;-0.00128173828125;0.0;0.0;0.0;
11.769;----;----;-120.0;-120.0;0.0;-0.00128173828125;0.0;0.0;
11.872;----;----;-110.0;-110.0;-0.00128173828125;0.0;0.0;0.0;
11.975;----;----;-100.0;-100.0;-0.00128173828125;0.0;0.0;0.0;
12.077;----;----;-90.0;-90.0;-0.00128173828125;0.0;0.0;0.0;
12.179;----;----;-80.0;-80.0;0.0;0.0;0.0;0.0;
12.283;----;----;-70.0;-70.0;-0.00128173828125;-0.00128173828125;0.0;0.0;
12.385;----;----;-60.0;-60.0;-0.00128173828125;-0.00384521484375;0.0;0.0;
12.487;----;----;-50.0;-50.0;0.0;0.0;0.0;0.0;
12.59;----;----;-40.0;-40.0;0.0;0.0;0.0;0.0;
12.692;----;----;-30.0;-30.0;-0.00128173828125;-0.00128173828125;0.0;0.0;
12.795;----;----;-20.0;-20.0;-0.00128173828125;-0.0025634765625;0.0;0.0;
12.898;----;----;-10.0;-10.0;0.0;0.0;0.0;0.0;
13.002;----;----;0.0;0.0;-0.00128173828125;-0.00128173828125;0.0;0.0;
13.103;----;----;10.0;10.0;0.0;0.0;0.0;0.0;
13.206;----;----;20.0;20.0;-0.00128173828125;0.00128173828125;0.0;0.0;
13.308;----;----;30.0;30.0;-0.00128173828125;0.00128173828125;0.0;0.0;
13.412;----;----;40.0;40.0;0.0;0.0;0.0;0.0;
13.514;----;----;50.0;50.0;0.0;-0.00128173828125;0.0;0.0;
13.617;----;----;60.0;60.0;-0.00128173828125;0.0;0.0;0.0;
13.72;----;----;70.0;70.0;-0.0025634765625;0.0;0.0;0.0;
13.823;----;----;80.0;80.0;0.0;-0.00128173828125;0.0;0.0;
13.926;----;----;90.0;90.0;-0.00128173828125;0.0;0.0;0.0;
14.027;----;----;100.0;100.0;0.0;0.0;0.0;0.0;
14.13;----;----;110.0;110.0;-0.00128173828125;-0.00128173828125;0.0;0.0;
