frequencies;rsense;ingain;outgain;dcbiasP;dcbiasN;contacts;modevi;harmonic;inport;outport;SequentialMode;phaseShift;VadcI;VadcQ;Conductance;Susceptance;Zmod;ZPha;Rp;Cp;Lp;Current[mA];Voltage[mV]
78125.0;50000;40;7;0;0;TWO;VOUT_IIN;FIRST_HARMONIC;PORT_EXT3;PORT_EXT3;false;Quadrants,0,IN_PHASE;416.0;-3702.0;1.9941750242513325E-8;1.7746240239852011E-7;5599752.172599112;-1.4588940715812055;5.01460497618772E7;0.36152343750000004; - ;1.77734375E-5;0.888671875
78125.0;50000;40;7;0;0;TWO;VOUT_IIN;FIRST_HARMONIC;PORT_EXT3;PORT_EXT3;false;Quadrants,0,IN_PHASE;421.0;-3705.0;2.018143474062047E-8;1.776062130973844E-7;5594432.318703908;-1.45765140122258;4.955049097610666E7;0.36181640625; - ;1.7987060546875E-5;0.89935302734375
78125.0;50000;40;7;0;0;TWO;VOUT_IIN;FIRST_HARMONIC;PORT_EXT3;PORT_EXT3;false;Quadrants,0,IN_PHASE;418.0;-3702.0;2.0037624041756193E-8;1.774624023985201E-7;5599415.681788125;-1.4583605919638463;4.9906116509427994E7;0.3615234375; - ;1.785888671875E-5;0.8929443359375
78125.0;50000;40;7;0;0;TWO;VOUT_IIN;FIRST_HARMONIC;PORT_EXT3;PORT_EXT3;false;Quadrants,0,IN_PHASE;416.0;-3706.0;1.994175024251332E-8;1.7765414999700584E-7;5593783.435160778;-1.459013846990223;5.014604976187722E7;0.3619140625; - ;1.77734375E-5;0.888671875
78125.0;50000;40;7;0;0;TWO;VOUT_IIN;FIRST_HARMONIC;PORT_EXT3;PORT_EXT3;false;Quadrants,0,IN_PHASE;416.0;-3706.0;1.994175024251332E-8;1.7765414999700584E-7;5593783.435160778;-1.459013846990223;5.014604976187722E7;0.3619140625; - ;1.77734375E-5;0.888671875
78125.0;50000;40;7;0;0;TWO;VOUT_IIN;FIRST_HARMONIC;PORT_EXT3;PORT_EXT3;false;Quadrants,0,IN_PHASE;417.0;-3703.0;1.998968714213475E-8;1.7751033929814156E-7;5598090.885092128;-1.458657361802626;5.002579544590148E7;0.36162109375; - ;1.7816162109375E-5;0.89080810546875
78125.0;50000;40;7;0;0;TWO;VOUT_IIN;FIRST_HARMONIC;PORT_EXT3;PORT_EXT3;false;Quadrants,0,IN_PHASE;415.0;-3705.0;1.9893813342891887E-8;1.776062130973844E-7;5595441.694793399;-1.4592504802624866;5.026688361672513E7;0.36181640625; - ;1.7730712890625E-5;0.88653564453125
78125.0;50000;40;7;0;0;TWO;VOUT_IIN;FIRST_HARMONIC;PORT_EXT3;PORT_EXT3;false;Quadrants,0,IN_PHASE;418.0;-3706.0;2.0037624041756183E-8;1.7765414999700582E-7;5593448.019128638;-1.4584809287681333;4.990611650942802E7;0.3619140625; - ;1.785888671875E-5;0.8929443359375
78125.0;50000;40;7;0;0;TWO;VOUT_IIN;FIRST_HARMONIC;PORT_EXT3;PORT_EXT3;false;Quadrants,0,IN_PHASE;418.0;-3704.0;2.0037624041756206E-8;1.7755827619776298E-7;5596430.269708955;-1.4584207924457806;4.990611650942796E7;0.36171875; - ;1.785888671875E-5;0.8929443359375
78125.0;50000;40;7;0;0;TWO;VOUT_IIN;FIRST_HARMONIC;PORT_EXT3;PORT_EXT3;false;Quadrants,0,IN_PHASE;414.0;-3705.0;1.9845876443270488E-8;1.7760621309738437E-7;5595608.568138113;-1.4595170493607053;5.038830121000218E7;0.36181640624999994; - ;1.768798828125E-5;0.8843994140625
78125.0;50000;40;7;0;0;TWO;VOUT_IIN;FIRST_HARMONIC;PORT_EXT3;PORT_EXT3;false;Quadrants,0,IN_PHASE;418.0;-3706.0;2.0037624041756183E-8;1.7765414999700582E-7;5593448.019128638;-1.4584809287681333;4.990611650942802E7;0.3619140625; - ;1.785888671875E-5;0.8929443359375
78125.0;50000;40;7;0;0;TWO;VOUT_IIN;FIRST_HARMONIC;PORT_EXT3;PORT_EXT3;false;Quadrants,0,IN_PHASE;416.0;-3704.0;1.994175024251334E-8;1.7755827619776295E-7;5596766.222559264;-1.45895399121968;5.014604976187717E7;0.36171875; - ;1.77734375E-5;0.888671875
78125.0;50000;40;7;0;0;TWO;VOUT_IIN;FIRST_HARMONIC;PORT_EXT3;PORT_EXT3;false;Quadrants,0,IN_PHASE;414.0;-3707.0;1.9845876443270468E-8;1.7770208689662724E-7;5592626.826352707;-1.4595765927277304;5.038830121000223E7;0.36201171875; - ;1.768798828125E-5;0.8843994140625
78125.0;50000;40;7;0;0;TWO;VOUT_IIN;FIRST_HARMONIC;PORT_EXT3;PORT_EXT3;false;Quadrants,0,IN_PHASE;416.0;-3707.0;1.9941750242513342E-8;1.7770208689662724E-7;5592293.225892324;-1.4590437509567882;5.0146049761877164E7;0.36201171875; - ;1.77734375E-5;0.888671875
78125.0;50000;40;7;0;0;TWO;VOUT_IIN;FIRST_HARMONIC;PORT_EXT3;PORT_EXT3;false;Quadrants,0,IN_PHASE;416.0;-3706.0;1.994175024251332E-8;1.7765414999700584E-7;5593783.435160778;-1.459013846990223;5.014604976187722E7;0.3619140625; - ;1.77734375E-5;0.888671875
78125.0;50000;40;7;0;0;TWO;VOUT_IIN;FIRST_HARMONIC;PORT_EXT3;PORT_EXT3;false;Quadrants,0,IN_PHASE;420.0;-3705.0;2.0133497840999057E-8;1.776062130973844E-7;5594601.516093529;-1.4579178742674324;4.966846833557355E7;0.36181640625000006; - ;1.79443359375E-5;0.897216796875
78125.0;50000;40;7;0;0;TWO;VOUT_IIN;FIRST_HARMONIC;PORT_EXT3;PORT_EXT3;false;Quadrants,0,IN_PHASE;416.0;-3706.0;1.994175024251332E-8;1.7765414999700584E-7;5593783.435160778;-1.459013846990223;5.014604976187722E7;0.3619140625; - ;1.77734375E-5;0.888671875
78125.0;50000;40;7;0;0;TWO;VOUT_IIN;FIRST_HARMONIC;PORT_EXT3;PORT_EXT3;false;Quadrants,0,IN_PHASE;415.0;-3706.0;1.9893813342891923E-8;1.7765414999700582E-7;5593950.562431455;-1.4592803300318251;5.026688361672504E7;0.3619140624999999; - ;1.7730712890625E-5;0.88653564453125
78125.0;50000;40;7;0;0;TWO;VOUT_IIN;FIRST_HARMONIC;PORT_EXT3;PORT_EXT3;false;Quadrants,0,IN_PHASE;416.0;-3705.0;1.9941750242513332E-8;1.7760621309738437E-7;5595274.433841959;-1.458983927082086;5.014604976187719E7;0.36181640624999994; - ;1.77734375E-5;0.888671875
78125.0;50000;40;7;0;0;TWO;VOUT_IIN;FIRST_HARMONIC;PORT_EXT3;PORT_EXT3;false;Quadrants,0,IN_PHASE;414.0;-3706.0;1.984587644327049E-8;1.776541499970058E-7;5594117.302397232;-1.4595468289785765;5.038830121000217E7;0.36191406249999997; - ;1.768798828125E-5;0.8843994140625
78125.0;50000;40;7;0;0;TWO;VOUT_IIN;FIRST_HARMONIC;PORT_EXT3;PORT_EXT3;false;Quadrants,0,IN_PHASE;413.0;-3706.0;1.9797939543649046E-8;1.7765414999700582E-7;5594283.65495242;-1.459813343794043;5.051030678193927E7;0.3619140625; - ;1.7645263671875E-5;0.88226318359375
78125.0;50000;40;7;0;0;TWO;VOUT_IIN;FIRST_HARMONIC;PORT_EXT3;PORT_EXT3;false;Quadrants,0,IN_PHASE;415.0;-3708.0;1.9893813342891897E-8;1.7775002379624868E-7;5590970.665748715;-1.459339981867705;5.026688361672511E7;0.362109375; - ;1.7730712890625E-5;0.88653564453125
78125.0;50000;40;7;0;0;TWO;VOUT_IIN;FIRST_HARMONIC;PORT_EXT3;PORT_EXT3;false;Quadrants,0,IN_PHASE;417.0;-3707.0;1.9989687142134754E-8;1.7770208689662726E-7;5592125.845262843;-1.4587773539464493;5.0025795445901476E7;0.36201171875000004; - ;1.7816162109375E-5;0.89080810546875
78125.0;50000;40;7;0;0;TWO;VOUT_IIN;FIRST_HARMONIC;PORT_EXT3;PORT_EXT3;false;Quadrants,0,IN_PHASE;419.0;-3701.0;2.0085560941377625E-8;1.7741446549889867E-7;5600740.612042211;-1.4580636816559176;4.97870088327945E7;0.36142578124999997; - ;1.7901611328125E-5;0.89508056640625
78125.0;50000;40;7;0;0;TWO;VOUT_IIN;FIRST_HARMONIC;PORT_EXT3;PORT_EXT3;false;Quadrants,0,IN_PHASE;418.0;-3661.0;2.0037624041756206E-8;1.7549698951404165E-7;5661321.689360499;-1.457112172077835;4.990611650942796E7;0.35751953124999997; - ;1.785888671875E-5;0.8929443359375
78125.0;50000;40;7;0;0;TWO;VOUT_IIN;FIRST_HARMONIC;PORT_EXT3;PORT_EXT3;false;Quadrants,0,IN_PHASE;418.0;-3615.0;2.0037624041756176E-8;1.73291892131456E-7;5732416.067955046;-1.4556782363547633;4.990611650942803E7;0.35302734374999994; - ;1.785888671875E-5;0.8929443359375
78125.0;50000;40;7;0;0;TWO;VOUT_IIN;FIRST_HARMONIC;PORT_EXT3;PORT_EXT3;false;Quadrants,0,IN_PHASE;792.0;-3998.0;3.796602450016964E-8;1.916517246864623E-7;5118334.5042542005;-1.3752292703445896;2.6339339268864766E7;0.3904296874999999; - ;3.3837890625E-5;1.69189453125
78125.0;50000;40;7;0;0;TWO;VOUT_IIN;FIRST_HARMONIC;PORT_EXT3;PORT_EXT3;false;Quadrants,0,IN_PHASE;877.0;-3997.0;4.204066096799085E-8;1.9160378778684087E-7;5097834.034428825;-1.354804502311778;2.378649566811962E7;0.39033203125; - ;3.7469482421875E-5;1.87347412109375
78125.0;50000;40;7;0;0;TWO;VOUT_IIN;FIRST_HARMONIC;PORT_EXT3;PORT_EXT3;false;Quadrants,0,IN_PHASE;607.0;-3717.0;2.909769807020575E-8;1.781814558928415E-7;5538886.429615284;-1.4089214601993312;3.436697973795867E7;0.36298828125000004; - ;2.5933837890625E-5;1.29669189453125
78125.0;50000;40;7;0;0;TWO;VOUT_IIN;FIRST_HARMONIC;PORT_EXT3;PORT_EXT3;false;Quadrants,0,IN_PHASE;428.0;-3721.0;2.0516993037970464E-8;1.783732034913272E-7;5569501.347515516;-1.4562767549239815;4.8740085749861896E7;0.36337890624999997; - ;1.82861328125E-5;0.914306640625
78125.0;50000;40;7;0;0;TWO;VOUT_IIN;FIRST_HARMONIC;PORT_EXT3;PORT_EXT3;false;Quadrants,0,IN_PHASE;426.0;-3711.0;2.042111923872758E-8;1.7789383449511294E-7;5584654.464813387;-1.4565027580125594;4.8968912443523295E7;0.3624023437499999; - ;1.820068359375E-5;0.9100341796875
78125.0;50000;40;7;0;0;TWO;VOUT_IIN;FIRST_HARMONIC;PORT_EXT3;PORT_EXT3;false;Quadrants,0,IN_PHASE;424.0;-3716.0;2.0325245439484766E-8;1.7813351899322006E-7;5577576.555247087;-1.4571864745415506;4.919989787957756E7;0.3628906250000001; - ;1.8115234375E-5;0.90576171875
78125.0;50000;40;7;0;0;TWO;VOUT_IIN;FIRST_HARMONIC;PORT_EXT3;PORT_EXT3;false;Quadrants,0,IN_PHASE;423.0;-3716.0;2.0277308539863333E-8;1.7813351899322008E-7;5577745.424134296;-1.4574521306601762;4.931620969489572E7;0.3628906250000001; - ;1.8072509765625E-5;0.90362548828125
78125.0;50000;40;7;0;0;TWO;VOUT_IIN;FIRST_HARMONIC;PORT_EXT3;PORT_EXT3;false;Quadrants,0,IN_PHASE;420.0;-3716.0;2.0133497840999057E-8;1.7813351899322008E-7;5578249.7296055155;-1.4582491952795642;4.966846833557355E7;0.36289062499999986; - ;1.79443359375E-5;0.897216796875
78125.0;50000;40;7;0;0;TWO;VOUT_IIN;FIRST_HARMONIC;PORT_EXT3;PORT_EXT3;false;Quadrants,0,IN_PHASE;420.0;-3713.0;2.0133497840999057E-8;1.779897082943558E-7;5582699.881335119;-1.4581590272323304;4.966846833557355E7;0.3625976562499999; - ;1.79443359375E-5;0.897216796875
78125.0;50000;40;7;0;0;TWO;VOUT_IIN;FIRST_HARMONIC;PORT_EXT3;PORT_EXT3;false;Quadrants,0,IN_PHASE;420.0;-3709.0;2.0133497840999037E-8;1.777979606958701E-7;5588644.402886163;-1.4580385791401977;4.966846833557359E7;0.3622070312499999; - ;1.79443359375E-5;0.897216796875
78125.0;50000;40;7;0;0;TWO;VOUT_IIN;FIRST_HARMONIC;PORT_EXT3;PORT_EXT3;false;Quadrants,0,IN_PHASE;418.0;-3712.0;2.0037624041756196E-8;1.7794177139473436E-7;5584520.186564945;-1.45866095379742;4.990611650942799E7;0.36249999999999993; - ;1.785888671875E-5;0.8929443359375
78125.0;50000;40;7;0;0;TWO;VOUT_IIN;FIRST_HARMONIC;PORT_EXT3;PORT_EXT3;false;Quadrants,0,IN_PHASE;417.0;-3713.0;1.9989687142134754E-8;1.779897082943558E-7;5583201.932554554;-1.4589568634573773;5.0025795445901476E7;0.36259765624999984; - ;1.7816162109375E-5;0.89080810546875
78125.0;50000;40;7;0;0;TWO;VOUT_IIN;FIRST_HARMONIC;PORT_EXT3;PORT_EXT3;false;Quadrants,0,IN_PHASE;422.0;-3713.0;2.022937164024189E-8;1.779897082943558E-7;5582363.256977314;-1.4576272163444777;4.94330727510448E7;0.36259765625000007; - ;1.802978515625E-5;0.9014892578125
78125.0;50000;40;7;0;0;TWO;VOUT_IIN;FIRST_HARMONIC;PORT_EXT3;PORT_EXT3;false;Quadrants,0,IN_PHASE;422.0;-3713.0;2.022937164024189E-8;1.779897082943558E-7;5582363.256977314;-1.4576272163444777;4.94330727510448E7;0.36259765625000007; - ;1.802978515625E-5;0.9014892578125
78125.0;50000;40;7;0;0;TWO;VOUT_IIN;FIRST_HARMONIC;PORT_EXT3;PORT_EXT3;false;Quadrants,0,IN_PHASE;418.0;-3710.0;2.00376240417562E-8;1.7784589759549152E-7;5587492.9825278185;-1.4586010093421962;4.990611650942798E7;0.36230468750000006; - ;1.785888671875E-5;0.8929443359375
78125.0;50000;40;7;0;0;TWO;VOUT_IIN;FIRST_HARMONIC;PORT_EXT3;PORT_EXT3;false;Quadrants,0,IN_PHASE;419.0;-3708.0;2.0085560941377595E-8;1.7775002379624865E-7;5590300.90525376;-1.4582747060174297;4.978700883279457E7;0.36210937499999996; - ;1.7901611328125E-5;0.89508056640625
78125.0;50000;40;7;0;0;TWO;VOUT_IIN;FIRST_HARMONIC;PORT_EXT3;PORT_EXT3;false;Quadrants,0,IN_PHASE;422.0;-3708.0;2.0229371640241905E-8;1.7775002379624868E-7;5589794.528590842;-1.4574759172673661;4.943307275104477E7;0.36210937499999996; - ;1.802978515625E-5;0.9014892578125
78125.0;50000;40;7;0;0;TWO;VOUT_IIN;FIRST_HARMONIC;PORT_EXT3;PORT_EXT3;false;Quadrants,0,IN_PHASE;416.0;-3706.0;1.994175024251332E-8;1.7765414999700584E-7;5593783.435160778;-1.459013846990223;5.014604976187722E7;0.3619140625; - ;1.77734375E-5;0.888671875
78125.0;50000;40;7;0;0;TWO;VOUT_IIN;FIRST_HARMONIC;PORT_EXT3;PORT_EXT3;false;Quadrants,0,IN_PHASE;422.0;-3710.0;2.02293716402419E-8;1.7784589759549152E-7;5586819.662348306;-1.4575364852108899;4.943307275104478E7;0.3623046875; - ;1.802978515625E-5;0.9014892578125
78125.0;50000;40;7;0;0;TWO;VOUT_IIN;FIRST_HARMONIC;PORT_EXT3;PORT_EXT3;false;Quadrants,0,IN_PHASE;416.0;-3708.0;1.994175024251333E-8;1.7775002379624863E-7;5590803.805413846;-1.4590736389944658;5.0146049761877194E7;0.362109375; - ;1.77734375E-5;0.888671875
78125.0;50000;40;7;0;0;TWO;VOUT_IIN;FIRST_HARMONIC;PORT_EXT3;PORT_EXT3;false;Quadrants,0,IN_PHASE;417.0;-3707.0;1.9989687142134754E-8;1.7770208689662726E-7;5592125.845262843;-1.4587773539464493;5.0025795445901476E7;0.36201171875000004; - ;1.7816162109375E-5;0.89080810546875
78125.0;50000;40;7;0;0;TWO;VOUT_IIN;FIRST_HARMONIC;PORT_EXT3;PORT_EXT3;false;Quadrants,0,IN_PHASE;418.0;-3687.0;2.0037624041756183E-8;1.767433489041987E-7;5621907.551287538;-1.4579070329015509;4.990611650942802E7;0.36005859375; - ;1.785888671875E-5;0.8929443359375
78125.0;50000;40;7;0;0;TWO;VOUT_IIN;FIRST_HARMONIC;PORT_EXT3;PORT_EXT3;false;Quadrants,0,IN_PHASE;423.0;-3629.0;2.0277308539863333E-8;1.73963008726156E-7;5709692.062051929;-1.4547589133073093;4.931620969489572E7;0.35439453125; - ;1.8072509765625E-5;0.90362548828125
78125.0;50000;40;7;0;0;TWO;VOUT_IIN;FIRST_HARMONIC;PORT_EXT3;PORT_EXT3;false;Quadrants,0,IN_PHASE;547.0;-3663.0;2.6221484092920172E-8;1.755928633132845E-7;5632536.348155504;-1.422560575965279;3.813666672932525E7;0.35771484375; - ;2.3370361328125E-5;1.16851806640625
78125.0;50000;40;7;0;0;TWO;VOUT_IIN;FIRST_HARMONIC;PORT_EXT3;PORT_EXT3;false;Quadrants,0,IN_PHASE;550.0;-3650.0;2.636529479178447E-8;1.7496968361820594E-7;5651474.891595793;-1.4212365869211934;3.792864854716527E7;0.35644531250000006; - ;2.349853515625E-5;1.1749267578125
78125.0;50000;40;7;0;0;TWO;VOUT_IIN;FIRST_HARMONIC;PORT_EXT3;PORT_EXT3;false;Quadrants,0,IN_PHASE;553.0;-3648.0;2.6509105490648748E-8;1.7487380981896307E-7;5653817.198247646;-1.4203518165866562;3.772288734347359E7;0.3562499999999999; - ;2.3626708984375E-5;1.18133544921875
78125.0;50000;40;7;0;0;TWO;VOUT_IIN;FIRST_HARMONIC;PORT_EXT3;PORT_EXT3;false;Quadrants,0,IN_PHASE;528.0;-3567.0;2.531068300011307E-8;1.709909209496276E-7;5785227.177454508;-1.4238398966047805;3.9509008903297186E7;0.34833984375; - ;2.255859375E-5;1.1279296875
78125.0;50000;40;7;0;0;TWO;VOUT_IIN;FIRST_HARMONIC;PORT_EXT3;PORT_EXT3;false;Quadrants,0,IN_PHASE;512.0;-3453.0;2.454369260617024E-8;1.6552611439278497E-7;5976005.664926367;-1.423592025500927;4.074366543152524E7;0.33720703125000007; - ;2.1875E-5;1.09375
78125.0;50000;40;7;0;0;TWO;VOUT_IIN;FIRST_HARMONIC;PORT_EXT3;PORT_EXT3;false;Quadrants,0,IN_PHASE;502.0;-3443.0;2.4064323609956006E-8;1.6504674539657067E-7;5995496.932107783;-1.4260134532700703;4.1555292232949995E7;0.3362304687499999; - ;2.144775390625E-5;1.0723876953125
78125.0;50000;40;7;0;0;TWO;VOUT_IIN;FIRST_HARMONIC;PORT_EXT3;PORT_EXT3;false;Quadrants,0,IN_PHASE;512.0;-3446.0;2.454369260617027E-8;1.6519055609543498E-7;5987883.035943729;-1.4232973173141534;4.0743665431525186E7;0.3365234375; - ;2.1875E-5;1.09375
78125.0;50000;40;7;0;0;TWO;VOUT_IIN;FIRST_HARMONIC;PORT_EXT3;PORT_EXT3;false;Quadrants,0,IN_PHASE;513.0;-3441.0;2.4591629505791686E-8;1.6495087159732786E-7;5996141.590518115;-1.4228017867830507;4.066424308175615E7;0.33603515625; - ;2.1917724609375E-5;1.09588623046875
78125.0;50000;40;7;0;0;TWO;VOUT_IIN;FIRST_HARMONIC;PORT_EXT3;PORT_EXT3;false;Quadrants,0,IN_PHASE;532.0;-3417.0;2.550243059859879E-8;1.6380038600641362E-7;6032317.679843204;-1.4163442082234148;3.9211948685979135E7;0.33369140625000004; - ;2.27294921875E-5;1.136474609375
78125.0;50000;40;7;0;0;TWO;VOUT_IIN;FIRST_HARMONIC;PORT_EXT3;PORT_EXT3;false;Quadrants,0,IN_PHASE;523.0;-3403.0;2.507099850200595E-8;1.6312926941171365E-7;6058969.024288458;-1.4183015749690087;3.988672409357725E7;0.33232421875; - ;2.2344970703125E-5;1.11724853515625
78125.0;50000;40;7;0;0;TWO;VOUT_IIN;FIRST_HARMONIC;PORT_EXT3;PORT_EXT3;false;Quadrants,0,IN_PHASE;523.0;-3382.0;2.5070998502005927E-8;1.621225945196637E-7;6095715.200293012;-1.4173694281306777;3.988672409357729E7;0.3302734374999999; - ;2.2344970703125E-5;1.11724853515625
78125.0;50000;40;7;0;0;TWO;VOUT_IIN;FIRST_HARMONIC;PORT_EXT3;PORT_EXT3;false;Quadrants,0,IN_PHASE;526.0;-3386.0;2.5214809200870207E-8;1.6231434211814937E-7;6087866.016152506;-1.4166826107177477;3.96592332717508E7;0.3306640625; - ;2.247314453125E-5;1.1236572265625
78125.0;50000;40;7;0;0;TWO;VOUT_IIN;FIRST_HARMONIC;PORT_EXT3;PORT_EXT3;false;Quadrants,0,IN_PHASE;518.0;-3385.0;2.4831314003898817E-8;1.6226640521852798E-7;6091790.322173108;-1.4189462700040358;4.02717310828975E7;0.33056640625; - ;2.213134765625E-5;1.1065673828125
78125.0;50000;40;7;0;0;TWO;VOUT_IIN;FIRST_HARMONIC;PORT_EXT3;PORT_EXT3;false;Quadrants,0,IN_PHASE;514.0;-3387.0;2.4639566405413125E-8;1.6236227901777082E-7;6089346.049051104;-1.4201887630228294;4.05851297683675E7;0.33076171874999993; - ;2.196044921875E-5;1.0980224609375
78125.0;50000;40;7;0;0;TWO;VOUT_IIN;FIRST_HARMONIC;PORT_EXT3;PORT_EXT3;false;Quadrants,0,IN_PHASE;494.0;-3376.0;2.3680828412984585E-8;1.6183497312193513E-7;6114025.252491237;-1.4255004624316507;4.2228252431054465E7;0.32968749999999997; - ;2.110595703125E-5;1.0552978515625
78125.0;50000;40;7;0;0;TWO;VOUT_IIN;FIRST_HARMONIC;PORT_EXT3;PORT_EXT3;false;Quadrants,0,IN_PHASE;451.0;-3194.0;2.1619541729263243E-8;1.5311045739083555E-7;6467080.1508918;-1.430521437456453;4.6254449447762564E7;0.3119140624999999; - ;1.9268798828125E-5;0.96343994140625
78125.0;50000;40;7;0;0;TWO;VOUT_IIN;FIRST_HARMONIC;PORT_EXT3;PORT_EXT3;false;Quadrants,0,IN_PHASE;401.0;-3320.0;1.9222696748191953E-8;1.5915050674313528E-7;6238023.2998759365;-1.4505954569373969;5.20218371594536E7;0.32421875000000006; - ;1.7132568359375E-5;0.85662841796875
78125.0;50000;40;7;0;0;TWO;VOUT_IIN;FIRST_HARMONIC;PORT_EXT3;PORT_EXT3;false;Quadrants,0,IN_PHASE;530.0;-3605.0;2.5406556799355916E-8;1.7281252313524172E-7;5725076.667833321;-1.4248239988072864;3.9359918303662114E7;0.35205078125; - ;2.264404296875E-5;1.1322021484375
78125.0;50000;40;7;0;0;TWO;VOUT_IIN;FIRST_HARMONIC;PORT_EXT3;PORT_EXT3;false;Quadrants,0,IN_PHASE;483.0;-3596.0;2.3153522517148895E-8;1.723810910386489E-7;5749469.719466331;-1.437279508672655;4.318997246571616E7;0.35117187499999997; - ;2.0635986328125E-5;1.03179931640625
78125.0;50000;40;7;0;0;TWO;VOUT_IIN;FIRST_HARMONIC;PORT_EXT3;PORT_EXT3;false;Quadrants,0,IN_PHASE;524.0;-3789.0;2.511893540162739E-8;1.816329126655842E-7;5453704.631017916;-1.433372936285859;3.981060439110857E7;0.37001953124999987; - ;2.23876953125E-5;1.119384765625
78125.0;50000;40;7;0;0;TWO;VOUT_IIN;FIRST_HARMONIC;PORT_EXT3;PORT_EXT3;false;Quadrants,0,IN_PHASE;486.0;-3756.0;2.3297333216013158E-8;1.8005099497807713E-7;5508063.987260122;-1.4421183094635728;4.29233676974093E7;0.36679687499999997; - ;2.076416015625E-5;1.0382080078125
78125.0;50000;40;7;0;0;TWO;VOUT_IIN;FIRST_HARMONIC;PORT_EXT3;PORT_EXT3;false;Quadrants,0,IN_PHASE;472.0;-3737.0;2.2626216621313195E-8;1.7914019388527004E-7;5538219.792380557;-1.4451570863788235;4.419651843419686E7;0.36494140625; - ;2.0166015625E-5;1.00830078125
78125.0;50000;40;7;0;0;TWO;VOUT_IIN;FIRST_HARMONIC;PORT_EXT3;PORT_EXT3;false;Quadrants,0,IN_PHASE;466.0;-3728.0;2.2338595223584665E-8;1.787087617886772E-7;5552485.881397547;-1.446441332248135;4.476557231961565E7;0.3640625; - ;1.990966796875E-5;0.9954833984375
78125.0;50000;40;7;0;0;TWO;VOUT_IIN;FIRST_HARMONIC;PORT_EXT3;PORT_EXT3;false;Quadrants,0,IN_PHASE;464.0;-3721.0;2.22427214243418E-8;1.7837320349132723E-7;5563138.062150336;-1.4467390300429925;4.495852737271746E7;0.36337890625; - ;1.982421875E-5;0.9912109375
78125.0;50000;40;7;0;0;TWO;VOUT_IIN;FIRST_HARMONIC;PORT_EXT3;PORT_EXT3;false;Quadrants,0,IN_PHASE;462.0;-3718.0;2.214684762509895E-8;1.7822939279246292E-7;5567925.337325371;-1.4471696642387961;4.515315303233961E7;0.3630859375; - ;1.973876953125E-5;0.9869384765625
78125.0;50000;40;7;0;0;TWO;VOUT_IIN;FIRST_HARMONIC;PORT_EXT3;PORT_EXT3;false;Quadrants,0,IN_PHASE;455.0;-3712.0;2.181128932774897E-8;1.7794177139473438E-7;5578067.653371745;-1.4488293082071961;4.584781692514483E7;0.3625; - ;1.9439697265625E-5;0.97198486328125
78125.0;50000;40;7;0;0;TWO;VOUT_IIN;FIRST_HARMONIC;PORT_EXT3;PORT_EXT3;false;Quadrants,0,IN_PHASE;454.0;-3711.0;2.1763352428127523E-8;1.7789383449511294E-7;5579729.934902404;-1.4490622538561968;4.594880330603726E7;0.36240234374999997; - ;1.939697265625E-5;0.9698486328125
78125.0;50000;40;7;0;0;TWO;VOUT_IIN;FIRST_HARMONIC;PORT_EXT3;PORT_EXT3;false;Quadrants,0,IN_PHASE;448.0;-3712.0;2.1475731030398977E-8;1.7794177139473438E-7;5579328.592877805;-1.4506875912279837;4.656418906460024E7;0.36250000000000004; - ;1.9140625E-5;0.95703125
78125.0;50000;40;7;0;0;TWO;VOUT_IIN;FIRST_HARMONIC;PORT_EXT3;PORT_EXT3;false;Quadrants,0,IN_PHASE;449.0;-3712.0;2.1523667930020402E-8;1.779417713947344E-7;5579149.603502719;-1.4504220708830042;4.646048263015792E7;0.3625; - ;1.9183349609375E-5;0.95916748046875
78125.0;50000;40;7;0;0;TWO;VOUT_IIN;FIRST_HARMONIC;PORT_EXT3;PORT_EXT3;false;Quadrants,0,IN_PHASE;447.0;-3704.0;2.1427794130777565E-8;1.7755827619776295E-7;5591385.170503799;-1.4506967671814797;4.666835950993488E7;0.36171875000000003; - ;1.9097900390625E-5;0.95489501953125
78125.0;50000;40;7;0;0;TWO;VOUT_IIN;FIRST_HARMONIC;PORT_EXT3;PORT_EXT3;false;Quadrants,0,IN_PHASE;445.0;-3709.0;2.1331920331534687E-8;1.777979606958701E-7;5584312.484598561;-1.451388663800157;4.6878104945934646E7;0.3622070312499999; - ;1.9012451171875E-5;0.95062255859375
78125.0;50000;40;7;0;0;TWO;VOUT_IIN;FIRST_HARMONIC;PORT_EXT3;PORT_EXT3;false;Quadrants,0,IN_PHASE;445.0;-3705.0;2.1331920331534704E-8;1.7760621309738437E-7;5590255.741222583;-1.4512609725096122;4.687810494593461E7;0.36181640625; - ;1.9012451171875E-5;0.95062255859375
78125.0;50000;40;7;0;0;TWO;VOUT_IIN;FIRST_HARMONIC;PORT_EXT3;PORT_EXT3;false;Quadrants,0,IN_PHASE;439.0;-3707.0;2.1044298933806134E-8;1.7770208689662726E-7;5588345.803294312;-1.4529207232143884;4.7518807974808455E7;0.36201171875000004; - ;1.8756103515625E-5;0.93780517578125
78125.0;50000;40;7;0;0;TWO;VOUT_IIN;FIRST_HARMONIC;PORT_EXT3;PORT_EXT3;false;Quadrants,0,IN_PHASE;440.0;-3707.0;2.109223583342758E-8;1.7770208689662724E-7;5588169.553737373;-1.4526547025815666;4.741081068395657E7;0.36201171875000004; - ;1.8798828125E-5;0.93994140625
78125.0;50000;40;7;0;0;TWO;VOUT_IIN;FIRST_HARMONIC;PORT_EXT3;PORT_EXT3;false;Quadrants,0,IN_PHASE;439.0;-3704.0;2.1044298933806128E-8;1.7755827619776295E-7;5592809.327046314;-1.452826134582213;4.751880797480847E7;0.36171875; - ;1.8756103515625E-5;0.93780517578125
78125.0;50000;40;7;0;0;TWO;VOUT_IIN;FIRST_HARMONIC;PORT_EXT3;PORT_EXT3;false;Quadrants,0,IN_PHASE;438.0;-3707.0;2.0996362034184696E-8;1.777020868966272E-7;5588521.668449151;-1.453186760609368;4.762729840397471E7;0.36201171875; - ;1.871337890625E-5;0.9356689453125
78125.0;50000;40;7;0;0;TWO;VOUT_IIN;FIRST_HARMONIC;PORT_EXT3;PORT_EXT3;false;Quadrants,0,IN_PHASE;436.0;-3706.0;2.090048823494185E-8;1.7765414999700582E-7;5590359.720499717;-1.4536875822280324;4.784577224986449E7;0.3619140625; - ;1.86279296875E-5;0.931396484375
78125.0;50000;40;7;0;0;TWO;VOUT_IIN;FIRST_HARMONIC;PORT_EXT3;PORT_EXT3;false;Quadrants,0,IN_PHASE;435.0;-3707.0;2.085255133532043E-8;1.7770208689662726E-7;5589046.9563924;-1.4539849730064116;4.7955762530898646E7;0.36201171875; - ;1.8585205078125E-5;0.92926025390625
78125.0;50000;40;7;0;0;TWO;VOUT_IIN;FIRST_HARMONIC;PORT_EXT3;PORT_EXT3;false;Quadrants,0,IN_PHASE;435.0;-3706.0;2.0852551335320416E-8;1.7765414999700582E-7;5590534.571322723;-1.4539537395363769;4.7955762530898675E7;0.3619140624999999; - ;1.8585205078125E-5;0.92926025390625
78125.0;50000;40;7;0;0;TWO;VOUT_IIN;FIRST_HARMONIC;PORT_EXT3;PORT_EXT3;false;Quadrants,0,IN_PHASE;434.0;-3707.0;2.080461443569902E-8;1.7770208689662726E-7;5589221.282831294;-1.4542510770891102;4.806625967958731E7;0.36201171875000004; - ;1.854248046875E-5;0.9271240234375
78125.0;50000;40;7;0;0;TWO;VOUT_IIN;FIRST_HARMONIC;PORT_EXT3;PORT_EXT3;false;Quadrants,0,IN_PHASE;431.0;-3708.0;2.0660803736834737E-8;1.7775002379624865E-7;5588254.568506554;-1.4550804261737933;4.8400827612391874E7;0.3621093749999999; - ;1.8414306640625E-5;0.92071533203125
78125.0;50000;40;7;0;0;TWO;VOUT_IIN;FIRST_HARMONIC;PORT_EXT3;PORT_EXT3;false;Quadrants,0,IN_PHASE;431.0;-3707.0;2.0660803736834744E-8;1.7770208689662724E-7;5589741.951980281;-1.4550494886823944;4.840082761239186E7;0.36201171874999993; - ;1.8414306640625E-5;0.92071533203125
78125.0;50000;40;7;0;0;TWO;VOUT_IIN;FIRST_HARMONIC;PORT_EXT3;PORT_EXT3;false;Quadrants,0,IN_PHASE;431.0;-3707.0;2.0660803736834744E-8;1.7770208689662724E-7;5589741.951980281;-1.4550494886823944;4.840082761239186E7;0.36201171874999993; - ;1.8414306640625E-5;0.92071533203125
78125.0;50000;40;7;0;0;TWO;VOUT_IIN;FIRST_HARMONIC;PORT_EXT3;PORT_EXT3;false;Quadrants,0,IN_PHASE;433.0;-3705.0;2.0756677536077598E-8;1.7760621309738437E-7;5592371.797493556;-1.4544549937075857;4.817726720771568E7;0.36181640625; - ;1.8499755859375E-5;0.92498779296875
78125.0;50000;40;7;0;0;TWO;VOUT_IIN;FIRST_HARMONIC;PORT_EXT3;PORT_EXT3;false;Quadrants,0,IN_PHASE;428.0;-3708.0;2.051699303797046E-8;1.7775002379624868E-7;5588771.3573067505;-1.45587877636717;4.87400857498619E7;0.362109375; - ;1.82861328125E-5;0.914306640625
78125.0;50000;40;7;0;0;TWO;VOUT_IIN;FIRST_HARMONIC;PORT_EXT3;PORT_EXT3;false;Quadrants,0,IN_PHASE;429.0;-3708.0;2.0564929937591873E-8;1.7775002379624868E-7;5588599.479539632;-1.4556126432362602;4.8626472496365756E7;0.362109375; - ;1.8328857421875E-5;0.91644287109375
78125.0;50000;40;7;0;0;TWO;VOUT_IIN;FIRST_HARMONIC;PORT_EXT3;PORT_EXT3;false;Quadrants,0,IN_PHASE;426.0;-3707.0;2.0421119238727607E-8;1.777020868966273E-7;5590602.026771888;-1.4563805036513457;4.8968912443523236E7;0.36201171875000004; - ;1.820068359375E-5;0.9100341796875
78125.0;50000;40;7;0;0;TWO;VOUT_IIN;FIRST_HARMONIC;PORT_EXT3;PORT_EXT3;false;Quadrants,0,IN_PHASE;431.0;-3708.0;2.0660803736834737E-8;1.7775002379624865E-7;5588254.568506554;-1.4550804261737933;4.8400827612391874E7;0.3621093749999999; - ;1.8414306640625E-5;0.92071533203125
78125.0;50000;40;7;0;0;TWO;VOUT_IIN;FIRST_HARMONIC;PORT_EXT3;PORT_EXT3;false;Quadrants,0,IN_PHASE;429.0;-3706.0;2.0564929937591883E-8;1.7765414999700582E-7;5591575.584400628;-1.4555510313708406;4.862647249636573E7;0.36191406249999997; - ;1.8328857421875E-5;0.91644287109375
78125.0;50000;40;7;0;0;TWO;VOUT_IIN;FIRST_HARMONIC;PORT_EXT3;PORT_EXT3;false;Quadrants,0,IN_PHASE;429.0;-3706.0;2.0564929937591883E-8;1.7765414999700582E-7;5591575.584400628;-1.4555510313708406;4.862647249636573E7;0.36191406249999997; - ;1.8328857421875E-5;0.91644287109375
78125.0;50000;40;7;0;0;TWO;VOUT_IIN;FIRST_HARMONIC;PORT_EXT3;PORT_EXT3;false;Quadrants,0,IN_PHASE;429.0;-3708.0;2.0564929937591873E-8;1.7775002379624868E-7;5588599.479539632;-1.4556126432362602;4.8626472496365756E7;0.362109375; - ;1.8328857421875E-5;0.91644287109375
78125.0;50000;40;7;0;0;TWO;VOUT_IIN;FIRST_HARMONIC;PORT_EXT3;PORT_EXT3;false;Quadrants,0,IN_PHASE;427.0;-3708.0;2.0469056138349035E-8;1.7775002379624865E-7;5588942.849762732;-1.4561449258496173;4.885423114974449E7;0.36210937499999996; - ;1.8243408203125E-5;0.91217041015625
78125.0;50000;40;7;0;0;TWO;VOUT_IIN;FIRST_HARMONIC;PORT_EXT3;PORT_EXT3;false;Quadrants,0,IN_PHASE;426.0;-3707.0;2.0421119238727607E-8;1.777020868966273E-7;5590602.026771888;-1.4563805036513457;4.8968912443523236E7;0.36201171875000004; - ;1.820068359375E-5;0.9100341796875
78125.0;50000;40;7;0;0;TWO;VOUT_IIN;FIRST_HARMONIC;PORT_EXT3;PORT_EXT3;false;Quadrants,0,IN_PHASE;425.0;-3704.0;2.0373182339106188E-8;1.7755827619776295E-7;5595242.231289297;-1.456555103905556;4.908413341397856E7;0.36171875; - ;1.8157958984375E-5;0.90789794921875
78125.0;50000;40;7;0;0;TWO;VOUT_IIN;FIRST_HARMONIC;PORT_EXT3;PORT_EXT3;false;Quadrants,0,IN_PHASE;425.0;-3707.0;2.037318233910618E-8;1.7770208689662724E-7;5590772.884682123;-1.4566467556662748;4.9084133413978584E7;0.36201171875000004; - ;1.8157958984375E-5;0.90789794921875
78125.0;50000;40;7;0;0;TWO;VOUT_IIN;FIRST_HARMONIC;PORT_EXT3;PORT_EXT3;false;Quadrants,0,IN_PHASE;424.0;-3706.0;2.0325245439484752E-8;1.7765414999700582E-7;5592432.486777247;-1.4568825596103918;4.919989787957759E7;0.36191406249999997; - ;1.8115234375E-5;0.90576171875
