Timestamp;Temp;Hum;ONCHIP_TEMPERATURE_0810;ONCHIP_TEMPERATURE_0850
0.13;----;----;18.543999999999983;15.241999999999962;
0.254;----;----;18.569999999999936;15.215999999999951;
0.375;----;----;18.69999999999999;15.215999999999951;
0.497;----;----;18.543999999999983;15.111999999999966;
0.62;----;----;18.569999999999936;15.137999999999977;
0.747;----;----;18.569999999999936;15.18999999999994;
0.868;----;----;18.517999999999972;15.215999999999951;
0.991;----;----;18.517999999999972;15.215999999999951;
1.111;----;----;18.543999999999983;15.18999999999994;
1.233;----;----;18.569999999999936;15.18999999999994;
1.355;----;----;18.595999999999947;15.137999999999977;
1.477;----;----;18.491999999999962;15.163999999999987;
1.599;----;----;18.46599999999995;15.137999999999977;
1.72;----;----;18.517999999999972;15.163999999999987;
1.843;----;----;18.517999999999972;15.111999999999966;
1.966;----;----;18.517999999999972;15.163999999999987;
2.088;----;----;18.387999999999977;15.137999999999977;
2.21;----;----;18.46599999999995;15.111999999999966;
2.332;----;----;18.46599999999995;15.085999999999956;
2.454;----;----;18.43999999999994;15.085999999999956;
2.577;----;----;18.46599999999995;15.085999999999956;
2.698;----;----;18.491999999999962;15.085999999999956;
2.82;----;----;18.569999999999936;15.059999999999945;
2.94;----;----;18.517999999999972;15.111999999999966;
3.061;----;----;18.491999999999962;15.137999999999977;
3.184;----;----;18.413999999999987;15.033999999999935;
3.307;----;----;18.543999999999983;15.007999999999981;
3.429;----;----;18.46599999999995;15.111999999999966;
3.552;----;----;18.491999999999962;15.085999999999956;
3.674;----;----;18.413999999999987;15.059999999999945;
3.797;----;----;18.46599999999995;15.137999999999977;
3.918;----;----;18.491999999999962;15.241999999999962;
4.04;----;----;18.543999999999983;15.657999999999959;
4.162;----;----;18.491999999999962;16.151999999999987;
4.283;----;----;18.517999999999972;16.359999999999957;
4.406;----;----;18.43999999999994;16.515999999999963;
4.528;----;----;18.543999999999983;16.541999999999973;
4.648;----;----;18.43999999999994;16.72399999999999;
4.769;----;----;18.543999999999983;16.69799999999998;
4.89;----;----;18.413999999999987;16.72399999999999;
5.012;----;----;18.413999999999987;16.827999999999975;
5.134;----;----;18.491999999999962;16.827999999999975;
5.255;----;----;18.413999999999987;16.87999999999994;
5.378;----;----;18.46599999999995;16.827999999999975;
5.5;----;----;18.413999999999987;17.009999999999934;
5.621;----;----;18.491999999999962;16.95799999999997;
5.744;----;----;18.46599999999995;17.087999999999965;
5.867;----;----;18.543999999999983;17.061999999999955;
5.99;----;----;18.46599999999995;17.061999999999955;
6.114;----;----;18.43999999999994;17.16599999999994;
6.235;----;----;18.46599999999995;17.139999999999986;
6.356;----;----;18.43999999999994;17.21799999999996;
6.478;----;----;18.43999999999994;17.21799999999996;
6.6;----;----;18.309999999999945;17.24399999999997;
6.723;----;----;18.46599999999995;17.269999999999982;
6.845;----;----;18.43999999999994;17.347999999999956;
6.967;----;----;18.361999999999966;17.399999999999977;
7.09;----;----;18.46599999999995;17.295999999999935;
7.212;----;----;18.43999999999994;17.399999999999977;
7.335;----;----;18.491999999999962;17.373999999999967;
7.456;----;----;18.361999999999966;17.321999999999946;
7.578;----;----;18.43999999999994;17.45199999999994;
7.701;----;----;18.43999999999994;17.477999999999952;
7.823;----;----;18.43999999999994;17.45199999999994;
7.946;----;----;18.413999999999987;17.581999999999937;
8.068;----;----;18.491999999999962;17.581999999999937;
8.192;----;----;18.413999999999987;17.607999999999947;
8.314;----;----;18.361999999999966;17.581999999999937;
8.435;----;----;18.46599999999995;17.607999999999947;
8.556;----;----;18.387999999999977;17.581999999999937;
8.677;----;----;18.543999999999983;17.555999999999983;
8.799;----;----;18.46599999999995;17.581999999999937;
8.919;----;----;18.43999999999994;17.633999999999958;
9.042;----;----;18.387999999999977;17.581999999999937;
9.164;----;----;18.413999999999987;17.68599999999998;
9.286;----;----;18.413999999999987;17.71199999999999;
9.408;----;----;18.387999999999977;17.737999999999943;
9.53;----;----;18.491999999999962;17.789999999999964;
9.654;----;----;18.413999999999987;17.71199999999999;
9.776;----;----;18.413999999999987;17.789999999999964;
9.897;----;----;18.413999999999987;17.737999999999943;
10.02;----;----;18.413999999999987;17.789999999999964;
10.142;----;----;18.413999999999987;17.71199999999999;
10.264;----;----;18.43999999999994;17.789999999999964;
10.384;----;----;18.491999999999962;17.763999999999953;
10.505;----;----;18.43999999999994;17.815999999999974;
10.627;----;----;18.387999999999977;17.789999999999964;
10.75;----;----;18.413999999999987;17.789999999999964;
10.872;----;----;18.46599999999995;17.841999999999985;
10.993;----;----;18.361999999999966;17.89399999999995;
11.114;----;----;18.413999999999987;17.841999999999985;
11.236;----;----;18.361999999999966;17.867999999999938;
11.359;----;----;18.491999999999962;17.789999999999964;
11.48;----;----;18.387999999999977;17.89399999999995;
11.601;----;----;18.413999999999987;17.89399999999995;
11.723;----;----;18.517999999999972;17.89399999999995;
11.846;----;----;18.361999999999966;17.91999999999996;
11.968;----;----;18.491999999999962;17.841999999999985;
12.09;----;----;18.413999999999987;17.867999999999938;
12.212;----;----;18.335999999999956;17.789999999999964;
12.334;----;----;18.413999999999987;17.16599999999994;
12.456;----;----;18.413999999999987;17.89399999999995;
12.577;----;----;18.43999999999994;17.815999999999974;
12.698;----;----;18.413999999999987;17.763999999999953;
12.819;----;----;18.543999999999983;17.71199999999999;
12.941;----;----;18.413999999999987;17.633999999999958;
13.063;----;----;18.43999999999994;17.633999999999958;
13.184;----;----;18.413999999999987;17.581999999999937;
13.307;----;----;18.43999999999994;17.581999999999937;
13.43;----;----;18.43999999999994;17.555999999999983;
13.552;----;----;18.335999999999956;17.399999999999977;
13.673;----;----;18.387999999999977;17.45199999999994;
13.794;----;----;18.387999999999977;17.347999999999956;
13.917;----;----;18.413999999999987;17.347999999999956;
14.041;----;----;18.387999999999977;17.347999999999956;
14.163;----;----;18.46599999999995;17.19199999999995;
14.286;----;----;18.413999999999987;17.24399999999997;
14.407;----;----;18.387999999999977;17.269999999999982;
14.53;----;----;18.387999999999977;17.24399999999997;
14.653;----;----;18.387999999999977;17.21799999999996;
14.776;----;----;18.43999999999994;17.19199999999995;
14.898;----;----;18.491999999999962;17.139999999999986;
15.018;----;----;18.43999999999994;17.19199999999995;
15.138;----;----;18.361999999999966;17.16599999999994;
15.259;----;----;18.335999999999956;17.21799999999996;
15.38;----;----;18.387999999999977;17.087999999999965;
15.503;----;----;18.491999999999962;17.061999999999955;
15.627;----;----;18.335999999999956;17.009999999999934;
15.749;----;----;18.387999999999977;17.009999999999934;
15.869;----;----;18.361999999999966;16.93199999999996;
15.992;----;----;18.387999999999977;16.98399999999998;
16.113;----;----;18.43999999999994;17.009999999999934;
16.236;----;----;18.46599999999995;16.827999999999975;
16.359;----;----;18.43999999999994;16.87999999999994;
16.48;----;----;18.413999999999987;16.90599999999995;
16.602;----;----;18.413999999999987;16.853999999999985;
16.723;----;----;18.413999999999987;16.90599999999995;
16.843;----;----;18.491999999999962;16.87999999999994;
16.965;----;----;18.46599999999995;16.801999999999964;
17.087;----;----;18.387999999999977;16.827999999999975;
17.208;----;----;18.43999999999994;16.801999999999964;
17.329;----;----;18.46599999999995;16.801999999999964;
17.451;----;----;18.309999999999945;16.749999999999943;
17.573;----;----;18.413999999999987;16.775999999999954;
17.694;----;----;18.387999999999977;16.801999999999964;
17.816;----;----;18.387999999999977;16.67199999999997;
17.938;----;----;18.387999999999977;16.801999999999964;
18.059;----;----;18.335999999999956;16.72399999999999;
18.181;----;----;18.387999999999977;16.72399999999999;
18.303;----;----;18.309999999999945;16.645999999999958;
18.426;----;----;18.43999999999994;16.69799999999998;
18.547;----;----;18.361999999999966;16.72399999999999;
18.67;----;----;18.361999999999966;16.645999999999958;
18.791;----;----;18.413999999999987;16.619999999999948;
18.913;----;----;18.387999999999977;16.645999999999958;
19.035;----;----;18.283999999999935;16.593999999999937;
19.156;----;----;18.46599999999995;16.619999999999948;
19.276;----;----;18.387999999999977;16.619999999999948;
19.398;----;----;18.361999999999966;16.593999999999937;
19.521;----;----;18.335999999999956;16.567999999999984;
19.643;----;----;18.309999999999945;16.593999999999937;
19.764;----;----;18.309999999999945;16.567999999999984;
19.887;----;----;18.361999999999966;16.541999999999973;
20.008;----;----;18.413999999999987;16.515999999999963;
20.13;----;----;18.387999999999977;16.541999999999973;
20.253;----;----;18.387999999999977;16.463999999999942;
20.374;----;----;18.43999999999994;16.541999999999973;
20.497;----;----;18.361999999999966;16.515999999999963;
20.619;----;----;18.335999999999956;16.541999999999973;
20.741;----;----;18.335999999999956;16.593999999999937;
20.864;----;----;18.283999999999935;16.489999999999952;
20.987;----;----;18.335999999999956;16.541999999999973;
21.107;----;----;18.43999999999994;16.411999999999978;
21.23;----;----;18.387999999999977;16.463999999999942;
21.353;----;----;18.361999999999966;16.437999999999988;
21.473;----;----;18.335999999999956;16.437999999999988;
21.594;----;----;18.361999999999966;16.515999999999963;
21.716;----;----;18.283999999999935;16.359999999999957;
21.837;----;----;18.46599999999995;16.359999999999957;
21.957;----;----;18.43999999999994;16.411999999999978;
22.079;----;----;18.387999999999977;16.411999999999978;
22.201;----;----;18.335999999999956;16.385999999999967;
22.322;----;----;18.387999999999977;16.411999999999978;
22.444;----;----;18.309999999999945;16.333999999999946;
22.566;----;----;18.309999999999945;16.385999999999967;
22.688;----;----;18.413999999999987;16.333999999999946;
