frequencies;rsense;ingain;outgain;dcbiasP;dcbiasN;contacts;modevi;harmonic;inport;outport;SequentialMode;phaseShift;VadcI;VadcQ;Conductance;Susceptance;Zmod;ZPha;Rp;Cp;Lp;Current[mA];Voltage[mV]
78125.0;50000;40;7;0;0;TWO;VOUT_IIN;FIRST_HARMONIC;PORT_EXT3;PORT_EXT3;false;Quadrants,0,IN_PHASE;456.0;-3756.0;2.1859225854492207E-8;-1.800509919067383E-7;5513498.102047527;-1.4499818367306105;4.574727424734001E7;0.366796875; - ;0.0;0.0
78125.0;50000;40;7;0;0;TWO;VOUT_IIN;FIRST_HARMONIC;PORT_EXT3;PORT_EXT3;false;Quadrants,0,IN_PHASE;454.0;-3753.0;2.176335205688476E-8;-1.7990718121032717E-7;5518192.624481601;-1.4504113881668894;4.594880408983934E7;0.36650390624999996; - ;0.0;0.0
78125.0;50000;40;7;0;0;TWO;VOUT_IIN;FIRST_HARMONIC;PORT_EXT3;PORT_EXT3;false;Quadrants,0,IN_PHASE;451.0;-3752.0;2.161954136047364E-8;-1.7985924431152345E-7;5520166.793570407;-1.4511677223665502;4.625445023677837E7;0.36640625000000004; - ;0.0;0.0
78125.0;50000;40;7;0;0;TWO;VOUT_IIN;FIRST_HARMONIC;PORT_EXT3;PORT_EXT3;false;Quadrants,0,IN_PHASE;456.0;-3755.0;2.1859225854492184E-8;-1.8000305500793457E-7;5514945.074500569;-1.4499499747232982;4.574727424734003E7;0.3666992187500001; - ;0.0;0.0
78125.0;50000;40;7;0;0;TWO;VOUT_IIN;FIRST_HARMONIC;PORT_EXT3;PORT_EXT3;false;Quadrants,0,IN_PHASE;459.0;-3751.0;2.200303655090334E-8;-1.7981130741271974E-7;5520209.89348641;-1.4490342958792375;4.544827245487373E7;0.36630859375; - ;0.0;0.0
78125.0;50000;40;7;0;0;TWO;VOUT_IIN;FIRST_HARMONIC;PORT_EXT3;PORT_EXT3;false;Quadrants,0,IN_PHASE;453.0;-3753.0;2.171541515808104E-8;-1.7990718121032717E-7;5518367.741519566;-1.4506740070399795;4.605023632844827E7;0.36650390625; - ;0.0;0.0
78125.0;50000;40;7;0;0;TWO;VOUT_IIN;FIRST_HARMONIC;PORT_EXT3;PORT_EXT3;false;Quadrants,0,IN_PHASE;454.0;-3753.0;2.176335205688476E-8;-1.7990718121032717E-7;5518192.624481601;-1.4504113881668894;4.594880408983934E7;0.36650390624999996; - ;0.0;0.0
78125.0;50000;40;7;0;0;TWO;VOUT_IIN;FIRST_HARMONIC;PORT_EXT3;PORT_EXT3;false;Quadrants,0,IN_PHASE;454.0;-3755.0;2.1763352056884778E-8;-1.800030550079346E-7;5515295.863746514;-1.4504748907496736;4.5948804089839295E7;0.3666992187500001; - ;0.0;0.0
78125.0;50000;40;7;0;0;TWO;VOUT_IIN;FIRST_HARMONIC;PORT_EXT3;PORT_EXT3;false;Quadrants,0,IN_PHASE;450.0;-3758.0;2.157160446166992E-8;-1.801468657043457E-7;5511651.885872495;-1.451619237077635;4.635723790397124E7;0.3669921875; - ;0.0;0.0
78125.0;50000;40;7;0;0;TWO;VOUT_IIN;FIRST_HARMONIC;PORT_EXT3;PORT_EXT3;false;Quadrants,0,IN_PHASE;454.0;-3758.0;2.1763352056884768E-8;-1.801468657043457E-7;5510956.379001832;-1.4505700197133904;4.594880408983934E7;0.3669921875; - ;0.0;0.0
78125.0;50000;40;7;0;0;TWO;VOUT_IIN;FIRST_HARMONIC;PORT_EXT3;PORT_EXT3;false;Quadrants,0,IN_PHASE;459.0;-3758.0;2.2003036550903304E-8;-1.8014686570434569E-7;5510078.715943132;-1.4492588722156563;4.54482724548738E7;0.36699218749999996; - ;0.0;0.0
78125.0;50000;40;7;0;0;TWO;VOUT_IIN;FIRST_HARMONIC;PORT_EXT3;PORT_EXT3;false;Quadrants,0,IN_PHASE;453.0;-3756.0;2.171541515808105E-8;-1.800509919067383E-7;5514023.319021107;-1.450769032189893;4.605023632844825E7;0.3667968750000001; - ;0.0;0.0
78125.0;50000;40;7;0;0;TWO;VOUT_IIN;FIRST_HARMONIC;PORT_EXT3;PORT_EXT3;false;Quadrants,0,IN_PHASE;458.0;-3760.0;2.1955099652099593E-8;-1.8024273950195314E-7;5507366.860634896;-1.449584946229598;4.5547504490801476E7;0.36718749999999994; - ;0.0;0.0
78125.0;50000;40;7;0;0;TWO;VOUT_IIN;FIRST_HARMONIC;PORT_EXT3;PORT_EXT3;false;Quadrants,0,IN_PHASE;459.0;-3754.0;2.2003036550903327E-8;-1.7995511810913086E-7;5515863.4360032445;-1.4491306439241831;4.544827245487373E7;0.36660156250000003; - ;0.0;0.0
78125.0;50000;40;7;0;0;TWO;VOUT_IIN;FIRST_HARMONIC;PORT_EXT3;PORT_EXT3;false;Quadrants,0,IN_PHASE;450.0;-3759.0;2.1571604461669907E-8;-1.801948026031494E-7;5510206.3499642955;-1.4516506423110767;4.635723790397126E7;0.36708984375000003; - ;0.0;0.0
78125.0;50000;40;7;0;0;TWO;VOUT_IIN;FIRST_HARMONIC;PORT_EXT3;PORT_EXT3;false;Quadrants,0,IN_PHASE;451.0;-3759.0;2.1619541360473625E-8;-1.8019480260314943E-7;5510033.161971882;-1.4513883809712513;4.62544502367784E7;0.3670898437500001; - ;0.0;0.0
78125.0;50000;40;7;0;0;TWO;VOUT_IIN;FIRST_HARMONIC;PORT_EXT3;PORT_EXT3;false;Quadrants,0,IN_PHASE;453.0;-3753.0;2.171541515808104E-8;-1.7990718121032717E-7;5518367.741519566;-1.4506740070399795;4.605023632844827E7;0.36650390625; - ;0.0;0.0
78125.0;50000;40;7;0;0;TWO;VOUT_IIN;FIRST_HARMONIC;PORT_EXT3;PORT_EXT3;false;Quadrants,0,IN_PHASE;455.0;-3755.0;2.181128895568848E-8;-1.8000305500793457E-7;5515120.653497914;-1.4502124243896646;4.5847817707224295E7;0.36669921875000006; - ;0.0;0.0
78125.0;50000;40;7;0;0;TWO;VOUT_IIN;FIRST_HARMONIC;PORT_EXT3;PORT_EXT3;false;Quadrants,0,IN_PHASE;457.0;-3760.0;2.1907162753295898E-8;-1.8024273950195312E-7;5507542.484593508;-1.449847023635968;4.5647170802597485E7;0.36718750000000006; - ;0.0;0.0
78125.0;50000;40;7;0;0;TWO;VOUT_IIN;FIRST_HARMONIC;PORT_EXT3;PORT_EXT3;false;Quadrants,0,IN_PHASE;460.0;-3756.0;2.205097344970703E-8;-1.8005099190673828E-7;5512792.656219464;-1.44893247695727;4.534947186258055E7;0.3667968750000001; - ;0.0;0.0
78125.0;50000;40;7;0;0;TWO;VOUT_IIN;FIRST_HARMONIC;PORT_EXT3;PORT_EXT3;false;Quadrants,0,IN_PHASE;451.0;-3755.0;2.161954136047361E-8;-1.8000305500793457E-7;5515819.280925201;-1.4512623896457644;4.625445023677844E7;0.36669921875000006; - ;0.0;0.0
78125.0;50000;40;7;0;0;TWO;VOUT_IIN;FIRST_HARMONIC;PORT_EXT3;PORT_EXT3;false;Quadrants,0,IN_PHASE;455.0;-3751.0;2.1811288955688476E-8;-1.7981130741271976E-7;5520916.644160992;-1.4500850806890033;4.58478177072243E7;0.3663085937500001; - ;0.0;0.0
78125.0;50000;40;7;0;0;TWO;VOUT_IIN;FIRST_HARMONIC;PORT_EXT3;PORT_EXT3;false;Quadrants,0,IN_PHASE;458.0;-3752.0;2.1955099652099606E-8;-1.7985924431152348E-7;5518937.421622252;-1.449329031775431;4.5547504490801446E7;0.36640625000000004; - ;0.0;0.0
78125.0;50000;40;7;0;0;TWO;VOUT_IIN;FIRST_HARMONIC;PORT_EXT3;PORT_EXT3;false;Quadrants,0,IN_PHASE;453.0;-3749.0;2.171541515808105E-8;-1.7971543361511228E-7;5524170.88728482;-1.450547073671013;4.605023632844824E7;0.36611328125000003; - ;0.0;0.0
78125.0;50000;40;7;0;0;TWO;VOUT_IIN;FIRST_HARMONIC;PORT_EXT3;PORT_EXT3;false;Quadrants,0,IN_PHASE;453.0;-3751.0;2.1715415158081047E-8;-1.7981130741271974E-7;5521267.800668877;-1.4506105737089157;4.605023632844826E7;0.3663085937500001; - ;0.0;0.0
78125.0;50000;40;7;0;0;TWO;VOUT_IIN;FIRST_HARMONIC;PORT_EXT3;PORT_EXT3;false;Quadrants,0,IN_PHASE;451.0;-3757.0;2.1619541360473625E-8;-1.8009892880554202E-7;5512924.714174998;-1.4513254183672124;4.625445023677842E7;0.36689453125000004; - ;0.0;0.0
78125.0;50000;40;7;0;0;TWO;VOUT_IIN;FIRST_HARMONIC;PORT_EXT3;PORT_EXT3;false;Quadrants,0,IN_PHASE;449.0;-3755.0;2.152366756286622E-8;-1.8000305500793457E-7;5516166.38000073;-1.4517874717438473;4.64604834226883E7;0.36669921875000006; - ;0.0;0.0
78125.0;50000;40;7;0;0;TWO;VOUT_IIN;FIRST_HARMONIC;PORT_EXT3;PORT_EXT3;false;Quadrants,0,IN_PHASE;450.0;-3758.0;2.157160446166992E-8;-1.801468657043457E-7;5511651.885872495;-1.451619237077635;4.635723790397124E7;0.3669921875; - ;0.0;0.0
78125.0;50000;40;7;0;0;TWO;VOUT_IIN;FIRST_HARMONIC;PORT_EXT3;PORT_EXT3;false;Quadrants,0,IN_PHASE;452.0;-3753.0;2.166747825927735E-8;-1.7990718121032717E-7;5518542.489029613;-1.4509366425636363;4.615211738227224E7;0.36650390625; - ;0.0;0.0
78125.0;50000;40;7;0;0;TWO;VOUT_IIN;FIRST_HARMONIC;PORT_EXT3;PORT_EXT3;false;Quadrants,0,IN_PHASE;454.0;-3757.0;2.1763352056884745E-8;-1.80098928805542E-7;5512402.120515421;-1.4505383266961547;4.5948804089839384E7;0.36689453125000004; - ;0.0;0.0
78125.0;50000;40;7;0;0;TWO;VOUT_IIN;FIRST_HARMONIC;PORT_EXT3;PORT_EXT3;false;Quadrants,0,IN_PHASE;452.0;-3757.0;2.1667478259277356E-8;-1.8009892880554197E-7;5512750.884760285;-1.451063037901436;4.615211738227221E7;0.3668945312500001; - ;0.0;0.0
78125.0;50000;40;7;0;0;TWO;VOUT_IIN;FIRST_HARMONIC;PORT_EXT3;PORT_EXT3;false;Quadrants,0,IN_PHASE;453.0;-3752.0;2.1715415158081044E-8;-1.7985924431152345E-7;5519817.392954749;-1.450642298706263;4.6050236328448266E7;0.36640625000000004; - ;0.0;0.0
78125.0;50000;40;7;0;0;TWO;VOUT_IIN;FIRST_HARMONIC;PORT_EXT3;PORT_EXT3;false;Quadrants,0,IN_PHASE;454.0;-3754.0;2.1763352056884775E-8;-1.7995511810913086E-7;5516743.86663335;-1.450443147794348;4.5948804089839324E7;0.3666015624999999; - ;0.0;0.0
78125.0;50000;40;7;0;0;TWO;VOUT_IIN;FIRST_HARMONIC;PORT_EXT3;PORT_EXT3;false;Quadrants,0,IN_PHASE;455.0;-3750.0;2.1811288955688463E-8;-1.7976337051391602E-7;5522367.531801214;-1.4500532029314568;4.584781770722435E7;0.36621093749999994; - ;0.0;0.0
78125.0;50000;40;7;0;0;TWO;VOUT_IIN;FIRST_HARMONIC;PORT_EXT3;PORT_EXT3;false;Quadrants,0,IN_PHASE;449.0;-3757.0;2.152366756286623E-8;-1.8009892880554202E-7;5513271.267055655;-1.4518502288522304;4.646048342268829E7;0.3668945312500001; - ;0.0;0.0
78125.0;50000;40;7;0;0;TWO;VOUT_IIN;FIRST_HARMONIC;PORT_EXT3;PORT_EXT3;false;Quadrants,0,IN_PHASE;451.0;-3755.0;2.161954136047361E-8;-1.8000305500793457E-7;5515819.280925201;-1.4512623896457644;4.625445023677844E7;0.36669921875000006; - ;0.0;0.0
78125.0;50000;40;7;0;0;TWO;VOUT_IIN;FIRST_HARMONIC;PORT_EXT3;PORT_EXT3;false;Quadrants,0,IN_PHASE;448.0;-3755.0;2.147573066406252E-8;-1.800030550079346E-7;5516339.375505211;-1.4520500375392156;4.6564189858899646E7;0.36669921875; - ;0.0;0.0
78125.0;50000;40;7;0;0;TWO;VOUT_IIN;FIRST_HARMONIC;PORT_EXT3;PORT_EXT3;false;Quadrants,0,IN_PHASE;452.0;-3757.0;2.1667478259277356E-8;-1.8009892880554197E-7;5512750.884760285;-1.451063037901436;4.615211738227221E7;0.3668945312500001; - ;0.0;0.0
78125.0;50000;40;7;0;0;TWO;VOUT_IIN;FIRST_HARMONIC;PORT_EXT3;PORT_EXT3;false;Quadrants,0,IN_PHASE;455.0;-3751.0;2.1811288955688476E-8;-1.7981130741271976E-7;5520916.644160992;-1.4500850806890033;4.58478177072243E7;0.3663085937500001; - ;0.0;0.0
78125.0;50000;40;7;0;0;TWO;VOUT_IIN;FIRST_HARMONIC;PORT_EXT3;PORT_EXT3;false;Quadrants,0,IN_PHASE;452.0;-3756.0;2.1667478259277333E-8;-1.800509919067383E-7;5514197.654124711;-1.4510314639453221;4.615211738227228E7;0.3667968750000001; - ;0.0;0.0
78125.0;50000;40;7;0;0;TWO;VOUT_IIN;FIRST_HARMONIC;PORT_EXT3;PORT_EXT3;false;Quadrants,0,IN_PHASE;457.0;-3753.0;2.1907162753295918E-8;-1.799071812103272E-7;5517665.057277638;-1.449623631797334;4.564717080259746E7;0.36650390625; - ;0.0;0.0
78125.0;50000;40;7;0;0;TWO;VOUT_IIN;FIRST_HARMONIC;PORT_EXT3;PORT_EXT3;false;Quadrants,0,IN_PHASE;455.0;-3750.0;2.1811288955688463E-8;-1.7976337051391602E-7;5522367.531801214;-1.4500532029314568;4.584781770722435E7;0.36621093749999994; - ;0.0;0.0
78125.0;50000;40;7;0;0;TWO;VOUT_IIN;FIRST_HARMONIC;PORT_EXT3;PORT_EXT3;false;Quadrants,0,IN_PHASE;445.0;-3755.0;2.133191996765137E-8;-1.8000305500793454E-7;5516856.144610341;-1.4528378334947454;4.687810574558888E7;0.36669921875000006; - ;0.0;0.0
78125.0;50000;40;7;0;0;TWO;VOUT_IIN;FIRST_HARMONIC;PORT_EXT3;PORT_EXT3;false;Quadrants,0,IN_PHASE;447.0;-3748.0;2.1427793765258774E-8;-1.796674967163086E-7;5526670.625867644;-1.4520934031111;4.666836030601134E7;0.36601562499999996; - ;0.0;0.0
78125.0;50000;40;7;0;0;TWO;VOUT_IIN;FIRST_HARMONIC;PORT_EXT3;PORT_EXT3;false;Quadrants,0,IN_PHASE;452.0;-3744.0;2.1667478259277362E-8;-1.7947574912109376E-7;5531617.872441799;-1.4506512797481252;4.615211738227221E7;0.36562500000000003; - ;0.0;0.0
78125.0;50000;40;7;0;0;TWO;VOUT_IIN;FIRST_HARMONIC;PORT_EXT3;PORT_EXT3;false;Quadrants,0,IN_PHASE;457.0;-3755.0;2.190716275329591E-8;-1.8000305500793457E-7;5514769.126862258;-1.4496875417851334;4.564717080259746E7;0.36669921875000006; - ;0.0;0.0
78125.0;50000;40;7;0;0;TWO;VOUT_IIN;FIRST_HARMONIC;PORT_EXT3;PORT_EXT3;false;Quadrants,0,IN_PHASE;451.0;-3745.0;2.1619541360473638E-8;-1.7952368601989748E-7;5530337.497083627;-1.4509462506403676;4.6254450236778386E7;0.36572265625; - ;0.0;0.0
78125.0;50000;40;7;0;0;TWO;VOUT_IIN;FIRST_HARMONIC;PORT_EXT3;PORT_EXT3;false;Quadrants,0,IN_PHASE;453.0;-3755.0;2.1715415158081054E-8;-1.800030550079346E-7;5515470.705138801;-1.450737373768753;4.605023632844825E7;0.36669921875; - ;0.0;0.0
78125.0;50000;40;7;0;0;TWO;VOUT_IIN;FIRST_HARMONIC;PORT_EXT3;PORT_EXT3;false;Quadrants,0,IN_PHASE;451.0;-3753.0;2.1619541360473635E-8;-1.7990718121032714E-7;5518716.866904312;-1.4511992947032084;4.6254450236778386E7;0.36650390625; - ;0.0;0.0
78125.0;50000;40;7;0;0;TWO;VOUT_IIN;FIRST_HARMONIC;PORT_EXT3;PORT_EXT3;false;Quadrants,0,IN_PHASE;452.0;-3750.0;2.166747825927734E-8;-1.7976337051391605E-7;5522894.126463065;-1.4508416716386123;4.615211738227225E7;0.3662109375000001; - ;0.0;0.0
78125.0;50000;40;7;0;0;TWO;VOUT_IIN;FIRST_HARMONIC;PORT_EXT3;PORT_EXT3;false;Quadrants,0,IN_PHASE;447.0;-3752.0;2.1427793765258794E-8;-1.7985924431152348E-7;5520861.153641179;-1.452218768540505;4.666836030601131E7;0.36640625000000004; - ;0.0;0.0
78125.0;50000;40;7;0;0;TWO;VOUT_IIN;FIRST_HARMONIC;PORT_EXT3;PORT_EXT3;false;Quadrants,0,IN_PHASE;453.0;-3750.0;2.1715415158081047E-8;-1.7976337051391602E-7;5522718.9652495105;-1.450578832034862;4.605023632844826E7;0.3662109375000001; - ;0.0;0.0
78125.0;50000;40;7;0;0;TWO;VOUT_IIN;FIRST_HARMONIC;PORT_EXT3;PORT_EXT3;false;Quadrants,0,IN_PHASE;455.0;-3755.0;2.181128895568848E-8;-1.8000305500793457E-7;5515120.653497914;-1.4502124243896646;4.5847817707224295E7;0.36669921875000006; - ;0.0;0.0
78125.0;50000;40;7;0;0;TWO;VOUT_IIN;FIRST_HARMONIC;PORT_EXT3;PORT_EXT3;false;Quadrants,0,IN_PHASE;451.0;-3753.0;2.1619541360473635E-8;-1.7990718121032714E-7;5518716.866904312;-1.4511992947032084;4.6254450236778386E7;0.36650390625; - ;0.0;0.0
78125.0;50000;40;7;0;0;TWO;VOUT_IIN;FIRST_HARMONIC;PORT_EXT3;PORT_EXT3;false;Quadrants,0,IN_PHASE;451.0;-3749.0;2.1619541360473635E-8;-1.7971543361511234E-7;5524521.1153246835;-1.4510729057388991;4.625445023677839E7;0.36611328125; - ;0.0;0.0
78125.0;50000;40;7;0;0;TWO;VOUT_IIN;FIRST_HARMONIC;PORT_EXT3;PORT_EXT3;false;Quadrants,0,IN_PHASE;450.0;-3752.0;2.157160446166994E-8;-1.7985924431152345E-7;5520340.938893817;-1.4514304591054288;4.635723790397122E7;0.36640625; - ;0.0;0.0
78125.0;50000;40;7;0;0;TWO;VOUT_IIN;FIRST_HARMONIC;PORT_EXT3;PORT_EXT3;false;Quadrants,0,IN_PHASE;451.0;-3750.0;2.161954136047364E-8;-1.7976337051391602E-7;5523068.917192352;-1.4511045278974255;4.625445023677837E7;0.3662109375; - ;0.0;0.0
78125.0;50000;40;7;0;0;TWO;VOUT_IIN;FIRST_HARMONIC;PORT_EXT3;PORT_EXT3;false;Quadrants,0,IN_PHASE;450.0;-3760.0;2.157160446166991E-8;-1.8024273950195312E-7;5508761.566667095;-1.4516820310755627;4.635723790397125E7;0.36718750000000006; - ;0.0;0.0
78125.0;50000;40;7;0;0;TWO;VOUT_IIN;FIRST_HARMONIC;PORT_EXT3;PORT_EXT3;false;Quadrants,0,IN_PHASE;450.0;-3748.0;2.1571604461669943E-8;-1.796674967163086E-7;5526148.767317709;-1.4513042761054162;4.6357237903971195E7;0.36601562499999996; - ;0.0;0.0
78125.0;50000;40;7;0;0;TWO;VOUT_IIN;FIRST_HARMONIC;PORT_EXT3;PORT_EXT3;false;Quadrants,0,IN_PHASE;454.0;-3754.0;2.1763352056884775E-8;-1.7995511810913086E-7;5516743.86663335;-1.450443147794348;4.5948804089839324E7;0.3666015624999999; - ;0.0;0.0
78125.0;50000;40;7;0;0;TWO;VOUT_IIN;FIRST_HARMONIC;PORT_EXT3;PORT_EXT3;false;Quadrants,0,IN_PHASE;448.0;-3757.0;2.147573066406252E-8;-1.8009892880554202E-7;5513443.990308891;-1.4521126588023094;4.656418985889964E7;0.3668945312500001; - ;0.0;0.0
78125.0;50000;40;7;0;0;TWO;VOUT_IIN;FIRST_HARMONIC;PORT_EXT3;PORT_EXT3;false;Quadrants,0,IN_PHASE;456.0;-3744.0;2.1859225854492174E-8;-1.7947574912109376E-7;5530911.670262436;-1.4495983856898684;4.574727424734006E7;0.3656250000000001; - ;0.0;0.0
78125.0;50000;40;7;0;0;TWO;VOUT_IIN;FIRST_HARMONIC;PORT_EXT3;PORT_EXT3;false;Quadrants,0,IN_PHASE;457.0;-3758.0;2.1907162753295895E-8;-1.801468657043457E-7;5510430.884345216;-1.4497832810789917;4.56471708025975E7;0.3669921875000001; - ;0.0;0.0
78125.0;50000;40;7;0;0;TWO;VOUT_IIN;FIRST_HARMONIC;PORT_EXT3;PORT_EXT3;false;Quadrants,0,IN_PHASE;453.0;-3751.0;2.1715415158081047E-8;-1.7981130741271974E-7;5521267.800668877;-1.4506105737089157;4.605023632844826E7;0.3663085937500001; - ;0.0;0.0
78125.0;50000;40;7;0;0;TWO;VOUT_IIN;FIRST_HARMONIC;PORT_EXT3;PORT_EXT3;false;Quadrants,0,IN_PHASE;456.0;-3753.0;2.185922585449219E-8;-1.7990718121032717E-7;5517841.282252683;-1.449886200510949;4.574727424734003E7;0.36650390625; - ;0.0;0.0
78125.0;50000;40;7;0;0;TWO;VOUT_IIN;FIRST_HARMONIC;PORT_EXT3;PORT_EXT3;false;Quadrants,0,IN_PHASE;450.0;-3753.0;2.1571604461669924E-8;-1.7990718121032714E-7;5518890.875036438;-1.4514619634240304;4.635723790397123E7;0.36650390625; - ;0.0;0.0
78125.0;50000;40;7;0;0;TWO;VOUT_IIN;FIRST_HARMONIC;PORT_EXT3;PORT_EXT3;false;Quadrants,0,IN_PHASE;450.0;-3749.0;2.1571604461669927E-8;-1.797154336151123E-7;5524695.673085117;-1.4513358467402815;4.6357237903971225E7;0.36611328125000003; - ;0.0;0.0
78125.0;50000;40;7;0;0;TWO;VOUT_IIN;FIRST_HARMONIC;PORT_EXT3;PORT_EXT3;false;Quadrants,0,IN_PHASE;453.0;-3752.0;2.1715415158081044E-8;-1.7985924431152345E-7;5519817.392954749;-1.450642298706263;4.6050236328448266E7;0.36640625000000004; - ;0.0;0.0
78125.0;50000;40;7;0;0;TWO;VOUT_IIN;FIRST_HARMONIC;PORT_EXT3;PORT_EXT3;false;Quadrants,0,IN_PHASE;451.0;-3754.0;2.1619541360473628E-8;-1.7995511810913088E-7;5517267.696218153;-1.4512308504586144;4.6254450236778416E7;0.36660156250000003; - ;0.0;0.0
78125.0;50000;40;7;0;0;TWO;VOUT_IIN;FIRST_HARMONIC;PORT_EXT3;PORT_EXT3;false;Quadrants,0,IN_PHASE;452.0;-3756.0;2.1667478259277333E-8;-1.800509919067383E-7;5514197.654124711;-1.4510314639453221;4.615211738227228E7;0.3667968750000001; - ;0.0;0.0
78125.0;50000;40;7;0;0;TWO;VOUT_IIN;FIRST_HARMONIC;PORT_EXT3;PORT_EXT3;false;Quadrants,0,IN_PHASE;453.0;-3753.0;2.171541515808104E-8;-1.7990718121032717E-7;5518367.741519566;-1.4506740070399795;4.605023632844827E7;0.36650390625; - ;0.0;0.0
78125.0;50000;40;7;0;0;TWO;VOUT_IIN;FIRST_HARMONIC;PORT_EXT3;PORT_EXT3;false;Quadrants,0,IN_PHASE;449.0;-3754.0;2.1523667562866213E-8;-1.7995511810913086E-7;5517615.068820032;-1.451756068467104;4.646048342268833E7;0.36660156250000003; - ;0.0;0.0
78125.0;50000;40;7;0;0;TWO;VOUT_IIN;FIRST_HARMONIC;PORT_EXT3;PORT_EXT3;false;Quadrants,0,IN_PHASE;453.0;-3755.0;2.1715415158081054E-8;-1.800030550079346E-7;5515470.705138801;-1.450737373768753;4.605023632844825E7;0.36669921875; - ;0.0;0.0
78125.0;50000;40;7;0;0;TWO;VOUT_IIN;FIRST_HARMONIC;PORT_EXT3;PORT_EXT3;false;Quadrants,0,IN_PHASE;455.0;-3746.0;2.1811288955688502E-8;-1.7957162291870117E-7;5528178.659893581;-1.4499255241775093;4.584781770722426E7;0.3658203125; - ;0.0;0.0
78125.0;50000;40;7;0;0;TWO;VOUT_IIN;FIRST_HARMONIC;PORT_EXT3;PORT_EXT3;false;Quadrants,0,IN_PHASE;450.0;-3757.0;2.1571604461669917E-8;-1.80098928805542E-7;5513098.174975608;-1.4515878153623354;4.635723790397125E7;0.36689453125000004; - ;0.0;0.0
78125.0;50000;40;7;0;0;TWO;VOUT_IIN;FIRST_HARMONIC;PORT_EXT3;PORT_EXT3;false;Quadrants,0,IN_PHASE;452.0;-3756.0;2.1667478259277333E-8;-1.800509919067383E-7;5514197.654124711;-1.4510314639453221;4.615211738227228E7;0.3667968750000001; - ;0.0;0.0
78125.0;50000;40;7;0;0;TWO;VOUT_IIN;FIRST_HARMONIC;PORT_EXT3;PORT_EXT3;false;Quadrants,0,IN_PHASE;454.0;-3754.0;2.1763352056884775E-8;-1.7995511810913086E-7;5516743.86663335;-1.450443147794348;4.5948804089839324E7;0.3666015624999999; - ;0.0;0.0
78125.0;50000;40;7;0;0;TWO;VOUT_IIN;FIRST_HARMONIC;PORT_EXT3;PORT_EXT3;false;Quadrants,0,IN_PHASE;450.0;-3754.0;2.157160446166992E-8;-1.7995511810913086E-7;5517441.567302545;-1.4514934511960587;4.635723790397124E7;0.3666015625; - ;0.0;0.0
78125.0;50000;40;7;0;0;TWO;VOUT_IIN;FIRST_HARMONIC;PORT_EXT3;PORT_EXT3;false;Quadrants,0,IN_PHASE;456.0;-3751.0;2.1859225854492177E-8;-1.7981130741271974E-7;5520740.511037112;-1.4498223592808153;4.574727424734007E7;0.36630859374999997; - ;0.0;0.0
78125.0;50000;40;7;0;0;TWO;VOUT_IIN;FIRST_HARMONIC;PORT_EXT3;PORT_EXT3;false;Quadrants,0,IN_PHASE;449.0;-3751.0;2.1523667562866222E-8;-1.798113074127197E-7;5521965.671704834;-1.451661759591462;4.6460483422688276E7;0.3663085937500001; - ;0.0;0.0
78125.0;50000;40;7;0;0;TWO;VOUT_IIN;FIRST_HARMONIC;PORT_EXT3;PORT_EXT3;false;Quadrants,0,IN_PHASE;457.0;-3748.0;2.1907162753295888E-8;-1.796674967163086E-7;5524918.108057006;-1.4494635627889931;4.564717080259753E7;0.36601562499999996; - ;0.0;0.0
78125.0;50000;40;7;0;0;TWO;VOUT_IIN;FIRST_HARMONIC;PORT_EXT3;PORT_EXT3;false;Quadrants,0,IN_PHASE;454.0;-3756.0;2.176335205688476E-8;-1.800509919067383E-7;5513848.615235526;-1.4505066170459269;4.594880408983935E7;0.3667968750000001; - ;0.0;0.0
78125.0;50000;40;7;0;0;TWO;VOUT_IIN;FIRST_HARMONIC;PORT_EXT3;PORT_EXT3;false;Quadrants,0,IN_PHASE;451.0;-3751.0;2.1619541360473645E-8;-1.798113074127197E-7;5521617.476803774;-1.4511361334356303;4.625445023677838E7;0.36630859374999997; - ;0.0;0.0
78125.0;50000;40;7;0;0;TWO;VOUT_IIN;FIRST_HARMONIC;PORT_EXT3;PORT_EXT3;false;Quadrants,0,IN_PHASE;451.0;-3756.0;2.161954136047365E-8;-1.800509919067383E-7;5514371.6204393245;-1.4512939122776405;4.625445023677836E7;0.3667968750000001; - ;0.0;0.0
78125.0;50000;40;7;0;0;TWO;VOUT_IIN;FIRST_HARMONIC;PORT_EXT3;PORT_EXT3;false;Quadrants,0,IN_PHASE;454.0;-3750.0;2.176335205688477E-8;-1.7976337051391602E-7;5522543.4336595405;-1.4503160091209046;4.594880408983932E7;0.36621093750000006; - ;0.0;0.0
78125.0;50000;40;7;0;0;TWO;VOUT_IIN;FIRST_HARMONIC;PORT_EXT3;PORT_EXT3;false;Quadrants,0,IN_PHASE;451.0;-3756.0;2.161954136047365E-8;-1.800509919067383E-7;5514371.6204393245;-1.4512939122776405;4.625445023677836E7;0.3667968750000001; - ;0.0;0.0
78125.0;50000;40;7;0;0;TWO;VOUT_IIN;FIRST_HARMONIC;PORT_EXT3;PORT_EXT3;false;Quadrants,0,IN_PHASE;455.0;-3760.0;2.181128895568846E-8;-1.8024273950195312E-7;5507892.6310131075;-1.4503712285060681;4.5847817707224324E7;0.36718750000000006; - ;0.0;0.0
78125.0;50000;40;7;0;0;TWO;VOUT_IIN;FIRST_HARMONIC;PORT_EXT3;PORT_EXT3;false;Quadrants,0,IN_PHASE;457.0;-3757.0;2.190716275329591E-8;-1.80098928805542E-7;5511876.212215762;-1.4497513847219223;4.564717080259747E7;0.36689453125000004; - ;0.0;0.0
78125.0;50000;40;7;0;0;TWO;VOUT_IIN;FIRST_HARMONIC;PORT_EXT3;PORT_EXT3;false;Quadrants,0,IN_PHASE;452.0;-3752.0;2.1667478259277343E-8;-1.7985924431152343E-7;5519992.278221597;-1.4509050022219312;4.615211738227224E7;0.36640625000000004; - ;0.0;0.0
78125.0;50000;40;7;0;0;TWO;VOUT_IIN;FIRST_HARMONIC;PORT_EXT3;PORT_EXT3;false;Quadrants,0,IN_PHASE;450.0;-3751.0;2.157160446166991E-8;-1.7981130741271974E-7;5521791.759462206;-1.4513989382272705;4.635723790397127E7;0.36630859374999997; - ;0.0;0.0
78125.0;50000;40;7;0;0;TWO;VOUT_IIN;FIRST_HARMONIC;PORT_EXT3;PORT_EXT3;false;Quadrants,0,IN_PHASE;455.0;-3755.0;2.181128895568848E-8;-1.8000305500793457E-7;5515120.653497914;-1.4502124243896646;4.5847817707224295E7;0.36669921875000006; - ;0.0;0.0
78125.0;50000;40;7;0;0;TWO;VOUT_IIN;FIRST_HARMONIC;PORT_EXT3;PORT_EXT3;false;Quadrants,0,IN_PHASE;449.0;-3749.0;2.1523667562866203E-8;-1.797154336151123E-7;5524869.859862386;-1.4515988043402501;4.646048342268835E7;0.36611328125; - ;0.0;0.0
78125.0;50000;40;7;0;0;TWO;VOUT_IIN;FIRST_HARMONIC;PORT_EXT3;PORT_EXT3;false;Quadrants,0,IN_PHASE;454.0;-3754.0;2.1763352056884775E-8;-1.7995511810913086E-7;5516743.86663335;-1.450443147794348;4.5948804089839324E7;0.3666015624999999; - ;0.0;0.0
78125.0;50000;40;7;0;0;TWO;VOUT_IIN;FIRST_HARMONIC;PORT_EXT3;PORT_EXT3;false;Quadrants,0,IN_PHASE;454.0;-3752.0;2.1763352056884778E-8;-1.7985924431152345E-7;5519642.1378774345;-1.4503796118542234;4.594880408983931E7;0.36640625000000004; - ;0.0;0.0
78125.0;50000;40;7;0;0;TWO;VOUT_IIN;FIRST_HARMONIC;PORT_EXT3;PORT_EXT3;false;Quadrants,0,IN_PHASE;449.0;-3753.0;2.1523667562866193E-8;-1.7990718121032717E-7;5519064.513318979;-1.4517246486914237;4.646048342268837E7;0.36650390625; - ;0.0;0.0
78125.0;50000;40;7;0;0;TWO;VOUT_IIN;FIRST_HARMONIC;PORT_EXT3;PORT_EXT3;false;Quadrants,0,IN_PHASE;450.0;-3752.0;2.157160446166994E-8;-1.7985924431152345E-7;5520340.938893817;-1.4514304591054288;4.635723790397122E7;0.36640625; - ;0.0;0.0
78125.0;50000;40;7;0;0;TWO;VOUT_IIN;FIRST_HARMONIC;PORT_EXT3;PORT_EXT3;false;Quadrants,0,IN_PHASE;447.0;-3756.0;2.1427793765258794E-8;-1.800509919067383E-7;5515063.795674909;-1.4523438706838638;4.666836030601131E7;0.366796875; - ;0.0;0.0
78125.0;50000;40;7;0;0;TWO;VOUT_IIN;FIRST_HARMONIC;PORT_EXT3;PORT_EXT3;false;Quadrants,0,IN_PHASE;447.0;-3749.0;2.142779376525879E-8;-1.7971543361511234E-7;5525217.120038198;-1.4521247691967445;4.666836030601131E7;0.36611328125; - ;0.0;0.0
78125.0;50000;40;7;0;0;TWO;VOUT_IIN;FIRST_HARMONIC;PORT_EXT3;PORT_EXT3;false;Quadrants,0,IN_PHASE;448.0;-3754.0;2.147573066406252E-8;-1.7995511810913088E-7;5517788.200663952;-1.4520187022370843;4.656418985889965E7;0.3666015625; - ;0.0;0.0
78125.0;50000;40;7;0;0;TWO;VOUT_IIN;FIRST_HARMONIC;PORT_EXT3;PORT_EXT3;false;Quadrants,0,IN_PHASE;449.0;-3750.0;2.1523667562866196E-8;-1.7976337051391605E-7;5523417.386767764;-1.451630290241253;4.6460483422688365E7;0.3662109375; - ;0.0;0.0
78125.0;50000;40;7;0;0;TWO;VOUT_IIN;FIRST_HARMONIC;PORT_EXT3;PORT_EXT3;false;Quadrants,0,IN_PHASE;453.0;-3752.0;2.1715415158081044E-8;-1.7985924431152345E-7;5519817.392954749;-1.450642298706263;4.6050236328448266E7;0.36640625000000004; - ;0.0;0.0
78125.0;50000;40;7;0;0;TWO;VOUT_IIN;FIRST_HARMONIC;PORT_EXT3;PORT_EXT3;false;Quadrants,0,IN_PHASE;449.0;-3751.0;2.1523667562866222E-8;-1.798113074127197E-7;5521965.671704834;-1.451661759591462;4.6460483422688276E7;0.3663085937500001; - ;0.0;0.0
78125.0;50000;40;7;0;0;TWO;VOUT_IIN;FIRST_HARMONIC;PORT_EXT3;PORT_EXT3;false;Quadrants,0,IN_PHASE;451.0;-3751.0;2.1619541360473645E-8;-1.798113074127197E-7;5521617.476803774;-1.4511361334356303;4.625445023677838E7;0.36630859374999997; - ;0.0;0.0
78125.0;50000;40;7;0;0;TWO;VOUT_IIN;FIRST_HARMONIC;PORT_EXT3;PORT_EXT3;false;Quadrants,0,IN_PHASE;449.0;-3756.0;2.1523667562866226E-8;-1.800509919067383E-7;5514718.446274571;-1.4518188585345837;4.646048342268828E7;0.3667968750000001; - ;0.0;0.0
78125.0;50000;40;7;0;0;TWO;VOUT_IIN;FIRST_HARMONIC;PORT_EXT3;PORT_EXT3;false;Quadrants,0,IN_PHASE;448.0;-3749.0;2.147573066406249E-8;-1.7971543361511234E-7;5525043.67554913;-1.451861778504008;4.6564189858899705E7;0.36611328125000003; - ;0.0;0.0
78125.0;50000;40;7;0;0;TWO;VOUT_IIN;FIRST_HARMONIC;PORT_EXT3;PORT_EXT3;false;Quadrants,0,IN_PHASE;447.0;-3754.0;2.1427793765258784E-8;-1.7995511810913088E-7;5517960.962727849;-1.45228135247132;4.666836030601134E7;0.3666015625; - ;0.0;0.0
78125.0;50000;40;7;0;0;TWO;VOUT_IIN;FIRST_HARMONIC;PORT_EXT3;PORT_EXT3;false;Quadrants,0,IN_PHASE;445.0;-3755.0;2.133191996765137E-8;-1.8000305500793454E-7;5516856.144610341;-1.4528378334947454;4.687810574558888E7;0.36669921875000006; - ;0.0;0.0
78125.0;50000;40;7;0;0;TWO;VOUT_IIN;FIRST_HARMONIC;PORT_EXT3;PORT_EXT3;false;Quadrants,0,IN_PHASE;451.0;-3749.0;2.1619541360473635E-8;-1.7971543361511234E-7;5524521.1153246835;-1.4510729057388991;4.625445023677839E7;0.36611328125; - ;0.0;0.0
78125.0;50000;40;7;0;0;TWO;VOUT_IIN;FIRST_HARMONIC;PORT_EXT3;PORT_EXT3;false;Quadrants,0,IN_PHASE;452.0;-3748.0;2.1667478259277346E-8;-1.796674967163086E-7;5525799.0051025655;-1.4507782744350188;4.615211738227224E7;0.366015625; - ;0.0;0.0
78125.0;50000;40;7;0;0;TWO;VOUT_IIN;FIRST_HARMONIC;PORT_EXT3;PORT_EXT3;false;Quadrants,0,IN_PHASE;450.0;-3755.0;2.157160446166991E-8;-1.8000305500793457E-7;5515993.015105219;-1.4515249224344835;4.635723790397126E7;0.36669921875; - ;0.0;0.0
78125.0;50000;40;7;0;0;TWO;VOUT_IIN;FIRST_HARMONIC;PORT_EXT3;PORT_EXT3;false;Quadrants,0,IN_PHASE;447.0;-3754.0;2.1427793765258784E-8;-1.7995511810913088E-7;5517960.962727849;-1.45228135247132;4.666836030601134E7;0.3666015625; - ;0.0;0.0
78125.0;50000;40;7;0;0;TWO;VOUT_IIN;FIRST_HARMONIC;PORT_EXT3;PORT_EXT3;false;Quadrants,0,IN_PHASE;447.0;-3751.0;2.1427793765258774E-8;-1.7981130741271974E-7;5522312.384514562;-1.4521874518985085;4.666836030601136E7;0.36630859375; - ;0.0;0.0
78125.0;50000;40;7;0;0;TWO;VOUT_IIN;FIRST_HARMONIC;PORT_EXT3;PORT_EXT3;false;Quadrants,0,IN_PHASE;451.0;-3755.0;2.161954136047361E-8;-1.8000305500793457E-7;5515819.280925201;-1.4512623896457644;4.625445023677844E7;0.36669921875000006; - ;0.0;0.0
78125.0;50000;40;7;0;0;TWO;VOUT_IIN;FIRST_HARMONIC;PORT_EXT3;PORT_EXT3;false;Quadrants,0,IN_PHASE;452.0;-3747.0;2.1667478259277333E-8;-1.796195598175049E-7;5527252.582294357;-1.4507465508179196;4.615211738227227E7;0.36591796875000004; - ;0.0;0.0
78125.0;50000;40;7;0;0;TWO;VOUT_IIN;FIRST_HARMONIC;PORT_EXT3;PORT_EXT3;false;Quadrants,0,IN_PHASE;453.0;-3746.0;2.1715415158081057E-8;-1.795716229187012E-7;5528531.20400953;-1.4504516983096005;4.605023632844824E7;0.3658203125000001; - ;0.0;0.0
78125.0;50000;40;7;0;0;TWO;VOUT_IIN;FIRST_HARMONIC;PORT_EXT3;PORT_EXT3;false;Quadrants,0,IN_PHASE;447.0;-3746.0;2.142779376525877E-8;-1.7957162291870117E-7;5529579.9166143285;-1.4520306214054906;4.666836030601136E7;0.3658203125; - ;0.0;0.0
78125.0;50000;40;7;0;0;TWO;VOUT_IIN;FIRST_HARMONIC;PORT_EXT3;PORT_EXT3;false;Quadrants,0,IN_PHASE;447.0;-3748.0;2.1427793765258774E-8;-1.796674967163086E-7;5526670.625867644;-1.4520934031111;4.666836030601134E7;0.36601562499999996; - ;0.0;0.0
