frequencies;rsense;ingain;outgain;dcbiasP;dcbiasN;contacts;modevi;harmonic;inport;outport;SequentialMode;phaseShift;VadcI;VadcQ;Conductance;Susceptance;Zmod;ZPha;Rp;Cp;Lp;Current[mA];Voltage[mV]
78125.0;50000;40;7;0;0;TWO;VOUT_IIN;FIRST_HARMONIC;PORT_EXT3;PORT_EXT3;false;Quadrants,0,IN_PHASE;475.0;-3920.0;2.2770026931762708E-8;-1.879126433105469E-7;5282978.023866721;-1.4502107505505974;4.391738327744642E7;0.38281250000000006; - ;0.0;0.0
78125.0;50000;40;7;0;0;TWO;VOUT_IIN;FIRST_HARMONIC;PORT_EXT3;PORT_EXT3;false;Quadrants,0,IN_PHASE;483.0;-3921.0;2.3153522122192397E-8;-1.8796058020935058E-7;5280353.235447654;-1.4482309130823505;4.318997320245766E7;0.38291015624999997; - ;0.0;0.0
78125.0;50000;40;7;0;0;TWO;VOUT_IIN;FIRST_HARMONIC;PORT_EXT3;PORT_EXT3;false;Quadrants,0,IN_PHASE;509.0;-3919.0;2.4399881491088866E-8;-1.8786470641174318E-7;5278643.515835086;-1.44163925999857;4.098380561254824E7;0.38271484375000003; - ;0.0;0.0
78125.0;50000;40;7;0;0;TWO;VOUT_IIN;FIRST_HARMONIC;PORT_EXT3;PORT_EXT3;false;Quadrants,0,IN_PHASE;490.0;-3917.0;2.3489080413818345E-8;-1.8776883261413575E-7;5284509.503841452;-1.4463470696957845;4.2572973585279725E7;0.38251953125000004; - ;0.0;0.0
78125.0;50000;40;7;0;0;TWO;VOUT_IIN;FIRST_HARMONIC;PORT_EXT3;PORT_EXT3;false;Quadrants,0,IN_PHASE;481.0;-3920.0;2.3057648324584955E-8;-1.879126433105469E-7;5282006.539933322;-1.4487025639080677;4.336955729061759E7;0.38281250000000006; - ;0.0;0.0
78125.0;50000;40;7;0;0;TWO;VOUT_IIN;FIRST_HARMONIC;PORT_EXT3;PORT_EXT3;false;Quadrants,0,IN_PHASE;475.0;-3923.0;2.277002693176269E-8;-1.8805645400695804E-7;5278996.415234185;-1.4503020745464126;4.3917383277446456E7;0.38310546875; - ;0.0;0.0
78125.0;50000;40;7;0;0;TWO;VOUT_IIN;FIRST_HARMONIC;PORT_EXT3;PORT_EXT3;false;Quadrants,0,IN_PHASE;475.0;-3918.0;2.2770026931762718E-8;-1.8781676951293947E-7;5285635.743513797;-1.450149791315397;4.39173832774464E7;0.3826171875; - ;0.0;0.0
78125.0;50000;40;7;0;0;TWO;VOUT_IIN;FIRST_HARMONIC;PORT_EXT3;PORT_EXT3;false;Quadrants,0,IN_PHASE;500.0;-3915.0;2.396844940185549E-8;-1.8767295881652832E-7;5285487.120058423;-1.4437700626748393;4.172151411357409E7;0.38232421874999994; - ;0.0;0.0
78125.0;50000;40;7;0;0;TWO;VOUT_IIN;FIRST_HARMONIC;PORT_EXT3;PORT_EXT3;false;Quadrants,0,IN_PHASE;503.0;-3916.0;2.411226009826661E-8;-1.8772089571533206E-7;5283649.02647268;-1.443048426415;4.147267804530228E7;0.3824218750000001; - ;0.0;0.0
78125.0;50000;40;7;0;0;TWO;VOUT_IIN;FIRST_HARMONIC;PORT_EXT3;PORT_EXT3;false;Quadrants,0,IN_PHASE;476.0;-3919.0;2.2817963830566403E-8;-1.878647064117432E-7;5284145.326177998;-1.4499288133963764;4.382511986719972E7;0.38271484375; - ;0.0;0.0
78125.0;50000;40;7;0;0;TWO;VOUT_IIN;FIRST_HARMONIC;PORT_EXT3;PORT_EXT3;false;Quadrants,0,IN_PHASE;474.0;-3920.0;2.2722090032958977E-8;-1.879126433105469E-7;5283138.803977589;-1.45046216878146;4.4010035984782845E7;0.38281250000000006; - ;0.0;0.0
78125.0;50000;40;7;0;0;TWO;VOUT_IIN;FIRST_HARMONIC;PORT_EXT3;PORT_EXT3;false;Quadrants,0,IN_PHASE;516.0;-3914.0;2.4735439782714854E-8;-1.876250219177246E-7;5284058.022890213;-1.4397177940019996;4.042782375346327E7;0.3822265625; - ;0.0;0.0
78125.0;50000;40;7;0;0;TWO;VOUT_IIN;FIRST_HARMONIC;PORT_EXT3;PORT_EXT3;false;Quadrants,0,IN_PHASE;501.0;-3921.0;2.4016386300659177E-8;-1.8796058020935063E-7;5277359.613475598;-1.4437114133966293;4.1638237638297535E7;0.3829101562500001; - ;0.0;0.0
78125.0;50000;40;7;0;0;TWO;VOUT_IIN;FIRST_HARMONIC;PORT_EXT3;PORT_EXT3;false;Quadrants,0,IN_PHASE;475.0;-3916.0;2.27700269317627E-8;-1.8772089571533204E-7;5288296.118875661;-1.4500887707157533;4.391738327744641E7;0.3824218750000001; - ;0.0;0.0
78125.0;50000;40;7;0;0;TWO;VOUT_IIN;FIRST_HARMONIC;PORT_EXT3;PORT_EXT3;false;Quadrants,0,IN_PHASE;494.0;-3916.0;2.3680828009033213E-8;-1.87720895715332E-7;5285170.40390717;-1.4453100399144625;4.222825315139079E7;0.382421875; - ;0.0;0.0
78125.0;50000;40;7;0;0;TWO;VOUT_IIN;FIRST_HARMONIC;PORT_EXT3;PORT_EXT3;false;Quadrants,0,IN_PHASE;509.0;-3923.0;2.4399881491088876E-8;-1.88056454006958E-7;5273350.415874528;-1.4417694946671469;4.0983805612548225E7;0.38310546875; - ;0.0;0.0
78125.0;50000;40;7;0;0;TWO;VOUT_IIN;FIRST_HARMONIC;PORT_EXT3;PORT_EXT3;false;Quadrants,0,IN_PHASE;479.0;-3922.0;2.2961774526977536E-8;-1.880085171081543E-7;5279677.569204115;-1.44926662688104;4.355064103713374E7;0.38300781250000004; - ;0.0;0.0
78125.0;50000;40;7;0;0;TWO;VOUT_IIN;FIRST_HARMONIC;PORT_EXT3;PORT_EXT3;false;Quadrants,0,IN_PHASE;468.0;-3918.0;2.243446864013672E-8;-1.8781676951293944E-7;5286756.082271262;-1.4519109118046267;4.457426721535696E7;0.3826171875; - ;0.0;0.0
78125.0;50000;40;7;0;0;TWO;VOUT_IIN;FIRST_HARMONIC;PORT_EXT3;PORT_EXT3;false;Quadrants,0,IN_PHASE;489.0;-3922.0;2.3441143515014657E-8;-1.880085171081543E-7;5278041.485472346;-1.4467551561825998;4.2660034880955115E7;0.38300781250000004; - ;0.0;0.0
78125.0;50000;40;7;0;0;TWO;VOUT_IIN;FIRST_HARMONIC;PORT_EXT3;PORT_EXT3;false;Quadrants,0,IN_PHASE;512.0;-3919.0;2.454369218749999E-8;-1.8786470641174315E-7;5278125.956679795;-1.4408865312343513;4.074366612653724E7;0.38271484375; - ;0.0;0.0
78125.0;50000;40;7;0;0;TWO;VOUT_IIN;FIRST_HARMONIC;PORT_EXT3;PORT_EXT3;false;Quadrants,0,IN_PHASE;493.0;-3919.0;2.3632891110229502E-8;-1.878647064117432E-7;5281354.9502180945;-1.445656279810889;4.2313908837296255E7;0.38271484375000003; - ;0.0;0.0
78125.0;50000;40;7;0;0;TWO;VOUT_IIN;FIRST_HARMONIC;PORT_EXT3;PORT_EXT3;false;Quadrants,0,IN_PHASE;474.0;-3914.0;2.272209003295899E-8;-1.876250219177246E-7;5291120.663823323;-1.4502794811477453;4.40100359847828E7;0.38222656250000003; - ;0.0;0.0
78125.0;50000;40;7;0;0;TWO;VOUT_IIN;FIRST_HARMONIC;PORT_EXT3;PORT_EXT3;false;Quadrants,0,IN_PHASE;485.0;-3917.0;2.3249395919799803E-8;-1.8776883261413578E-7;5285336.303820702;-1.4476040858801826;4.301187022017951E7;0.38251953125000004; - ;0.0;0.0
78125.0;50000;40;7;0;0;TWO;VOUT_IIN;FIRST_HARMONIC;PORT_EXT3;PORT_EXT3;false;Quadrants,0,IN_PHASE;509.0;-3919.0;2.4399881491088866E-8;-1.8786470641174318E-7;5278643.515835086;-1.44163925999857;4.098380561254824E7;0.38271484375000003; - ;0.0;0.0
78125.0;50000;40;7;0;0;TWO;VOUT_IIN;FIRST_HARMONIC;PORT_EXT3;PORT_EXT3;false;Quadrants,0,IN_PHASE;511.0;-3919.0;2.4495755288696275E-8;-1.8786470641174318E-7;5278298.797408789;-1.4411374244158741;4.082339932835043E7;0.38271484375000003; - ;0.0;0.0
78125.0;50000;40;7;0;0;TWO;VOUT_IIN;FIRST_HARMONIC;PORT_EXT3;PORT_EXT3;false;Quadrants,0,IN_PHASE;491.0;-3921.0;2.3537017312622076E-8;-1.8796058020935063E-7;5279035.630647718;-1.4462216141186472;4.248626691809991E7;0.3829101562500001; - ;0.0;0.0
78125.0;50000;40;7;0;0;TWO;VOUT_IIN;FIRST_HARMONIC;PORT_EXT3;PORT_EXT3;false;Quadrants,0,IN_PHASE;477.0;-3922.0;2.28659007293701E-8;-1.8800851710815432E-7;5280000.909520382;-1.4497691069856917;4.373324330563328E7;0.38300781250000004; - ;0.0;0.0
78125.0;50000;40;7;0;0;TWO;VOUT_IIN;FIRST_HARMONIC;PORT_EXT3;PORT_EXT3;false;Quadrants,0,IN_PHASE;478.0;-3921.0;2.291383762817383E-8;-1.8796058020935058E-7;5281166.2390802065;-1.449487231262997;4.3641751164826475E7;0.38291015625; - ;0.0;0.0
78125.0;50000;40;7;0;0;TWO;VOUT_IIN;FIRST_HARMONIC;PORT_EXT3;PORT_EXT3;false;Quadrants,0,IN_PHASE;510.0;-3919.0;2.4447818389892597E-8;-1.8786470641174318E-7;5278471.317159435;-1.4413883340139415;4.090344520938636E7;0.38271484375; - ;0.0;0.0
78125.0;50000;40;7;0;0;TWO;VOUT_IIN;FIRST_HARMONIC;PORT_EXT3;PORT_EXT3;false;Quadrants,0,IN_PHASE;492.0;-3918.0;2.3584954211425764E-8;-1.8781676951293944E-7;5282848.766624706;-1.44587593464536;4.2399912717046894E7;0.38261718749999996; - ;0.0;0.0
78125.0;50000;40;7;0;0;TWO;VOUT_IIN;FIRST_HARMONIC;PORT_EXT3;PORT_EXT3;false;Quadrants,0,IN_PHASE;477.0;-3914.0;2.286590072937011E-8;-1.8762502191772466E-7;5290635.157529944;-1.4495241498750973;4.373324330563326E7;0.38222656250000003; - ;0.0;0.0
78125.0;50000;40;7;0;0;TWO;VOUT_IIN;FIRST_HARMONIC;PORT_EXT3;PORT_EXT3;false;Quadrants,0,IN_PHASE;473.0;-3923.0;2.2674153134155256E-8;-1.8805645400695804E-7;5279316.925436498;-1.4508045528250593;4.410308045832362E7;0.38310546875; - ;0.0;0.0
78125.0;50000;40;7;0;0;TWO;VOUT_IIN;FIRST_HARMONIC;PORT_EXT3;PORT_EXT3;false;Quadrants,0,IN_PHASE;495.0;-3920.0;2.3728764907836904E-8;-1.879126433105469E-7;5279694.47883637;-1.4451856430634988;4.214294354906478E7;0.3828125000000001; - ;0.0;0.0
78125.0;50000;40;7;0;0;TWO;VOUT_IIN;FIRST_HARMONIC;PORT_EXT3;PORT_EXT3;false;Quadrants,0,IN_PHASE;508.0;-3921.0;2.4351944592285165E-8;-1.879605802093506E-7;5276167.268450595;-1.4419552285744925;4.1064482395250104E7;0.38291015625; - ;0.0;0.0
78125.0;50000;40;7;0;0;TWO;VOUT_IIN;FIRST_HARMONIC;PORT_EXT3;PORT_EXT3;false;Quadrants,0,IN_PHASE;505.0;-3918.0;2.420813389587401E-8;-1.878167695129395E-7;5280654.535975166;-1.4426107754554356;4.130842981541994E7;0.3826171875; - ;0.0;0.0
78125.0;50000;40;7;0;0;TWO;VOUT_IIN;FIRST_HARMONIC;PORT_EXT3;PORT_EXT3;false;Quadrants,0,IN_PHASE;503.0;-3918.0;2.41122600982666E-8;-1.878167695129395E-7;5280995.654850624;-1.443112930559815;4.14726780453023E7;0.3826171875; - ;0.0;0.0
78125.0;50000;40;7;0;0;TWO;VOUT_IIN;FIRST_HARMONIC;PORT_EXT3;PORT_EXT3;false;Quadrants,0,IN_PHASE;477.0;-3920.0;2.2865900729370127E-8;-1.879126433105469E-7;5282655.491385724;-1.449707960073517;4.373324330563323E7;0.3828125; - ;0.0;0.0
78125.0;50000;40;7;0;0;TWO;VOUT_IIN;FIRST_HARMONIC;PORT_EXT3;PORT_EXT3;false;Quadrants,0,IN_PHASE;471.0;-3917.0;2.2578279336547874E-8;-1.8776883261413578E-7;5287608.226965133;-1.4511258013933106;4.4290354685322806E7;0.38251953125000004; - ;0.0;0.0
78125.0;50000;40;7;0;0;TWO;VOUT_IIN;FIRST_HARMONIC;PORT_EXT3;PORT_EXT3;false;Quadrants,0,IN_PHASE;501.0;-3919.0;2.4016386300659184E-8;-1.8786470641174318E-7;5280009.534997075;-1.443647254189679;4.16382376382975E7;0.38271484375000003; - ;0.0;0.0
78125.0;50000;40;7;0;0;TWO;VOUT_IIN;FIRST_HARMONIC;PORT_EXT3;PORT_EXT3;false;Quadrants,0,IN_PHASE;502.0;-3915.0;2.40643231994629E-8;-1.8767295881652832E-7;5285147.165596173;-1.443267438059992;4.155529294180688E7;0.38232421875; - ;0.0;0.0
78125.0;50000;40;7;0;0;TWO;VOUT_IIN;FIRST_HARMONIC;PORT_EXT3;PORT_EXT3;false;Quadrants,0,IN_PHASE;472.0;-3917.0;2.2626216235351545E-8;-1.8776883261413575E-7;5287448.057530794;-1.4508741502956273;4.4196519188108206E7;0.38251953125000004; - ;0.0;0.0
78125.0;50000;40;7;0;0;TWO;VOUT_IIN;FIRST_HARMONIC;PORT_EXT3;PORT_EXT3;false;Quadrants,0,IN_PHASE;483.0;-3919.0;2.315352212219238E-8;-1.8786470641174318E-7;5283007.6713607665;-1.4481689887670204;4.318997320245769E7;0.38271484375; - ;0.0;0.0
78125.0;50000;40;7;0;0;TWO;VOUT_IIN;FIRST_HARMONIC;PORT_EXT3;PORT_EXT3;false;Quadrants,0,IN_PHASE;513.0;-3913.0;2.4591629086303698E-8;-1.8757708501892092E-7;5285909.100889027;-1.440438324243113;4.066424377541339E7;0.38212890624999996; - ;0.0;0.0
78125.0;50000;40;7;0;0;TWO;VOUT_IIN;FIRST_HARMONIC;PORT_EXT3;PORT_EXT3;false;Quadrants,0,IN_PHASE;510.0;-3921.0;2.444781838989256E-8;-1.879605802093506E-7;5275823.709796199;-1.4414536077517477;4.090344520938641E7;0.3829101562500001; - ;0.0;0.0
78125.0;50000;40;7;0;0;TWO;VOUT_IIN;FIRST_HARMONIC;PORT_EXT3;PORT_EXT3;false;Quadrants,0,IN_PHASE;493.0;-3920.0;2.363289111022948E-8;-1.8791264331054687E-7;5280028.646497989;-1.4456878711782715;4.2313908837296285E7;0.38281250000000006; - ;0.0;0.0
78125.0;50000;40;7;0;0;TWO;VOUT_IIN;FIRST_HARMONIC;PORT_EXT3;PORT_EXT3;false;Quadrants,0,IN_PHASE;476.0;-3921.0;2.281796383056643E-8;-1.8796058020935063E-7;5281489.175921008;-1.4499898665308049;4.382511986719966E7;0.3829101562500001; - ;0.0;0.0
78125.0;50000;40;7;0;0;TWO;VOUT_IIN;FIRST_HARMONIC;PORT_EXT3;PORT_EXT3;false;Quadrants,0,IN_PHASE;470.0;-3920.0;2.2530342437744123E-8;-1.879126433105469E-7;5283778.68144541;-1.4514679942778788;4.4384589482525684E7;0.38281250000000006; - ;0.0;0.0
78125.0;50000;40;7;0;0;TWO;VOUT_IIN;FIRST_HARMONIC;PORT_EXT3;PORT_EXT3;false;Quadrants,0,IN_PHASE;498.0;-3915.0;2.3872575604248057E-8;-1.8767295881652832E-7;5285825.782633375;-1.4442727518270866;4.188907039515471E7;0.38232421875; - ;0.0;0.0
78125.0;50000;40;7;0;0;TWO;VOUT_IIN;FIRST_HARMONIC;PORT_EXT3;PORT_EXT3;false;Quadrants,0,IN_PHASE;497.0;-3919.0;2.3824638705444336E-8;-1.878647064117432E-7;5280684.821137817;-1.4446516390350688;4.1973354239008166E7;0.38271484375000003; - ;0.0;0.0
78125.0;50000;40;7;0;0;TWO;VOUT_IIN;FIRST_HARMONIC;PORT_EXT3;PORT_EXT3;false;Quadrants,0,IN_PHASE;511.0;-3918.0;2.4495755288696292E-8;-1.8781676951293947E-7;5279623.459472698;-1.4411047010708913;4.082339932835039E7;0.3826171875000001; - ;0.0;0.0
78125.0;50000;40;7;0;0;TWO;VOUT_IIN;FIRST_HARMONIC;PORT_EXT3;PORT_EXT3;false;Quadrants,0,IN_PHASE;495.0;-3918.0;2.3728764907836934E-8;-1.8781676951293947E-7;5282347.243493684;-1.4451221961057212;4.214294354906473E7;0.3826171875; - ;0.0;0.0
78125.0;50000;40;7;0;0;TWO;VOUT_IIN;FIRST_HARMONIC;PORT_EXT3;PORT_EXT3;false;Quadrants,0,IN_PHASE;471.0;-3920.0;2.2578279336547847E-8;-1.8791264331054687E-7;5283619.198705279;-1.4512165150786498;4.4290354685322836E7;0.38281250000000006; - ;0.0;0.0
78125.0;50000;40;7;0;0;TWO;VOUT_IIN;FIRST_HARMONIC;PORT_EXT3;PORT_EXT3;false;Quadrants,0,IN_PHASE;468.0;-3918.0;2.243446864013672E-8;-1.8781676951293944E-7;5286756.082271262;-1.4519109118046267;4.457426721535696E7;0.3826171875; - ;0.0;0.0
78125.0;50000;40;7;0;0;TWO;VOUT_IIN;FIRST_HARMONIC;PORT_EXT3;PORT_EXT3;false;Quadrants,0,IN_PHASE;488.0;-3919.0;2.3393206616210916E-8;-1.8786470641174315E-7;5282185.350281274;-1.446912437740921;4.274745298521942E7;0.38271484375000003; - ;0.0;0.0
78125.0;50000;40;7;0;0;TWO;VOUT_IIN;FIRST_HARMONIC;PORT_EXT3;PORT_EXT3;false;Quadrants,0,IN_PHASE;511.0;-3910.0;2.449575528869627E-8;-1.8743327432250978E-7;5290244.535171026;-1.4408423218376312;4.082339932835044E7;0.3818359375; - ;0.0;0.0
78125.0;50000;40;7;0;0;TWO;VOUT_IIN;FIRST_HARMONIC;PORT_EXT3;PORT_EXT3;false;Quadrants,0,IN_PHASE;503.0;-3919.0;2.411226009826659E-8;-1.878647064117432E-7;5279669.959922607;-1.4431451583434722;4.1472678045302324E7;0.38271484375000003; - ;0.0;0.0
78125.0;50000;40;7;0;0;TWO;VOUT_IIN;FIRST_HARMONIC;PORT_EXT3;PORT_EXT3;false;Quadrants,0,IN_PHASE;472.0;-3917.0;2.2626216235351545E-8;-1.8776883261413575E-7;5287448.057530794;-1.4508741502956273;4.4196519188108206E7;0.38251953125000004; - ;0.0;0.0
78125.0;50000;40;7;0;0;TWO;VOUT_IIN;FIRST_HARMONIC;PORT_EXT3;PORT_EXT3;false;Quadrants,0,IN_PHASE;483.0;-3915.0;2.3153522122192394E-8;-1.8767295881652832E-7;5288324.496572;-1.4480449531732928;4.318997320245766E7;0.38232421874999994; - ;0.0;0.0
78125.0;50000;40;7;0;0;TWO;VOUT_IIN;FIRST_HARMONIC;PORT_EXT3;PORT_EXT3;false;Quadrants,0,IN_PHASE;505.0;-3913.0;2.4208133895874042E-8;-1.875770850189209E-7;5287291.638866157;-1.4424487727466275;4.130842981541989E7;0.38212890624999996; - ;0.0;0.0
78125.0;50000;40;7;0;0;TWO;VOUT_IIN;FIRST_HARMONIC;PORT_EXT3;PORT_EXT3;false;Quadrants,0,IN_PHASE;470.0;-3921.0;2.2530342437744163E-8;-1.879605802093506E-7;5282450.212611492;-1.4514981394493185;4.43845894825256E7;0.3829101562500001; - ;0.0;0.0
78125.0;50000;40;7;0;0;TWO;VOUT_IIN;FIRST_HARMONIC;PORT_EXT3;PORT_EXT3;false;Quadrants,0,IN_PHASE;480.0;-3916.0;2.300971142578126E-8;-1.8772089571533206E-7;5287484.9138949625;-1.4488306637173993;4.345991053497303E7;0.382421875; - ;0.0;0.0
78125.0;50000;40;7;0;0;TWO;VOUT_IIN;FIRST_HARMONIC;PORT_EXT3;PORT_EXT3;false;Quadrants,0,IN_PHASE;501.0;-3918.0;2.40163863006592E-8;-1.8781676951293947E-7;5281335.485801869;-1.4436151504179966;4.163823763829748E7;0.3826171875; - ;0.0;0.0
78125.0;50000;40;7;0;0;TWO;VOUT_IIN;FIRST_HARMONIC;PORT_EXT3;PORT_EXT3;false;Quadrants,0,IN_PHASE;473.0;-3923.0;2.2674153134155256E-8;-1.8805645400695804E-7;5279316.925436498;-1.4508045528250593;4.410308045832362E7;0.38310546875; - ;0.0;0.0
78125.0;50000;40;7;0;0;TWO;VOUT_IIN;FIRST_HARMONIC;PORT_EXT3;PORT_EXT3;false;Quadrants,0,IN_PHASE;476.0;-3917.0;2.281796383056641E-8;-1.8776883261413575E-7;5286804.1296888385;-1.449867698821968;4.382511986719969E7;0.3825195312500001; - ;0.0;0.0
78125.0;50000;40;7;0;0;TWO;VOUT_IIN;FIRST_HARMONIC;PORT_EXT3;PORT_EXT3;false;Quadrants,0,IN_PHASE;498.0;-3918.0;2.387257560424806E-8;-1.8781676951293947E-7;5281842.815702538;-1.4443686010916985;4.18890703951547E7;0.3826171875000001; - ;0.0;0.0
78125.0;50000;40;7;0;0;TWO;VOUT_IIN;FIRST_HARMONIC;PORT_EXT3;PORT_EXT3;false;Quadrants,0,IN_PHASE;505.0;-3913.0;2.4208133895874042E-8;-1.875770850189209E-7;5287291.638866157;-1.4424487727466275;4.130842981541989E7;0.38212890624999996; - ;0.0;0.0
78125.0;50000;40;7;0;0;TWO;VOUT_IIN;FIRST_HARMONIC;PORT_EXT3;PORT_EXT3;false;Quadrants,0,IN_PHASE;481.0;-3915.0;2.305764832458497E-8;-1.8767295881652835E-7;5288652.14761251;-1.448548181116614;4.336955729061756E7;0.38232421875000006; - ;0.0;0.0
78125.0;50000;40;7;0;0;TWO;VOUT_IIN;FIRST_HARMONIC;PORT_EXT3;PORT_EXT3;false;Quadrants,0,IN_PHASE;472.0;-3917.0;2.2626216235351545E-8;-1.8776883261413575E-7;5287448.057530794;-1.4508741502956273;4.4196519188108206E7;0.38251953125000004; - ;0.0;0.0
78125.0;50000;40;7;0;0;TWO;VOUT_IIN;FIRST_HARMONIC;PORT_EXT3;PORT_EXT3;false;Quadrants,0,IN_PHASE;473.0;-3914.0;2.267415313415527E-8;-1.8762502191772463E-7;5291281.848107341;-1.4505312889928321;4.41030804583236E7;0.38222656250000003; - ;0.0;0.0
78125.0;50000;40;7;0;0;TWO;VOUT_IIN;FIRST_HARMONIC;PORT_EXT3;PORT_EXT3;false;Quadrants,0,IN_PHASE;469.0;-3919.0;2.2482405538940418E-8;-1.8786470641174318E-7;5285267.092141596;-1.4516893906629975;4.4479226133874334E7;0.38271484375000014; - ;0.0;0.0
78125.0;50000;40;7;0;0;TWO;VOUT_IIN;FIRST_HARMONIC;PORT_EXT3;PORT_EXT3;false;Quadrants,0,IN_PHASE;493.0;-3913.0;2.363289111022949E-8;-1.8757708501892092E-7;5289326.675059749;-1.4454663978147548;4.231390883729628E7;0.38212890624999996; - ;0.0;0.0
78125.0;50000;40;7;0;0;TWO;VOUT_IIN;FIRST_HARMONIC;PORT_EXT3;PORT_EXT3;false;Quadrants,0,IN_PHASE;506.0;-3914.0;2.4256070794677743E-8;-1.876250219177246E-7;5285791.3365220195;-1.442229904509574;4.122679260234596E7;0.3822265625; - ;0.0;0.0
78125.0;50000;40;7;0;0;TWO;VOUT_IIN;FIRST_HARMONIC;PORT_EXT3;PORT_EXT3;false;Quadrants,0,IN_PHASE;500.0;-3916.0;2.3968449401855496E-8;-1.8772089571533206E-7;5284159.057768545;-1.4438021527529612;4.172151411357408E7;0.382421875; - ;0.0;0.0
78125.0;50000;40;7;0;0;TWO;VOUT_IIN;FIRST_HARMONIC;PORT_EXT3;PORT_EXT3;false;Quadrants,0,IN_PHASE;476.0;-3915.0;2.2817963830566423E-8;-1.8767295881652835E-7;5289465.590401;-1.4498065227152468;4.382511986719967E7;0.38232421875000006; - ;0.0;0.0
78125.0;50000;40;7;0;0;TWO;VOUT_IIN;FIRST_HARMONIC;PORT_EXT3;PORT_EXT3;false;Quadrants,0,IN_PHASE;473.0;-3916.0;2.2674153134155263E-8;-1.8772089571533204E-7;5288618.326040241;-1.4505921212774409;4.410308045832361E7;0.38242187499999997; - ;0.0;0.0
78125.0;50000;40;7;0;0;TWO;VOUT_IIN;FIRST_HARMONIC;PORT_EXT3;PORT_EXT3;false;Quadrants,0,IN_PHASE;507.0;-3915.0;2.430400769348143E-8;-1.8767295881652832E-7;5284291.632457207;-1.4420111604582413;4.114547742956029E7;0.38232421875; - ;0.0;0.0
78125.0;50000;40;7;0;0;TWO;VOUT_IIN;FIRST_HARMONIC;PORT_EXT3;PORT_EXT3;false;Quadrants,0,IN_PHASE;509.0;-3918.0;2.4399881491088876E-8;-1.878167695129395E-7;5279968.437516665;-1.4416066604705893;4.098380561254823E7;0.3826171875000001; - ;0.0;0.0
78125.0;50000;40;7;0;0;TWO;VOUT_IIN;FIRST_HARMONIC;PORT_EXT3;PORT_EXT3;false;Quadrants,0,IN_PHASE;506.0;-3917.0;2.4256070794677716E-8;-1.8776883261413572E-7;5281809.463201648;-1.4423272922717945;4.1226792602346E7;0.38251953125; - ;0.0;0.0
78125.0;50000;40;7;0;0;TWO;VOUT_IIN;FIRST_HARMONIC;PORT_EXT3;PORT_EXT3;false;Quadrants,0,IN_PHASE;469.0;-3913.0;2.2482405538940412E-8;-1.8757708501892092E-7;5293256.571998128;-1.451508484297067;4.4479226133874364E7;0.38212890625; - ;0.0;0.0
78125.0;50000;40;7;0;0;TWO;VOUT_IIN;FIRST_HARMONIC;PORT_EXT3;PORT_EXT3;false;Quadrants,0,IN_PHASE;480.0;-3915.0;2.3009711425781267E-8;-1.8767295881652835E-7;5288815.486047232;-1.4487998184411703;4.345991053497302E7;0.38232421875; - ;0.0;0.0
78125.0;50000;40;7;0;0;TWO;VOUT_IIN;FIRST_HARMONIC;PORT_EXT3;PORT_EXT3;false;Quadrants,0,IN_PHASE;503.0;-3920.0;2.41122600982666E-8;-1.8791264331054687E-7;5278344.924931134;-1.4431773699507953;4.1472678045302294E7;0.3828125000000001; - ;0.0;0.0
78125.0;50000;40;7;0;0;TWO;VOUT_IIN;FIRST_HARMONIC;PORT_EXT3;PORT_EXT3;false;Quadrants,0,IN_PHASE;473.0;-3917.0;2.2674153134155256E-8;-1.8776883261413575E-7;5287287.562995334;-1.4506225144591807;4.410308045832363E7;0.38251953125000004; - ;0.0;0.0
78125.0;50000;40;7;0;0;TWO;VOUT_IIN;FIRST_HARMONIC;PORT_EXT3;PORT_EXT3;false;Quadrants,0,IN_PHASE;509.0;-3918.0;2.4399881491088876E-8;-1.878167695129395E-7;5279968.437516665;-1.4416066604705893;4.098380561254823E7;0.3826171875000001; - ;0.0;0.0
78125.0;50000;40;7;0;0;TWO;VOUT_IIN;FIRST_HARMONIC;PORT_EXT3;PORT_EXT3;false;Quadrants,0,IN_PHASE;495.0;-3918.0;2.3728764907836934E-8;-1.8781676951293947E-7;5282347.243493684;-1.4451221961057212;4.214294354906473E7;0.3826171875; - ;0.0;0.0
78125.0;50000;40;7;0;0;TWO;VOUT_IIN;FIRST_HARMONIC;PORT_EXT3;PORT_EXT3;false;Quadrants,0,IN_PHASE;473.0;-3921.0;2.267415313415528E-8;-1.879605802093506E-7;5281971.152537883;-1.4507439343837476;4.410308045832358E7;0.3829101562500001; - ;0.0;0.0
78125.0;50000;40;7;0;0;TWO;VOUT_IIN;FIRST_HARMONIC;PORT_EXT3;PORT_EXT3;false;Quadrants,0,IN_PHASE;476.0;-3925.0;2.2817963830566406E-8;-1.881523278045654E-7;5276184.8194174515;-1.4501117888481387;4.3825119867199704E7;0.38330078124999994; - ;0.0;0.0
78125.0;50000;40;7;0;0;TWO;VOUT_IIN;FIRST_HARMONIC;PORT_EXT3;PORT_EXT3;false;Quadrants,0,IN_PHASE;511.0;-3919.0;2.4495755288696275E-8;-1.8786470641174318E-7;5278298.797408789;-1.4411374244158741;4.082339932835043E7;0.38271484375000003; - ;0.0;0.0
78125.0;50000;40;7;0;0;TWO;VOUT_IIN;FIRST_HARMONIC;PORT_EXT3;PORT_EXT3;false;Quadrants,0,IN_PHASE;507.0;-3920.0;2.4304007693481457E-8;-1.8791264331054692E-7;5277662.428632513;-1.4421736203729518;4.114547742956024E7;0.3828125000000001; - ;0.0;0.0
78125.0;50000;40;7;0;0;TWO;VOUT_IIN;FIRST_HARMONIC;PORT_EXT3;PORT_EXT3;false;Quadrants,0,IN_PHASE;476.0;-3919.0;2.2817963830566403E-8;-1.878647064117432E-7;5284145.326177998;-1.4499288133963764;4.382511986719972E7;0.38271484375; - ;0.0;0.0
78125.0;50000;40;7;0;0;TWO;VOUT_IIN;FIRST_HARMONIC;PORT_EXT3;PORT_EXT3;false;Quadrants,0,IN_PHASE;470.0;-3916.0;2.2530342437744156E-8;-1.8772089571533204E-7;5289099.197196055;-1.451347261817745;4.438458948252561E7;0.3824218750000001; - ;0.0;0.0
78125.0;50000;40;7;0;0;TWO;VOUT_IIN;FIRST_HARMONIC;PORT_EXT3;PORT_EXT3;false;Quadrants,0,IN_PHASE;506.0;-3918.0;2.425607079467776E-8;-1.8781676951293947E-7;5280483.493805007;-1.44235972226114;4.1226792602345906E7;0.3826171875000001; - ;0.0;0.0
78125.0;50000;40;7;0;0;TWO;VOUT_IIN;FIRST_HARMONIC;PORT_EXT3;PORT_EXT3;false;Quadrants,0,IN_PHASE;509.0;-3919.0;2.4399881491088866E-8;-1.8786470641174318E-7;5278643.515835086;-1.44163925999857;4.098380561254824E7;0.38271484375000003; - ;0.0;0.0
78125.0;50000;40;7;0;0;TWO;VOUT_IIN;FIRST_HARMONIC;PORT_EXT3;PORT_EXT3;false;Quadrants,0,IN_PHASE;502.0;-3918.0;2.4064323199462875E-8;-1.8781676951293947E-7;5281165.731364521;-1.4433640324097303;4.155529294180693E7;0.38261718749999996; - ;0.0;0.0
78125.0;50000;40;7;0;0;TWO;VOUT_IIN;FIRST_HARMONIC;PORT_EXT3;PORT_EXT3;false;Quadrants,0,IN_PHASE;479.0;-3917.0;2.2961774526977553E-8;-1.8776883261413575E-7;5286317.773743116;-1.4491130216323476;4.3550641037133716E7;0.38251953125000004; - ;0.0;0.0
78125.0;50000;40;7;0;0;TWO;VOUT_IIN;FIRST_HARMONIC;PORT_EXT3;PORT_EXT3;false;Quadrants,0,IN_PHASE;470.0;-3919.0;2.253034243774412E-8;-1.8786470641174318E-7;5285107.813826967;-1.4514378339404002;4.438458948252569E7;0.3827148437500001; - ;0.0;0.0
78125.0;50000;40;7;0;0;TWO;VOUT_IIN;FIRST_HARMONIC;PORT_EXT3;PORT_EXT3;false;Quadrants,0,IN_PHASE;473.0;-3918.0;2.267415313415526E-8;-1.8781676951293944E-7;5285957.464616535;-1.4506528923492052;4.410308045832361E7;0.38261718749999996; - ;0.0;0.0
78125.0;50000;40;7;0;0;TWO;VOUT_IIN;FIRST_HARMONIC;PORT_EXT3;PORT_EXT3;false;Quadrants,0,IN_PHASE;471.0;-3913.0;2.2578279336547857E-8;-1.8757708501892092E-7;5292936.242351439;-1.4510046365287819;4.429035468532282E7;0.3821289062500002; - ;0.0;0.0
78125.0;50000;40;7;0;0;TWO;VOUT_IIN;FIRST_HARMONIC;PORT_EXT3;PORT_EXT3;false;Quadrants,0,IN_PHASE;483.0;-3922.0;2.3153522122192397E-8;-1.8800851710815432E-7;5279027.009943076;-1.4482618519105124;4.318997320245763E7;0.3830078125000001; - ;0.0;0.0
78125.0;50000;40;7;0;0;TWO;VOUT_IIN;FIRST_HARMONIC;PORT_EXT3;PORT_EXT3;false;Quadrants,0,IN_PHASE;508.0;-3913.0;2.4351944592285162E-8;-1.875770850189209E-7;5286775.606682236;-1.441694731406401;4.106448239525011E7;0.38212890624999996; - ;0.0;0.0
78125.0;50000;40;7;0;0;TWO;VOUT_IIN;FIRST_HARMONIC;PORT_EXT3;PORT_EXT3;false;Quadrants,0,IN_PHASE;507.0;-3916.0;2.4304007693481428E-8;-1.8772089571533206E-7;5282964.470892828;-1.4420436850831237;4.11454774295603E7;0.382421875; - ;0.0;0.0
78125.0;50000;40;7;0;0;TWO;VOUT_IIN;FIRST_HARMONIC;PORT_EXT3;PORT_EXT3;false;Quadrants,0,IN_PHASE;498.0;-3914.0;2.3872575604248044E-8;-1.876250219177246E-7;5287154.762694711;-1.4442407699404052;4.188907039515474E7;0.38222656250000003; - ;0.0;0.0
78125.0;50000;40;7;0;0;TWO;VOUT_IIN;FIRST_HARMONIC;PORT_EXT3;PORT_EXT3;false;Quadrants,0,IN_PHASE;473.0;-3911.0;2.267415313415526E-8;-1.8748121122131352E-7;5295282.128585127;-1.4504399255903553;4.410308045832362E7;0.38193359375; - ;0.0;0.0
78125.0;50000;40;7;0;0;TWO;VOUT_IIN;FIRST_HARMONIC;PORT_EXT3;PORT_EXT3;false;Quadrants,0,IN_PHASE;470.0;-3917.0;2.2530342437744153E-8;-1.8776883261413572E-7;5287768.071207946;-1.4513774677217433;4.438458948252563E7;0.38251953125000004; - ;0.0;0.0
78125.0;50000;40;7;0;0;TWO;VOUT_IIN;FIRST_HARMONIC;PORT_EXT3;PORT_EXT3;false;Quadrants,0,IN_PHASE;507.0;-3911.0;2.430400769348145E-8;-1.8748121122131346E-7;5289606.897405173;-1.4418808983816986;4.114547742956026E7;0.38193359374999997; - ;0.0;0.0
78125.0;50000;40;7;0;0;TWO;VOUT_IIN;FIRST_HARMONIC;PORT_EXT3;PORT_EXT3;false;Quadrants,0,IN_PHASE;502.0;-3913.0;2.4064323199462902E-8;-1.8757708501892092E-7;5287804.764386965;-1.4432029608734136;4.155529294180687E7;0.38212890625; - ;0.0;0.0
78125.0;50000;40;7;0;0;TWO;VOUT_IIN;FIRST_HARMONIC;PORT_EXT3;PORT_EXT3;false;Quadrants,0,IN_PHASE;502.0;-3912.0;2.406432319946289E-8;-1.875291481201172E-7;5289134.558046446;-1.4431706979576542;4.15552929418069E7;0.38203125; - ;0.0;0.0
78125.0;50000;40;7;0;0;TWO;VOUT_IIN;FIRST_HARMONIC;PORT_EXT3;PORT_EXT3;false;Quadrants,0,IN_PHASE;510.0;-3914.0;2.4447818389892594E-8;-1.8762502191772463E-7;5285101.877213954;-1.4412248626896145;4.090344520938636E7;0.38222656250000003; - ;0.0;0.0
78125.0;50000;40;7;0;0;TWO;VOUT_IIN;FIRST_HARMONIC;PORT_EXT3;PORT_EXT3;false;Quadrants,0,IN_PHASE;508.0;-3910.0;2.4351944592285172E-8;-1.8743327432250975E-7;5290764.646839487;-1.441596774703834;4.1064482395250075E7;0.3818359375; - ;0.0;0.0
78125.0;50000;40;7;0;0;TWO;VOUT_IIN;FIRST_HARMONIC;PORT_EXT3;PORT_EXT3;false;Quadrants,0,IN_PHASE;497.0;-3914.0;2.3824638705444343E-8;-1.8762502191772463E-7;5287323.736678288;-1.4444922008235392;4.197335423900815E7;0.38222656250000003; - ;0.0;0.0
78125.0;50000;40;7;0;0;TWO;VOUT_IIN;FIRST_HARMONIC;PORT_EXT3;PORT_EXT3;false;Quadrants,0,IN_PHASE;498.0;-3911.0;2.387257560424806E-8;-1.874812112213135E-7;5291145.683015666;-1.4441447277160642;4.188907039515469E7;0.3819335937500001; - ;0.0;0.0
78125.0;50000;40;7;0;0;TWO;VOUT_IIN;FIRST_HARMONIC;PORT_EXT3;PORT_EXT3;false;Quadrants,0,IN_PHASE;489.0;-3914.0;2.344114351501467E-8;-1.876250219177246E-7;5288663.874841834;-1.4465042233521055;4.266003488095509E7;0.3822265625; - ;0.0;0.0
78125.0;50000;40;7;0;0;TWO;VOUT_IIN;FIRST_HARMONIC;PORT_EXT3;PORT_EXT3;false;Quadrants,0,IN_PHASE;471.0;-3920.0;2.2578279336547847E-8;-1.8791264331054687E-7;5283619.198705279;-1.4512165150786498;4.4290354685322836E7;0.38281250000000006; - ;0.0;0.0
78125.0;50000;40;7;0;0;TWO;VOUT_IIN;FIRST_HARMONIC;PORT_EXT3;PORT_EXT3;false;Quadrants,0,IN_PHASE;473.0;-3914.0;2.267415313415527E-8;-1.8762502191772463E-7;5291281.848107341;-1.4505312889928321;4.41030804583236E7;0.38222656250000003; - ;0.0;0.0
78125.0;50000;40;7;0;0;TWO;VOUT_IIN;FIRST_HARMONIC;PORT_EXT3;PORT_EXT3;false;Quadrants,0,IN_PHASE;492.0;-3915.0;2.358495421142578E-8;-1.8767295881652832E-7;5286834.011429015;-1.4457812040905338;4.2399912717046864E7;0.38232421875; - ;0.0;0.0
78125.0;50000;40;7;0;0;TWO;VOUT_IIN;FIRST_HARMONIC;PORT_EXT3;PORT_EXT3;false;Quadrants,0,IN_PHASE;504.0;-3911.0;2.4160196997070298E-8;-1.874812112213135E-7;5290122.738578189;-1.4426353616972265;4.1390390985688634E7;0.38193359374999997; - ;0.0;0.0
78125.0;50000;40;7;0;0;TWO;VOUT_IIN;FIRST_HARMONIC;PORT_EXT3;PORT_EXT3;false;Quadrants,0,IN_PHASE;478.0;-3913.0;2.2913837628173835E-8;-1.8757708501892095E-7;5291804.8197662085;-1.4492416521575198;4.364175116482646E7;0.3821289062500001; - ;0.0;0.0
78125.0;50000;40;7;0;0;TWO;VOUT_IIN;FIRST_HARMONIC;PORT_EXT3;PORT_EXT3;false;Quadrants,0,IN_PHASE;470.0;-3916.0;2.2530342437744156E-8;-1.8772089571533204E-7;5289099.197196055;-1.451347261817745;4.438458948252561E7;0.3824218750000001; - ;0.0;0.0
