Type;Port;InitialPotential;FinalPotential;Step;PulseAmplitude;AlternativeSignal;InGain;Rsense;Contacts;Voltage;Current
3;11100;-1250;1250;10;200;true;00;00;1;-1250.0;-0.00128173828125
3;11100;-1250;1250;10;200;true;00;00;1;-1240.0;-0.00128173828125
3;11100;-1250;1250;10;200;true;00;00;1;-1230.0;0.0
3;11100;-1250;1250;10;200;true;00;00;1;-1220.0;-0.00128173828125
3;11100;-1250;1250;10;200;true;00;00;1;-1210.0;-0.00128173828125
3;11100;-1250;1250;10;200;true;00;00;1;-1200.0;-0.00128173828125
3;11100;-1250;1250;10;200;true;00;00;1;-1190.0;0.0
3;11100;-1250;1250;10;200;true;00;00;1;-1180.0;-0.00128173828125
3;11100;-1250;1250;10;200;true;00;00;1;-1170.0;-0.00128173828125
3;11100;-1250;1250;10;200;true;00;00;1;-1160.0;-0.0025634765625
3;11100;-1250;1250;10;200;true;00;00;1;-1150.0;0.0
3;11100;-1250;1250;10;200;true;00;00;1;-1140.0;0.0
3;11100;-1250;1250;10;200;true;00;00;1;-1130.0;-0.00128173828125
3;11100;-1250;1250;10;200;true;00;00;1;-1120.0;0.0
3;11100;-1250;1250;10;200;true;00;00;1;-1110.0;0.0
3;11100;-1250;1250;10;200;true;00;00;1;-1100.0;-0.00128173828125
3;11100;-1250;1250;10;200;true;00;00;1;-1090.0;0.0
3;11100;-1250;1250;10;200;true;00;00;1;-1080.0;0.0
3;11100;-1250;1250;10;200;true;00;00;1;-1070.0;0.0
3;11100;-1250;1250;10;200;true;00;00;1;-1060.0;0.0
3;11100;-1250;1250;10;200;true;00;00;1;-1050.0;-0.00128173828125
3;11100;-1250;1250;10;200;true;00;00;1;-1040.0;-0.00128173828125
3;11100;-1250;1250;10;200;true;00;00;1;-1030.0;0.0
3;11100;-1250;1250;10;200;true;00;00;1;-1020.0;0.00128173828125
3;11100;-1250;1250;10;200;true;00;00;1;-1010.0;0.0
3;11100;-1250;1250;10;200;true;00;00;1;-1000.0;-0.00128173828125
3;11100;-1250;1250;10;200;true;00;00;1;-990.0;-0.00128173828125
3;11100;-1250;1250;10;200;true;00;00;1;-980.0;0.0
3;11100;-1250;1250;10;200;true;00;00;1;-970.0;0.0
3;11100;-1250;1250;10;200;true;00;00;1;-960.0;-0.00128173828125
3;11100;-1250;1250;10;200;true;00;00;1;-950.0;-0.00128173828125
3;11100;-1250;1250;10;200;true;00;00;1;-940.0;0.0
3;11100;-1250;1250;10;200;true;00;00;1;-930.0;-0.00128173828125
3;11100;-1250;1250;10;200;true;00;00;1;-920.0;-0.00128173828125
3;11100;-1250;1250;10;200;true;00;00;1;-910.0;0.0
3;11100;-1250;1250;10;200;true;00;00;1;-900.0;0.0
3;11100;-1250;1250;10;200;true;00;00;1;-890.0;-0.00128173828125
3;11100;-1250;1250;10;200;true;00;00;1;-880.0;-0.00128173828125
3;11100;-1250;1250;10;200;true;00;00;1;-870.0;-0.00128173828125
3;11100;-1250;1250;10;200;true;00;00;1;-860.0;0.0
3;11100;-1250;1250;10;200;true;00;00;1;-850.0;0.0
3;11100;-1250;1250;10;200;true;00;00;1;-840.0;-0.00128173828125
3;11100;-1250;1250;10;200;true;00;00;1;-830.0;-0.00128173828125
3;11100;-1250;1250;10;200;true;00;00;1;-820.0;0.0
3;11100;-1250;1250;10;200;true;00;00;1;-810.0;0.0
3;11100;-1250;1250;10;200;true;00;00;1;-800.0;0.0
3;11100;-1250;1250;10;200;true;00;00;1;-790.0;0.0
3;11100;-1250;1250;10;200;true;00;00;1;-780.0;0.0
3;11100;-1250;1250;10;200;true;00;00;1;-770.0;-0.00128173828125
3;11100;-1250;1250;10;200;true;00;00;1;-760.0;-0.00128173828125
3;11100;-1250;1250;10;200;true;00;00;1;-750.0;0.0
3;11100;-1250;1250;10;200;true;00;00;1;-740.0;-0.00128173828125
3;11100;-1250;1250;10;200;true;00;00;1;-730.0;0.0
3;11100;-1250;1250;10;200;true;00;00;1;-720.0;0.0
3;11100;-1250;1250;10;200;true;00;00;1;-710.0;0.0
3;11100;-1250;1250;10;200;true;00;00;1;-700.0;0.0
3;11100;-1250;1250;10;200;true;00;00;1;-690.0;0.0
3;11100;-1250;1250;10;200;true;00;00;1;-680.0;0.0
3;11100;-1250;1250;10;200;true;00;00;1;-670.0;0.0
3;11100;-1250;1250;10;200;true;00;00;1;-660.0;-0.00128173828125
3;11100;-1250;1250;10;200;true;00;00;1;-650.0;-0.00128173828125
3;11100;-1250;1250;10;200;true;00;00;1;-640.0;0.0
3;11100;-1250;1250;10;200;true;00;00;1;-630.0;0.0
3;11100;-1250;1250;10;200;true;00;00;1;-620.0;-0.00128173828125
3;11100;-1250;1250;10;200;true;00;00;1;-610.0;0.0
3;11100;-1250;1250;10;200;true;00;00;1;-600.0;0.0
3;11100;-1250;1250;10;200;true;00;00;1;-590.0;-0.00128173828125
3;11100;-1250;1250;10;200;true;00;00;1;-580.0;0.0
3;11100;-1250;1250;10;200;true;00;00;1;-570.0;0.0
3;11100;-1250;1250;10;200;true;00;00;1;-560.0;0.0
3;11100;-1250;1250;10;200;true;00;00;1;-550.0;-0.00128173828125
3;11100;-1250;1250;10;200;true;00;00;1;-540.0;0.0
3;11100;-1250;1250;10;200;true;00;00;1;-530.0;-0.00128173828125
3;11100;-1250;1250;10;200;true;00;00;1;-520.0;0.0
3;11100;-1250;1250;10;200;true;00;00;1;-510.0;-0.00128173828125
3;11100;-1250;1250;10;200;true;00;00;1;-500.0;-0.00128173828125
3;11100;-1250;1250;10;200;true;00;00;1;-490.0;-0.00128173828125
3;11100;-1250;1250;10;200;true;00;00;1;-480.0;0.0
3;11100;-1250;1250;10;200;true;00;00;1;-470.0;0.0
3;11100;-1250;1250;10;200;true;00;00;1;-460.0;0.0
3;11100;-1250;1250;10;200;true;00;00;1;-450.0;-0.00128173828125
3;11100;-1250;1250;10;200;true;00;00;1;-440.0;-0.00128173828125
3;11100;-1250;1250;10;200;true;00;00;1;-430.0;-0.00128173828125
3;11100;-1250;1250;10;200;true;00;00;1;-420.0;0.0
3;11100;-1250;1250;10;200;true;00;00;1;-410.0;0.0
3;11100;-1250;1250;10;200;true;00;00;1;-400.0;-0.00128173828125
3;11100;-1250;1250;10;200;true;00;00;1;-390.0;-0.00128173828125
3;11100;-1250;1250;10;200;true;00;00;1;-380.0;0.0
3;11100;-1250;1250;10;200;true;00;00;1;-370.0;-0.00128173828125
3;11100;-1250;1250;10;200;true;00;00;1;-360.0;0.0
3;11100;-1250;1250;10;200;true;00;00;1;-350.0;-0.00128173828125
3;11100;-1250;1250;10;200;true;00;00;1;-340.0;0.0
3;11100;-1250;1250;10;200;true;00;00;1;-330.0;-0.00128173828125
3;11100;-1250;1250;10;200;true;00;00;1;-320.0;0.0
3;11100;-1250;1250;10;200;true;00;00;1;-310.0;0.0
3;11100;-1250;1250;10;200;true;00;00;1;-300.0;-0.00128173828125
3;11100;-1250;1250;10;200;true;00;00;1;-290.0;-0.00128173828125
3;11100;-1250;1250;10;200;true;00;00;1;-280.0;0.0
3;11100;-1250;1250;10;200;true;00;00;1;-270.0;0.0
3;11100;-1250;1250;10;200;true;00;00;1;-260.0;0.0
3;11100;-1250;1250;10;200;true;00;00;1;-250.0;-0.00128173828125
3;11100;-1250;1250;10;200;true;00;00;1;-240.0;0.0
3;11100;-1250;1250;10;200;true;00;00;1;-230.0;-0.00128173828125
3;11100;-1250;1250;10;200;true;00;00;1;-220.0;0.0
3;11100;-1250;1250;10;200;true;00;00;1;-210.0;0.0
3;11100;-1250;1250;10;200;true;00;00;1;-200.0;0.0
3;11100;-1250;1250;10;200;true;00;00;1;-190.0;0.0
3;11100;-1250;1250;10;200;true;00;00;1;-180.0;-0.00128173828125
3;11100;-1250;1250;10;200;true;00;00;1;-170.0;-0.00128173828125
3;11100;-1250;1250;10;200;true;00;00;1;-160.0;-0.00128173828125
3;11100;-1250;1250;10;200;true;00;00;1;-150.0;-0.00128173828125
3;11100;-1250;1250;10;200;true;00;00;1;-140.0;-0.00128173828125
3;11100;-1250;1250;10;200;true;00;00;1;-130.0;-0.00128173828125
3;11100;-1250;1250;10;200;true;00;00;1;-120.0;0.0
3;11100;-1250;1250;10;200;true;00;00;1;-110.0;-0.00128173828125
3;11100;-1250;1250;10;200;true;00;00;1;-100.0;-0.00128173828125
3;11100;-1250;1250;10;200;true;00;00;1;-90.0;-0.00128173828125
3;11100;-1250;1250;10;200;true;00;00;1;-80.0;0.0
3;11100;-1250;1250;10;200;true;00;00;1;-70.0;-0.00128173828125
3;11100;-1250;1250;10;200;true;00;00;1;-60.0;-0.00128173828125
3;11100;-1250;1250;10;200;true;00;00;1;-50.0;0.0
3;11100;-1250;1250;10;200;true;00;00;1;-40.0;0.0
3;11100;-1250;1250;10;200;true;00;00;1;-30.0;-0.00128173828125
3;11100;-1250;1250;10;200;true;00;00;1;-20.0;-0.00128173828125
3;11100;-1250;1250;10;200;true;00;00;1;-10.0;0.0
3;11100;-1250;1250;10;200;true;00;00;1;0.0;-0.00128173828125
3;11100;-1250;1250;10;200;true;00;00;1;10.0;0.0
3;11100;-1250;1250;10;200;true;00;00;1;20.0;-0.00128173828125
3;11100;-1250;1250;10;200;true;00;00;1;30.0;-0.00128173828125
3;11100;-1250;1250;10;200;true;00;00;1;40.0;0.0
3;11100;-1250;1250;10;200;true;00;00;1;50.0;0.0
3;11100;-1250;1250;10;200;true;00;00;1;60.0;-0.00128173828125
3;11100;-1250;1250;10;200;true;00;00;1;70.0;-0.0025634765625
3;11100;-1250;1250;10;200;true;00;00;1;80.0;0.0
3;11100;-1250;1250;10;200;true;00;00;1;90.0;-0.00128173828125
3;11100;-1250;1250;10;200;true;00;00;1;100.0;0.0
3;11100;-1250;1250;10;200;true;00;00;1;110.0;-0.00128173828125
