Timestamp;Temp;Hum;ONCHIP_TEMPERATURE_0810;ONCHIP_TEMPERATURE_0850
118.831;----;----;25.017999999999972;22.18399999999997;
118.933;----;----;25.02287499999997;22.179124999999967;
119.033;----;----;25.027445312499967;22.18105468749997;
119.129;----;----;25.033354980468715;22.18123876953122;
119.226;----;----;25.034020294189418;22.179786346435517;
119.323;----;----;25.041144025802577;22.186549699783296;
119.419;----;----;25.044572524189913;22.188015343546837;
119.516;----;----;25.04616174142804;22.189389384575158;
119.612;----;----;25.049276632588786;22.189052548039207;
119.709;----;----;25.045696843051985;22.187111763786753;
119.807;----;----;25.048840790361233;22.18691727855008;
119.905;----;----;25.050163240963652;22.183484948640697;
120.0;----;----;25.056278038403423;22.186767139350653;
120.097;----;----;25.053885661003207;22.184969193141235;
120.194;----;----;25.053267807190505;22.186533618569907;
120.292;----;----;25.047813569241097;22.186375267409286;
120.39;----;----;25.047575221163527;22.186226813196203;
120.487;----;----;25.047351769840805;22.18608763737144;
120.585;----;----;25.05039228422575;22.184332160035723;
120.682;----;----;25.049992766461642;22.194061400033487;
120.781;----;----;25.052868218557787;22.19343256253139;
120.879;----;----;25.057188954897924;22.19284302737318;
120.978;----;----;25.0579896452168;22.193915338162356;
121.076;----;----;25.058740292390745;22.193295629527206;
121.172;----;----;25.057819024116323;22.192714652681754;
121.268;----;----;25.066705335109052;22.188919986889143;
121.365;----;----;25.070161251664732;22.190237487708572;
121.462;----;----;25.073401173435684;22.189847644726783;
121.558;----;----;25.07481360009595;22.191107166931356;
121.656;----;----;25.076137750089952;22.190662968998144;
121.754;----;----;25.079004140709326;22.19187153343576;
121.852;----;----;25.07519138191499;22.191379562596023;
121.95;----;----;25.0748669205453;22.19254333993377;
122.048;----;----;25.07943773801122;22.190384381187908;
122.145;----;----;25.080472879385514;22.19648535736366;
122.242;----;----;25.084693324423917;22.200580022528428;
122.338;----;----;25.09189999164742;22.1979187711204;
122.436;----;----;25.095406242169453;22.197048847925373;
122.533;----;----;25.093818352033857;22.197858294930036;
122.631;----;----;25.09720470503174;22.198617151496908;
122.729;----;----;25.100379410967253;22.197703579528348;
122.827;----;----;25.0968556977818;22.196847105807823;
122.925;----;----;25.095177216670432;22.20254416169483;
123.022;----;----;25.09197864062853;22.2095101515889;
123.119;----;----;25.095479975589242;22.211165767114593;
123.215;----;----;25.097137477114913;22.21271790666993;
