frequencies;rsense;ingain;outgain;dcbiasP;dcbiasN;contacts;modevi;harmonic;inport;outport;SequentialMode;phaseShift;VadcI;VadcQ;Conductance;Susceptance;Zmod;ZPha;Rp;Cp;Lp;Current[mA];Voltage[mV]
78125.0;50000;40;7;0;0;TWO;VOUT_IIN;FIRST_HARMONIC;PORT_EXT3;PORT_EXT3;false;Quadrants,0,IN_PHASE;400.0;-3728.0;1.917475952148436E-8;-1.7870875874023439E-7;5563761.987291888;-1.4639091160350859;5.2151892641967684E7;0.3640625000000001; - ;0.0;0.0
78125.0;50000;40;7;0;0;TWO;VOUT_IIN;FIRST_HARMONIC;PORT_EXT3;PORT_EXT3;false;Quadrants,0,IN_PHASE;403.0;-3722.0;1.931857021789552E-8;-1.784211373474121E-7;5572149.721988734;-1.4629413755047953;5.176366515331772E7;0.3634765625000001; - ;0.0;0.0
78125.0;50000;40;7;0;0;TWO;VOUT_IIN;FIRST_HARMONIC;PORT_EXT3;PORT_EXT3;false;Quadrants,0,IN_PHASE;409.0;-3728.0;1.9606191610717768E-8;-1.787087587402344E-7;5562321.737323679;-1.4615230451396786;5.100429598236445E7;0.3640625000000001; - ;0.0;0.0
78125.0;50000;40;7;0;0;TWO;VOUT_IIN;FIRST_HARMONIC;PORT_EXT3;PORT_EXT3;false;Quadrants,0,IN_PHASE;407.0;-3727.0;1.9510317813110342E-8;-1.7866082184143067E-7;5564119.404201804;-1.4620242285720455;5.125493134345717E7;0.36396484375000004; - ;0.0;0.0
78125.0;50000;40;7;0;0;TWO;VOUT_IIN;FIRST_HARMONIC;PORT_EXT3;PORT_EXT3;false;Quadrants,0,IN_PHASE;408.0;-3729.0;1.9558254711914067E-8;-1.787566956390381E-7;5561009.257802179;-1.4618171045759911;5.112930651173297E7;0.36416015625000003; - ;0.0;0.0
78125.0;50000;40;7;0;0;TWO;VOUT_IIN;FIRST_HARMONIC;PORT_EXT3;PORT_EXT3;false;Quadrants,0,IN_PHASE;408.0;-3730.0;1.9558254711914077E-8;-1.788046325378418E-7;5559536.000086259;-1.4618460908369215;5.112930651173295E7;0.3642578125; - ;0.0;0.0
78125.0;50000;40;7;0;0;TWO;VOUT_IIN;FIRST_HARMONIC;PORT_EXT3;PORT_EXT3;false;Quadrants,0,IN_PHASE;403.0;-3725.0;1.9318570217895514E-8;-1.7856494804382327E-7;5567714.023740825;-1.4630275672885016;5.176366515331774E7;0.36376953125000006; - ;0.0;0.0
78125.0;50000;40;7;0;0;TWO;VOUT_IIN;FIRST_HARMONIC;PORT_EXT3;PORT_EXT3;false;Quadrants,0,IN_PHASE;409.0;-3717.0;1.9606191610717765E-8;-1.7818145285339355E-7;5578586.104417009;-1.4612022438419225;5.100429598236446E7;0.36298828125000004; - ;0.0;0.0
78125.0;50000;40;7;0;0;TWO;VOUT_IIN;FIRST_HARMONIC;PORT_EXT3;PORT_EXT3;false;Quadrants,0,IN_PHASE;405.0;-3723.0;1.9414444015502917E-8;-1.7846907424621584E-7;5570349.426376133;-1.4624391723363812;5.150804211552365E7;0.36357421874999996; - ;0.0;0.0
78125.0;50000;40;7;0;0;TWO;VOUT_IIN;FIRST_HARMONIC;PORT_EXT3;PORT_EXT3;false;Quadrants,0,IN_PHASE;405.0;-3724.0;1.9414444015502947E-8;-1.7851701114501955E-7;5568871.115974311;-1.4624680421844685;5.150804211552356E7;0.36367187500000003; - ;0.0;0.0
78125.0;50000;40;7;0;0;TWO;VOUT_IIN;FIRST_HARMONIC;PORT_EXT3;PORT_EXT3;false;Quadrants,0,IN_PHASE;402.0;-3728.0;1.9270633319091816E-8;-1.7870875874023436E-7;5563444.604991089;-1.4633787714973958;5.189243048951998E7;0.3640625; - ;0.0;0.0
78125.0;50000;40;7;0;0;TWO;VOUT_IIN;FIRST_HARMONIC;PORT_EXT3;PORT_EXT3;false;Quadrants,0,IN_PHASE;402.0;-3729.0;1.9270633319091807E-8;-1.7875669563903807E-7;5561969.806768239;-1.463407356505362;5.189243048952002E7;0.36416015625; - ;0.0;0.0
78125.0;50000;40;7;0;0;TWO;VOUT_IIN;FIRST_HARMONIC;PORT_EXT3;PORT_EXT3;false;Quadrants,0,IN_PHASE;409.0;-3727.0;1.960619161071779E-8;-1.786608218414307E-7;5563796.419809833;-1.461493958703403;5.1004295982364416E7;0.36396484375; - ;0.0;0.0
78125.0;50000;40;7;0;0;TWO;VOUT_IIN;FIRST_HARMONIC;PORT_EXT3;PORT_EXT3;false;Quadrants,0,IN_PHASE;402.0;-3724.0;1.9270633319091793E-8;-1.7851701114501955E-7;5569351.581647798;-1.4632642797146753;5.189243048952005E7;0.36367187500000003; - ;0.0;0.0
78125.0;50000;40;7;0;0;TWO;VOUT_IIN;FIRST_HARMONIC;PORT_EXT3;PORT_EXT3;false;Quadrants,0,IN_PHASE;407.0;-3728.0;1.9510317813110362E-8;-1.7870875874023439E-7;5562644.464948085;-1.46205317613605;5.125493134345712E7;0.3640625; - ;0.0;0.0
78125.0;50000;40;7;0;0;TWO;VOUT_IIN;FIRST_HARMONIC;PORT_EXT3;PORT_EXT3;false;Quadrants,0,IN_PHASE;403.0;-3728.0;1.9318570217895524E-8;-1.787087587402344E-7;5563285.340701256;-1.463113621955139;5.176366515331772E7;0.3640625000000001; - ;0.0;0.0
78125.0;50000;40;7;0;0;TWO;VOUT_IIN;FIRST_HARMONIC;PORT_EXT3;PORT_EXT3;false;Quadrants,0,IN_PHASE;405.0;-3726.0;1.941444401550293E-8;-1.7861288494262696E-7;5565916.833988713;-1.4625257359344406;5.15080421155236E7;0.3638671875; - ;0.0;0.0
78125.0;50000;40;7;0;0;TWO;VOUT_IIN;FIRST_HARMONIC;PORT_EXT3;PORT_EXT3;false;Quadrants,0,IN_PHASE;401.0;-3729.0;1.9222696420288092E-8;-1.7875669563903807E-7;5562128.562675297;-1.4636724517318953;5.20218380468505E7;0.36416015625000003; - ;0.0;0.0
78125.0;50000;40;7;0;0;TWO;VOUT_IIN;FIRST_HARMONIC;PORT_EXT3;PORT_EXT3;false;Quadrants,0,IN_PHASE;406.0;-3726.0;1.9462380914306648E-8;-1.7861288494262696E-7;5565756.168698986;-1.4622604931281644;5.138117501671688E7;0.3638671875; - ;0.0;0.0
78125.0;50000;40;7;0;0;TWO;VOUT_IIN;FIRST_HARMONIC;PORT_EXT3;PORT_EXT3;false;Quadrants,0,IN_PHASE;401.0;-3729.0;1.9222696420288092E-8;-1.7875669563903807E-7;5562128.562675297;-1.4636724517318953;5.20218380468505E7;0.36416015625000003; - ;0.0;0.0
78125.0;50000;40;7;0;0;TWO;VOUT_IIN;FIRST_HARMONIC;PORT_EXT3;PORT_EXT3;false;Quadrants,0,IN_PHASE;409.0;-3726.0;1.960619161071778E-8;-1.7861288494262698E-7;5565271.879726773;-1.461464856840273;5.100429598236442E7;0.36386718750000013; - ;0.0;0.0
78125.0;50000;40;7;0;0;TWO;VOUT_IIN;FIRST_HARMONIC;PORT_EXT3;PORT_EXT3;false;Quadrants,0,IN_PHASE;406.0;-3727.0;1.9462380914306625E-8;-1.7866082184143067E-7;5564280.323667887;-1.4622893865568087;5.1381175016716935E7;0.36396484375000004; - ;0.0;0.0
78125.0;50000;40;7;0;0;TWO;VOUT_IIN;FIRST_HARMONIC;PORT_EXT3;PORT_EXT3;false;Quadrants,0,IN_PHASE;405.0;-3728.0;1.941444401550292E-8;-1.787087587402344E-7;5562965.666342675;-1.4625833685036944;5.150804211552362E7;0.3640625000000001; - ;0.0;0.0
78125.0;50000;40;7;0;0;TWO;VOUT_IIN;FIRST_HARMONIC;PORT_EXT3;PORT_EXT3;false;Quadrants,0,IN_PHASE;404.0;-3726.0;1.936650711669922E-8;-1.7861288494262696E-7;5566077.116926203;-1.462790994035891;5.1635537269274905E7;0.3638671875; - ;0.0;0.0
78125.0;50000;40;7;0;0;TWO;VOUT_IIN;FIRST_HARMONIC;PORT_EXT3;PORT_EXT3;false;Quadrants,0,IN_PHASE;405.0;-3729.0;1.941444401550292E-8;-1.787566956390381E-7;5561491.248867695;-1.462612161875836;5.150804211552362E7;0.36416015625000003; - ;0.0;0.0
78125.0;50000;40;7;0;0;TWO;VOUT_IIN;FIRST_HARMONIC;PORT_EXT3;PORT_EXT3;false;Quadrants,0,IN_PHASE;407.0;-3729.0;1.951031781311037E-8;-1.787566956390381E-7;5561170.30278591;-1.462082108357231;5.1254931343457095E7;0.36416015625000003; - ;0.0;0.0
78125.0;50000;40;7;0;0;TWO;VOUT_IIN;FIRST_HARMONIC;PORT_EXT3;PORT_EXT3;false;Quadrants,0,IN_PHASE;407.0;-3734.0;1.9510317813110346E-8;-1.7899638013305665E-7;5553811.127011658;-1.4622265397454617;5.125493134345717E7;0.3646484375; - ;0.0;0.0
78125.0;50000;40;7;0;0;TWO;VOUT_IIN;FIRST_HARMONIC;PORT_EXT3;PORT_EXT3;false;Quadrants,0,IN_PHASE;410.0;-3729.0;1.9654128509521476E-8;-1.7875669563903813E-7;5560686.024453929;-1.4612871431490728;5.0879895260456264E7;0.3641601562500001; - ;0.0;0.0
78125.0;50000;40;7;0;0;TWO;VOUT_IIN;FIRST_HARMONIC;PORT_EXT3;PORT_EXT3;false;Quadrants,0,IN_PHASE;404.0;-3728.0;1.936650711669924E-8;-1.7870875874023439E-7;5563125.694451714;-1.4628484876119165;5.163553726927483E7;0.3640625; - ;0.0;0.0
78125.0;50000;40;7;0;0;TWO;VOUT_IIN;FIRST_HARMONIC;PORT_EXT3;PORT_EXT3;false;Quadrants,0,IN_PHASE;406.0;-3734.0;1.9462380914306664E-8;-1.7899638013305665E-7;5553971.153733309;-1.4624912123030285;5.138117501671684E7;0.3646484375; - ;0.0;0.0
