Timestamp;Temp;Hum;_RESISTANCE_0810;_RESISTANCE_0850;_CAPACITANCE_0810;_CAPACITANCE_0850
0.234;----;----;4.574727424734001E7;4.391738327744642E7;0.366796875;0.38281250000000006;
0.476;----;----;4.594880408983934E7;4.318997320245766E7;0.36650390624999996;0.38291015624999997;
0.709;----;----;4.625445023677837E7;4.098380561254824E7;0.36640625000000004;0.38271484375000003;
0.941;----;----;4.574727424734003E7;4.2572973585279725E7;0.3666992187500001;0.38251953125000004;
1.173;----;----;4.544827245487373E7;4.336955729061759E7;0.36630859375;0.38281250000000006;
1.403;----;----;4.605023632844827E7;4.3917383277446456E7;0.36650390625;0.38310546875;
1.637;----;----;4.594880408983934E7;4.39173832774464E7;0.36650390624999996;0.3826171875;
1.868;----;----;4.5948804089839295E7;4.172151411357409E7;0.3666992187500001;0.38232421874999994;
2.101;----;----;4.635723790397124E7;4.147267804530228E7;0.3669921875;0.3824218750000001;
2.336;----;----;4.594880408983934E7;4.382511986719972E7;0.3669921875;0.38271484375;
2.566;----;----;4.54482724548738E7;4.4010035984782845E7;0.36699218749999996;0.38281250000000006;
2.799;----;----;4.605023632844825E7;4.042782375346327E7;0.3667968750000001;0.3822265625;
3.032;----;----;4.5547504490801476E7;4.1638237638297535E7;0.36718749999999994;0.3829101562500001;
3.266;----;----;4.544827245487373E7;4.391738327744641E7;0.36660156250000003;0.3824218750000001;
3.497;----;----;4.635723790397126E7;4.222825315139079E7;0.36708984375000003;0.382421875;
3.731;----;----;4.62544502367784E7;4.0983805612548225E7;0.3670898437500001;0.38310546875;
3.964;----;----;4.605023632844827E7;4.355064103713374E7;0.36650390625;0.38300781250000004;
4.197;----;----;4.5847817707224295E7;4.457426721535696E7;0.36669921875000006;0.3826171875;
4.429;----;----;4.5647170802597485E7;4.2660034880955115E7;0.36718750000000006;0.38300781250000004;
4.66;----;----;4.534947186258055E7;4.074366612653724E7;0.3667968750000001;0.38271484375;
4.893;----;----;4.625445023677844E7;4.2313908837296255E7;0.36669921875000006;0.38271484375000003;
5.125;----;----;4.58478177072243E7;4.40100359847828E7;0.3663085937500001;0.38222656250000003;
5.356;----;----;4.5547504490801446E7;4.301187022017951E7;0.36640625000000004;0.38251953125000004;
5.588;----;----;4.605023632844824E7;4.098380561254824E7;0.36611328125000003;0.38271484375000003;
5.821;----;----;4.605023632844826E7;4.082339932835043E7;0.3663085937500001;0.38271484375000003;
6.053;----;----;4.625445023677842E7;4.248626691809991E7;0.36689453125000004;0.3829101562500001;
6.285;----;----;4.64604834226883E7;4.373324330563328E7;0.36669921875000006;0.38300781250000004;
6.518;----;----;4.635723790397124E7;4.3641751164826475E7;0.3669921875;0.38291015625;
6.75;----;----;4.615211738227224E7;4.090344520938636E7;0.36650390625;0.38271484375;
6.982;----;----;4.5948804089839384E7;4.2399912717046894E7;0.36689453125000004;0.38261718749999996;
7.217;----;----;4.615211738227221E7;4.373324330563326E7;0.3668945312500001;0.38222656250000003;
7.448;----;----;4.6050236328448266E7;4.410308045832362E7;0.36640625000000004;0.38310546875;
7.678;----;----;4.5948804089839324E7;4.214294354906478E7;0.3666015624999999;0.3828125000000001;
7.909;----;----;4.584781770722435E7;4.1064482395250104E7;0.36621093749999994;0.38291015625;
8.14;----;----;4.646048342268829E7;4.130842981541994E7;0.3668945312500001;0.3826171875;
8.371;----;----;4.625445023677844E7;4.14726780453023E7;0.36669921875000006;0.3826171875;
8.605;----;----;4.6564189858899646E7;4.373324330563323E7;0.36669921875;0.3828125;
8.837;----;----;4.615211738227221E7;4.4290354685322806E7;0.3668945312500001;0.38251953125000004;
9.07;----;----;4.58478177072243E7;4.16382376382975E7;0.3663085937500001;0.38271484375000003;
9.304;----;----;4.615211738227228E7;4.155529294180688E7;0.3667968750000001;0.38232421875;
9.536;----;----;4.564717080259746E7;4.4196519188108206E7;0.36650390625;0.38251953125000004;
9.768;----;----;4.584781770722435E7;4.318997320245769E7;0.36621093749999994;0.38271484375;
10.0;----;----;4.687810574558888E7;4.066424377541339E7;0.36669921875000006;0.38212890624999996;
10.232;----;----;4.666836030601134E7;4.090344520938641E7;0.36601562499999996;0.3829101562500001;
10.463;----;----;4.615211738227221E7;4.2313908837296285E7;0.36562500000000003;0.38281250000000006;
10.694;----;----;4.564717080259746E7;4.382511986719966E7;0.36669921875000006;0.3829101562500001;
10.926;----;----;4.6254450236778386E7;4.4384589482525684E7;0.36572265625;0.38281250000000006;
11.159;----;----;4.605023632844825E7;4.188907039515471E7;0.36669921875;0.38232421875;
11.389;----;----;4.6254450236778386E7;4.1973354239008166E7;0.36650390625;0.38271484375000003;
11.621;----;----;4.615211738227225E7;4.082339932835039E7;0.3662109375000001;0.3826171875000001;
11.853;----;----;4.666836030601131E7;4.214294354906473E7;0.36640625000000004;0.3826171875;
12.087;----;----;4.605023632844826E7;4.4290354685322836E7;0.3662109375000001;0.38281250000000006;
12.317;----;----;4.5847817707224295E7;4.457426721535696E7;0.36669921875000006;0.3826171875;
12.549;----;----;4.6254450236778386E7;4.274745298521942E7;0.36650390625;0.38271484375000003;
12.782;----;----;4.625445023677839E7;4.082339932835044E7;0.36611328125;0.3818359375;
13.013;----;----;4.635723790397122E7;4.1472678045302324E7;0.36640625;0.38271484375000003;
13.247;----;----;4.625445023677837E7;4.4196519188108206E7;0.3662109375;0.38251953125000004;
13.479;----;----;4.635723790397125E7;4.318997320245766E7;0.36718750000000006;0.38232421874999994;
13.714;----;----;4.6357237903971195E7;4.130842981541989E7;0.36601562499999996;0.38212890624999996;
13.946;----;----;4.5948804089839324E7;4.43845894825256E7;0.3666015624999999;0.3829101562500001;
14.18;----;----;4.656418985889964E7;4.345991053497303E7;0.3668945312500001;0.382421875;
14.413;----;----;4.574727424734006E7;4.163823763829748E7;0.3656250000000001;0.3826171875;
14.647;----;----;4.56471708025975E7;4.410308045832362E7;0.3669921875000001;0.38310546875;
14.88;----;----;4.605023632844826E7;4.382511986719969E7;0.3663085937500001;0.3825195312500001;
15.111;----;----;4.574727424734003E7;4.18890703951547E7;0.36650390625;0.3826171875000001;
15.343;----;----;4.635723790397123E7;4.130842981541989E7;0.36650390625;0.38212890624999996;
15.576;----;----;4.6357237903971225E7;4.336955729061756E7;0.36611328125000003;0.38232421875000006;
15.806;----;----;4.6050236328448266E7;4.4196519188108206E7;0.36640625000000004;0.38251953125000004;
16.037;----;----;4.6254450236778416E7;4.41030804583236E7;0.36660156250000003;0.38222656250000003;
16.268;----;----;4.615211738227228E7;4.4479226133874334E7;0.3667968750000001;0.38271484375000014;
16.5;----;----;4.605023632844827E7;4.231390883729628E7;0.36650390625;0.38212890624999996;
16.733;----;----;4.646048342268833E7;4.122679260234596E7;0.36660156250000003;0.3822265625;
16.964;----;----;4.605023632844825E7;4.172151411357408E7;0.36669921875;0.382421875;
17.197;----;----;4.584781770722426E7;4.382511986719967E7;0.3658203125;0.38232421875000006;
17.429;----;----;4.635723790397125E7;4.410308045832361E7;0.36689453125000004;0.38242187499999997;
17.661;----;----;4.615211738227228E7;4.114547742956029E7;0.3667968750000001;0.38232421875;
17.892;----;----;4.5948804089839324E7;4.098380561254823E7;0.3666015624999999;0.3826171875000001;
18.124;----;----;4.635723790397124E7;4.1226792602346E7;0.3666015625;0.38251953125;
18.357;----;----;4.574727424734007E7;4.4479226133874364E7;0.36630859374999997;0.38212890625;
18.59;----;----;4.6460483422688276E7;4.345991053497302E7;0.3663085937500001;0.38232421875;
18.824;----;----;4.564717080259753E7;4.1472678045302294E7;0.36601562499999996;0.3828125000000001;
19.059;----;----;4.594880408983935E7;4.410308045832363E7;0.3667968750000001;0.38251953125000004;
19.293;----;----;4.625445023677838E7;4.098380561254823E7;0.36630859374999997;0.3826171875000001;
19.525;----;----;4.625445023677836E7;4.214294354906473E7;0.3667968750000001;0.3826171875;
19.758;----;----;4.594880408983932E7;4.410308045832358E7;0.36621093750000006;0.3829101562500001;
19.988;----;----;4.625445023677836E7;4.3825119867199704E7;0.3667968750000001;0.38330078124999994;
20.222;----;----;4.5847817707224324E7;4.082339932835043E7;0.36718750000000006;0.38271484375000003;
20.454;----;----;4.564717080259747E7;4.114547742956024E7;0.36689453125000004;0.3828125000000001;
20.686;----;----;4.615211738227224E7;4.382511986719972E7;0.36640625000000004;0.38271484375;
20.919;----;----;4.635723790397127E7;4.438458948252561E7;0.36630859374999997;0.3824218750000001;
21.152;----;----;4.5847817707224295E7;4.1226792602345906E7;0.36669921875000006;0.3826171875000001;
21.384;----;----;4.646048342268835E7;4.098380561254824E7;0.36611328125;0.38271484375000003;
21.613;----;----;4.5948804089839324E7;4.155529294180693E7;0.3666015624999999;0.38261718749999996;
21.846;----;----;4.594880408983931E7;4.3550641037133716E7;0.36640625000000004;0.38251953125000004;
22.077;----;----;4.646048342268837E7;4.438458948252569E7;0.36650390625;0.3827148437500001;
22.307;----;----;4.635723790397122E7;4.410308045832361E7;0.36640625;0.38261718749999996;
22.54;----;----;4.666836030601131E7;4.429035468532282E7;0.366796875;0.3821289062500002;
22.77;----;----;4.666836030601131E7;4.318997320245763E7;0.36611328125;0.3830078125000001;
23.002;----;----;4.656418985889965E7;4.106448239525011E7;0.3666015625;0.38212890624999996;
23.232;----;----;4.6460483422688365E7;4.11454774295603E7;0.3662109375;0.382421875;
23.465;----;----;4.6050236328448266E7;4.188907039515474E7;0.36640625000000004;0.38222656250000003;
23.698;----;----;4.6460483422688276E7;4.410308045832362E7;0.3663085937500001;0.38193359375;
23.929;----;----;4.625445023677838E7;4.438458948252563E7;0.36630859374999997;0.38251953125000004;
24.16;----;----;4.646048342268828E7;4.114547742956026E7;0.3667968750000001;0.38193359374999997;
24.391;----;----;4.6564189858899705E7;4.155529294180687E7;0.36611328125000003;0.38212890625;
24.621;----;----;4.666836030601134E7;4.15552929418069E7;0.3666015625;0.38203125;
24.851;----;----;4.687810574558888E7;4.090344520938636E7;0.36669921875000006;0.38222656250000003;
25.084;----;----;4.625445023677839E7;4.1064482395250075E7;0.36611328125;0.3818359375;
25.314;----;----;4.615211738227224E7;4.197335423900815E7;0.366015625;0.38222656250000003;
25.544;----;----;4.635723790397126E7;4.188907039515469E7;0.36669921875;0.3819335937500001;
25.775;----;----;4.666836030601134E7;4.266003488095509E7;0.3666015625;0.3822265625;
26.007;----;----;4.666836030601136E7;4.4290354685322836E7;0.36630859375;0.38281250000000006;
26.24;----;----;4.625445023677844E7;4.41030804583236E7;0.36669921875000006;0.38222656250000003;
26.471;----;----;4.615211738227227E7;4.2399912717046864E7;0.36591796875000004;0.38232421875;
26.704;----;----;4.605023632844824E7;4.1390390985688634E7;0.3658203125000001;0.38193359374999997;
26.936;----;----;4.666836030601136E7;4.364175116482646E7;0.3658203125;0.3821289062500001;
27.168;----;----;4.666836030601134E7;4.438458948252561E7;0.36601562499999996;0.3824218750000001;
