frequencies;rsense;ingain;outgain;dcbiasP;dcbiasN;contacts;modevi;harmonic;inport;outport;SequentialMode;phaseShift;VadcI;VadcQ;Conductance;Susceptance;Zmod;ZPha;Rp;Cp;Lp;Current[mA];Voltage[mV]
78125.0;50000;40;7;0;0;TWO;VOUT_IIN;FIRST_HARMONIC;PORT_EXT3;PORT_EXT3;false;Quadrants,0,IN_PHASE;500.0;-3881.0;2.396844940185549E-8;-1.8604310425720214E-7;5331038.536354658;-1.442669320215069;4.1721514113574065E7;0.37900390625; - ;0.0;0.0
78125.0;50000;40;7;0;0;TWO;VOUT_IIN;FIRST_HARMONIC;PORT_EXT3;PORT_EXT3;false;Quadrants,0,IN_PHASE;530.0;-3888.0;2.5406556365966816E-8;-1.8637866254882814E-7;5316254.321001082;-1.4353145233297593;3.9359918975069895E7;0.3796875; - ;0.0;0.0
78125.0;50000;40;7;0;0;TWO;VOUT_IIN;FIRST_HARMONIC;PORT_EXT3;PORT_EXT3;false;Quadrants,0,IN_PHASE;517.0;-3881.0;2.4783376681518542E-8;-1.860431042572022E-7;5328031.438009634;-1.4383629399516047;4.034962680229607E7;0.37900390625; - ;0.0;0.0
78125.0;50000;40;7;0;0;TWO;VOUT_IIN;FIRST_HARMONIC;PORT_EXT3;PORT_EXT3;false;Quadrants,0,IN_PHASE;454.0;-3883.0;2.176335205688476E-8;-1.861389780548096E-7;5335981.575042019;-1.454404867181006;4.594880408983934E7;0.3791992187500001; - ;0.0;0.0
78125.0;50000;40;7;0;0;TWO;VOUT_IIN;FIRST_HARMONIC;PORT_EXT3;PORT_EXT3;false;Quadrants,0,IN_PHASE;456.0;-3893.0;2.1859225854492207E-8;-1.8661834704284668E-7;5322143.845535734;-1.4541943414590928;4.574727424734E7;0.38017578125; - ;0.0;0.0
78125.0;50000;40;7;0;0;TWO;VOUT_IIN;FIRST_HARMONIC;PORT_EXT3;PORT_EXT3;false;Quadrants,0,IN_PHASE;500.0;-3887.0;2.3968449401855493E-8;-1.8633072565002442E-7;5322943.5571010085;-1.4428649454199771;4.172151411357407E7;0.37958984375000004; - ;0.0;0.0
78125.0;50000;40;7;0;0;TWO;VOUT_IIN;FIRST_HARMONIC;PORT_EXT3;PORT_EXT3;false;Quadrants,0,IN_PHASE;510.0;-3881.0;2.444781838989258E-8;-1.860431042572022E-7;5329281.211989534;-1.4401355662806592;4.090344520938638E7;0.3790039062500001; - ;0.0;0.0
78125.0;50000;40;7;0;0;TWO;VOUT_IIN;FIRST_HARMONIC;PORT_EXT3;PORT_EXT3;false;Quadrants,0,IN_PHASE;445.0;-3893.0;2.1331919967651388E-8;-1.8661834704284668E-7;5323861.34797013;-1.4569825860329066;4.687810574558883E7;0.38017578125; - ;0.0;0.0
78125.0;50000;40;7;0;0;TWO;VOUT_IIN;FIRST_HARMONIC;PORT_EXT3;PORT_EXT3;false;Quadrants,0,IN_PHASE;525.0;-3880.0;2.5166871871948218E-8;-1.8599516735839842E-7;5327931.514923892;-1.436303868665465;3.97347753462611E7;0.37890625; - ;0.0;0.0
78125.0;50000;40;7;0;0;TWO;VOUT_IIN;FIRST_HARMONIC;PORT_EXT3;PORT_EXT3;false;Quadrants,0,IN_PHASE;511.0;-3880.0;2.4495755288696292E-8;-1.8599516735839848E-7;5330453.728563491;-1.4398489267212824;4.08233993283504E7;0.37890625000000006; - ;0.0;0.0
78125.0;50000;40;7;0;0;TWO;VOUT_IIN;FIRST_HARMONIC;PORT_EXT3;PORT_EXT3;false;Quadrants,0,IN_PHASE;449.0;-3893.0;2.1523667562866222E-8;-1.8661834704284666E-7;5323241.462100096;-1.4559684709514;4.64604834226883E7;0.38017578125; - ;0.0;0.0
78125.0;50000;40;7;0;0;TWO;VOUT_IIN;FIRST_HARMONIC;PORT_EXT3;PORT_EXT3;false;Quadrants,0,IN_PHASE;518.0;-3888.0;2.483131358032228E-8;-1.8637866254882814E-7;5318426.700939805;-1.4383458794766504;4.027173176985916E7;0.3796875; - ;0.0;0.0
78125.0;50000;40;7;0;0;TWO;VOUT_IIN;FIRST_HARMONIC;PORT_EXT3;PORT_EXT3;false;Quadrants,0,IN_PHASE;532.0;-3881.0;2.5502430163574222E-8;-1.8604310425720216E-7;5325299.0474495515;-1.4345672861520933;3.921194935486288E7;0.37900390625; - ;0.0;0.0
78125.0;50000;40;7;0;0;TWO;VOUT_IIN;FIRST_HARMONIC;PORT_EXT3;PORT_EXT3;false;Quadrants,0,IN_PHASE;528.0;-3875.0;2.5310682568359397E-8;-1.8575548286437988E-7;5334131.468915484;-1.4353722588462912;3.9509009577248186E7;0.37841796875; - ;0.0;0.0
78125.0;50000;40;7;0;0;TWO;VOUT_IIN;FIRST_HARMONIC;PORT_EXT3;PORT_EXT3;false;Quadrants,0,IN_PHASE;501.0;-3880.0;2.4016386300659158E-8;-1.8599516735839845E-7;5332215.697349683;-1.4423831445772717;4.163823763829756E7;0.37890624999999994; - ;0.0;0.0
78125.0;50000;40;7;0;0;TWO;VOUT_IIN;FIRST_HARMONIC;PORT_EXT3;PORT_EXT3;false;Quadrants,0,IN_PHASE;475.0;-3878.0;2.2770026931762698E-8;-1.8589929356079102E-7;5339353.140477966;-1.4489175962746428;4.391738327744644E7;0.3787109375; - ;0.0;0.0
78125.0;50000;40;7;0;0;TWO;VOUT_IIN;FIRST_HARMONIC;PORT_EXT3;PORT_EXT3;false;Quadrants,0,IN_PHASE;529.0;-3876.0;2.5358619467163102E-8;-1.8580341976318362E-7;5332596.177598163;-1.4351534836925994;3.9434323358765684E7;0.378515625; - ;0.0;0.0
78125.0;50000;40;7;0;0;TWO;VOUT_IIN;FIRST_HARMONIC;PORT_EXT3;PORT_EXT3;false;Quadrants,0,IN_PHASE;532.0;-3882.0;2.5502430163574202E-8;-1.8609104115600588E-7;5323952.5463212235;-1.4346019462414947;3.92119493548629E7;0.3791015625000001; - ;0.0;0.0
78125.0;50000;40;7;0;0;TWO;VOUT_IIN;FIRST_HARMONIC;PORT_EXT3;PORT_EXT3;false;Quadrants,0,IN_PHASE;532.0;-3874.0;2.5502430163574212E-8;-1.8570754596557622E-7;5334743.479772038;-1.4343241737646661;3.9211949354862906E7;0.3783203125; - ;0.0;0.0
78125.0;50000;40;7;0;0;TWO;VOUT_IIN;FIRST_HARMONIC;PORT_EXT3;PORT_EXT3;false;Quadrants,0,IN_PHASE;514.0;-3877.0;2.463956598510742E-8;-1.858513566619873E-7;5333971.742411426;-1.4389882510971332;4.058513046067522E7;0.37861328125000004; - ;0.0;0.0
78125.0;50000;40;7;0;0;TWO;VOUT_IIN;FIRST_HARMONIC;PORT_EXT3;PORT_EXT3;false;Quadrants,0,IN_PHASE;452.0;-3885.0;2.1667478259277362E-8;-1.8623485185241702E-7;5333587.481097343;-1.4549721414103554;4.615211738227222E7;0.37939453125000006; - ;0.0;0.0
78125.0;50000;40;7;0;0;TWO;VOUT_IIN;FIRST_HARMONIC;PORT_EXT3;PORT_EXT3;false;Quadrants,0,IN_PHASE;513.0;-3884.0;2.4591629086303704E-8;-1.8618691495361328E-7;5324702.249519015;-1.4394761132430716;4.066424377541337E7;0.379296875; - ;0.0;0.0
78125.0;50000;40;7;0;0;TWO;VOUT_IIN;FIRST_HARMONIC;PORT_EXT3;PORT_EXT3;false;Quadrants,0,IN_PHASE;511.0;-3875.0;2.4495755288696305E-8;-1.857554828643799E-7;5337214.244084736;-1.4396818909102922;4.082339932835038E7;0.37841796875; - ;0.0;0.0
78125.0;50000;40;7;0;0;TWO;VOUT_IIN;FIRST_HARMONIC;PORT_EXT3;PORT_EXT3;false;Quadrants,0,IN_PHASE;446.0;-3886.0;2.137985686645509E-8;-1.8628278875122074E-7;5333172.1050511515;-1.4565253438252976;4.677299788517275E7;0.3794921875000001; - ;0.0;0.0
78125.0;50000;40;7;0;0;TWO;VOUT_IIN;FIRST_HARMONIC;PORT_EXT3;PORT_EXT3;false;Quadrants,0,IN_PHASE;527.0;-3882.0;2.526274566955568E-8;-1.8609104115600588E-7;5324870.859294185;-1.4358664169573017;3.958397923489003E7;0.37910156250000004; - ;0.0;0.0
78125.0;50000;40;7;0;0;TWO;VOUT_IIN;FIRST_HARMONIC;PORT_EXT3;PORT_EXT3;false;Quadrants,0,IN_PHASE;526.0;-3875.0;2.5214808770751945E-8;-1.8575548286437988E-7;5334499.103637781;-1.4358790149079996;3.9659233948264375E7;0.37841796875; - ;0.0;0.0
78125.0;50000;40;7;0;0;TWO;VOUT_IIN;FIRST_HARMONIC;PORT_EXT3;PORT_EXT3;false;Quadrants,0,IN_PHASE;460.0;-3885.0;2.2050973449707028E-8;-1.86234851852417E-7;5332316.035881631;-1.452940923664479;4.534947186258056E7;0.37939453125000006; - ;0.0;0.0
78125.0;50000;40;7;0;0;TWO;VOUT_IIN;FIRST_HARMONIC;PORT_EXT3;PORT_EXT3;false;Quadrants,0,IN_PHASE;534.0;-3884.0;2.5598303961181654E-8;-1.861869149536133E-7;5320892.507729129;-1.4341657987820364;3.906508812132404E7;0.37929687500000014; - ;0.0;0.0
78125.0;50000;40;7;0;0;TWO;VOUT_IIN;FIRST_HARMONIC;PORT_EXT3;PORT_EXT3;false;Quadrants,0,IN_PHASE;516.0;-3879.0;2.473543978271484E-8;-1.859472304595947E-7;5330910.419137176;-1.438548761255161;4.042782375346328E7;0.37880859375; - ;0.0;0.0
78125.0;50000;40;7;0;0;TWO;VOUT_IIN;FIRST_HARMONIC;PORT_EXT3;PORT_EXT3;false;Quadrants,0,IN_PHASE;444.0;-3891.0;2.1283983068847657E-8;-1.8652247324523926E-7;5326716.899854654;-1.4571782818561443;4.698368706483571E7;0.3799804687500001; - ;0.0;0.0
78125.0;50000;40;7;0;0;TWO;VOUT_IIN;FIRST_HARMONIC;PORT_EXT3;PORT_EXT3;false;Quadrants,0,IN_PHASE;452.0;-3884.0;2.1667478259277372E-8;-1.861869149536133E-7;5334942.354515999;-1.4549425866489218;4.615211738227219E7;0.37929687500000003; - ;0.0;0.0
78125.0;50000;40;7;0;0;TWO;VOUT_IIN;FIRST_HARMONIC;PORT_EXT3;PORT_EXT3;false;Quadrants,0,IN_PHASE;507.0;-3893.0;2.4304007693481438E-8;-1.8661834704284668E-7;5313657.388160043;-1.4412914615011145;4.114547742956028E7;0.38017578125; - ;0.0;0.0
78125.0;50000;40;7;0;0;TWO;VOUT_IIN;FIRST_HARMONIC;PORT_EXT3;PORT_EXT3;false;Quadrants,0,IN_PHASE;530.0;-3881.0;2.5406556365966813E-8;-1.860431042572022E-7;5325667.635691155;-1.435073147604692;3.93599189750699E7;0.3790039062500001; - ;0.0;0.0
78125.0;50000;40;7;0;0;TWO;VOUT_IIN;FIRST_HARMONIC;PORT_EXT3;PORT_EXT3;false;Quadrants,0,IN_PHASE;449.0;-3885.0;2.15236675628662E-8;-1.8623485185241702E-7;5334058.753214636;-1.4557340965572059;4.6460483422688365E7;0.37939453125; - ;0.0;0.0
78125.0;50000;40;7;0;0;TWO;VOUT_IIN;FIRST_HARMONIC;PORT_EXT3;PORT_EXT3;false;Quadrants,0,IN_PHASE;515.0;-3886.0;2.468750288391113E-8;-1.8628278875122074E-7;5321652.693663343;-1.4390371072117274;4.050632438211079E7;0.3794921875000001; - ;0.0;0.0
78125.0;50000;40;7;0;0;TWO;VOUT_IIN;FIRST_HARMONIC;PORT_EXT3;PORT_EXT3;false;Quadrants,0,IN_PHASE;534.0;-3878.0;2.5598303961181628E-8;-1.8589929356079102E-7;5328971.85928446;-1.4339570325310789;3.90650881213241E7;0.3787109375; - ;0.0;0.0
78125.0;50000;40;7;0;0;TWO;VOUT_IIN;FIRST_HARMONIC;PORT_EXT3;PORT_EXT3;false;Quadrants,0,IN_PHASE;481.0;-3879.0;2.3057648324584962E-8;-1.8594723045959476E-7;5336994.854177918;-1.4474250529348476;4.3369557290617585E7;0.37880859375000003; - ;0.0;0.0
