frequencies;rsense;ingain;outgain;dcbiasP;dcbiasN;contacts;modevi;harmonic;inport;outport;SequentialMode;phaseShift;VadcI;VadcQ;Conductance;Susceptance;Zmod;ZPha;Rp;Cp;Lp;Current[mA];Voltage[mV]
78125.0;50000;40;7;0;0;TWO;VOUT_IIN;FIRST_HARMONIC;PORT_EXT3;PORT_EXT3;false;Quadrants,0,IN_PHASE;458.0;-3924.0;2.1955099652099632E-8;-1.8810439090576173E-7;5280351.543844081;-1.454604416231166;4.5547504490801394E7;0.383203125; - ;0.0;0.0
78125.0;50000;40;7;0;0;TWO;VOUT_IIN;FIRST_HARMONIC;PORT_EXT3;PORT_EXT3;false;Quadrants,0,IN_PHASE;441.0;-3930.0;2.1140172372436534E-8;-1.88392012298584E-7;5274973.538868695;-1.4590500552012529;4.7303303983644105E7;0.38378906249999994; - ;0.0;0.0
78125.0;50000;40;7;0;0;TWO;VOUT_IIN;FIRST_HARMONIC;PORT_EXT3;PORT_EXT3;false;Quadrants,0,IN_PHASE;467.0;-3924.0;2.2386531741333016E-8;-1.8810439090576173E-7;5278943.847667181;-1.4523422650419593;4.46697153250258E7;0.38320312500000003; - ;0.0;0.0
78125.0;50000;40;7;0;0;TWO;VOUT_IIN;FIRST_HARMONIC;PORT_EXT3;PORT_EXT3;false;Quadrants,0,IN_PHASE;437.0;-3929.0;2.0948424777221656E-8;-1.8834407539978024E-7;5276892.235406031;-1.4600273675355395;4.773628617113749E7;0.3836914062499999; - ;0.0;0.0
78125.0;50000;40;7;0;0;TWO;VOUT_IIN;FIRST_HARMONIC;PORT_EXT3;PORT_EXT3;false;Quadrants,0,IN_PHASE;439.0;-3925.0;2.1044298574829088E-8;-1.8815232780456544E-7;5281907.4908803655;-1.4594121177164163;4.7518808785391964E7;0.38330078125; - ;0.0;0.0
78125.0;50000;40;7;0;0;TWO;VOUT_IIN;FIRST_HARMONIC;PORT_EXT3;PORT_EXT3;false;Quadrants,0,IN_PHASE;435.0;-3923.0;2.0852550979614267E-8;-1.8805645400695804E-7;5285159.887261301;-1.460362931928046;4.795576334893573E7;0.3831054687500001; - ;0.0;0.0
78125.0;50000;40;7;0;0;TWO;VOUT_IIN;FIRST_HARMONIC;PORT_EXT3;PORT_EXT3;false;Quadrants,0,IN_PHASE;439.0;-3927.0;2.1044298574829108E-8;-1.8824820160217287E-7;5279250.65482689;-1.4594683774224377;4.751880878539192E7;0.38349609375000004; - ;0.0;0.0
78125.0;50000;40;7;0;0;TWO;VOUT_IIN;FIRST_HARMONIC;PORT_EXT3;PORT_EXT3;false;Quadrants,0,IN_PHASE;465.0;-3921.0;2.2290657943725597E-8;-1.879605802093506E-7;5283242.15826949;-1.4527554505791391;4.486184313287536E7;0.3829101562500001; - ;0.0;0.0
78125.0;50000;40;7;0;0;TWO;VOUT_IIN;FIRST_HARMONIC;PORT_EXT3;PORT_EXT3;false;Quadrants,0,IN_PHASE;439.0;-3921.0;2.1044298574829105E-8;-1.879605802093506E-7;5287229.143215998;-1.459299428254526;4.751880878539192E7;0.3829101562500001; - ;0.0;0.0
78125.0;50000;40;7;0;0;TWO;VOUT_IIN;FIRST_HARMONIC;PORT_EXT3;PORT_EXT3;false;Quadrants,0,IN_PHASE;435.0;-3926.0;2.085255097961425E-8;-1.8820026470336915E-7;5281170.30081096;-1.460446634477084;4.795576334893577E7;0.3833984375000001; - ;0.0;0.0
78125.0;50000;40;7;0;0;TWO;VOUT_IIN;FIRST_HARMONIC;PORT_EXT3;PORT_EXT3;false;Quadrants,0,IN_PHASE;433.0;-3924.0;2.0756677182006848E-8;-1.8810439090576173E-7;5284123.62709266;-1.4608943713589562;4.817726802953127E7;0.38320312500000003; - ;0.0;0.0
78125.0;50000;40;7;0;0;TWO;VOUT_IIN;FIRST_HARMONIC;PORT_EXT3;PORT_EXT3;false;Quadrants,0,IN_PHASE;438.0;-3923.0;2.0996361676025403E-8;-1.8805645400695804E-7;5284715.701114098;-1.4596075627979321;4.7627299216408774E7;0.3831054687500001; - ;0.0;0.0
78125.0;50000;40;7;0;0;TWO;VOUT_IIN;FIRST_HARMONIC;PORT_EXT3;PORT_EXT3;false;Quadrants,0,IN_PHASE;460.0;-3923.0;2.2050973449707038E-8;-1.88056454006958E-7;5281368.6600665245;-1.4540721350185304;4.534947186258055E7;0.38310546875; - ;0.0;0.0
78125.0;50000;40;7;0;0;TWO;VOUT_IIN;FIRST_HARMONIC;PORT_EXT3;PORT_EXT3;false;Quadrants,0,IN_PHASE;433.0;-3924.0;2.0756677182006848E-8;-1.8810439090576173E-7;5284123.62709266;-1.4608943713589562;4.817726802953127E7;0.38320312500000003; - ;0.0;0.0
78125.0;50000;40;7;0;0;TWO;VOUT_IIN;FIRST_HARMONIC;PORT_EXT3;PORT_EXT3;false;Quadrants,0,IN_PHASE;443.0;-3927.0;2.123604617004394E-8;-1.8824820160217287E-7;5278654.331623517;-1.4584624738717664;4.708974504918072E7;0.3834960937500001; - ;0.0;0.0
78125.0;50000;40;7;0;0;TWO;VOUT_IIN;FIRST_HARMONIC;PORT_EXT3;PORT_EXT3;false;Quadrants,0,IN_PHASE;467.0;-3918.0;2.2386531741333023E-8;-1.8781676951293947E-7;5286914.830491927;-1.4521625612012137;4.466971532502579E7;0.3826171875; - ;0.0;0.0
78125.0;50000;40;7;0;0;TWO;VOUT_IIN;FIRST_HARMONIC;PORT_EXT3;PORT_EXT3;false;Quadrants,0,IN_PHASE;441.0;-3924.0;2.1140172372436534E-8;-1.8810439090576173E-7;5282938.720529792;-1.4588806114452344;4.730330398364408E7;0.38320312500000003; - ;0.0;0.0
78125.0;50000;40;7;0;0;TWO;VOUT_IIN;FIRST_HARMONIC;PORT_EXT3;PORT_EXT3;false;Quadrants,0,IN_PHASE;438.0;-3925.0;2.0996361676025384E-8;-1.8815232780456544E-7;5282055.981887371;-1.4596637540364146;4.762729921640883E7;0.38330078125; - ;0.0;0.0
78125.0;50000;40;7;0;0;TWO;VOUT_IIN;FIRST_HARMONIC;PORT_EXT3;PORT_EXT3;false;Quadrants,0,IN_PHASE;435.0;-3925.0;2.0852550979614244E-8;-1.8815232780456544E-7;5282499.497658829;-1.4604187476718773;4.7955763348935805E7;0.38330078125; - ;0.0;0.0
78125.0;50000;40;7;0;0;TWO;VOUT_IIN;FIRST_HARMONIC;PORT_EXT3;PORT_EXT3;false;Quadrants,0,IN_PHASE;465.0;-3919.0;2.229065794372557E-8;-1.8786470641174318E-7;5285900.955549749;-1.4526957687181834;4.4861843132875435E7;0.3827148437499999; - ;0.0;0.0
78125.0;50000;40;7;0;0;TWO;VOUT_IIN;FIRST_HARMONIC;PORT_EXT3;PORT_EXT3;false;Quadrants,0,IN_PHASE;452.0;-3926.0;2.166747825927733E-8;-1.8820026470336915E-7;5278620.194517512;-1.4561710942553698;4.615211738227228E7;0.3833984375; - ;0.0;0.0
78125.0;50000;40;7;0;0;TWO;VOUT_IIN;FIRST_HARMONIC;PORT_EXT3;PORT_EXT3;false;Quadrants,0,IN_PHASE;466.0;-3925.0;2.2338594842529315E-8;-1.8815232780456547E-7;5277775.258762356;-1.4526233911935504;4.476557308323399E7;0.38330078125; - ;0.0;0.0
78125.0;50000;40;7;0;0;TWO;VOUT_IIN;FIRST_HARMONIC;PORT_EXT3;PORT_EXT3;false;Quadrants,0,IN_PHASE;459.0;-3925.0;2.2003036550903314E-8;-1.8815232780456544E-7;5278869.309211266;-1.45438240641437;4.544827245487376E7;0.38330078125000006; - ;0.0;0.0
78125.0;50000;40;7;0;0;TWO;VOUT_IIN;FIRST_HARMONIC;PORT_EXT3;PORT_EXT3;false;Quadrants,0,IN_PHASE;465.0;-3925.0;2.2290657943725594E-8;-1.8815232780456544E-7;5277932.523604875;-1.452874634361891;4.486184313287538E7;0.38330078124999994; - ;0.0;0.0
78125.0;50000;40;7;0;0;TWO;VOUT_IIN;FIRST_HARMONIC;PORT_EXT3;PORT_EXT3;false;Quadrants,0,IN_PHASE;435.0;-3925.0;2.0852550979614244E-8;-1.8815232780456544E-7;5282499.497658829;-1.4604187476718773;4.7955763348935805E7;0.38330078125; - ;0.0;0.0
78125.0;50000;40;7;0;0;TWO;VOUT_IIN;FIRST_HARMONIC;PORT_EXT3;PORT_EXT3;false;Quadrants,0,IN_PHASE;435.0;-3928.0;2.085255097961424E-8;-1.8829613850097658E-7;5278513.900543134;-1.4605023660068446;4.7955763348935805E7;0.38359375; - ;0.0;0.0
78125.0;50000;40;7;0;0;TWO;VOUT_IIN;FIRST_HARMONIC;PORT_EXT3;PORT_EXT3;false;Quadrants,0,IN_PHASE;436.0;-3921.0;2.090048787841796E-8;-1.879605802093506E-7;5287674.982680966;-1.4600551308136407;4.784577306602537E7;0.3829101562500001; - ;0.0;0.0
78125.0;50000;40;7;0;0;TWO;VOUT_IIN;FIRST_HARMONIC;PORT_EXT3;PORT_EXT3;false;Quadrants,0,IN_PHASE;438.0;-3930.0;2.0996361676025374E-8;-1.8839201229858399E-7;5275418.309174363;-1.4598039849901148;4.7627299216408856E7;0.3837890625; - ;0.0;0.0
78125.0;50000;40;7;0;0;TWO;VOUT_IIN;FIRST_HARMONIC;PORT_EXT3;PORT_EXT3;false;Quadrants,0,IN_PHASE;456.0;-3920.0;2.1859225854492177E-8;-1.8791264331054692E-7;5285977.319583765;-1.4549902816332398;4.574727424734006E7;0.3828125000000001; - ;0.0;0.0
78125.0;50000;40;7;0;0;TWO;VOUT_IIN;FIRST_HARMONIC;PORT_EXT3;PORT_EXT3;false;Quadrants,0,IN_PHASE;463.0;-3925.0;2.2194784146118178E-8;-1.8815232780456544E-7;5278246.0817211745;-1.4533771655405407;4.505563079219665E7;0.38330078125000006; - ;0.0;0.0
78125.0;50000;40;7;0;0;TWO;VOUT_IIN;FIRST_HARMONIC;PORT_EXT3;PORT_EXT3;false;Quadrants,0,IN_PHASE;463.0;-3927.0;2.2194784146118165E-8;-1.8824820160217287E-7;5275594.764209083;-1.4534364187554383;4.5055630792196676E7;0.38349609375000004; - ;0.0;0.0
78125.0;50000;40;7;0;0;TWO;VOUT_IIN;FIRST_HARMONIC;PORT_EXT3;PORT_EXT3;false;Quadrants,0,IN_PHASE;462.0;-3923.0;2.2146847247314467E-8;-1.8805645400695804E-7;5281056.575892184;-1.4535692652870773;4.515315380256935E7;0.38310546875; - ;0.0;0.0
78125.0;50000;40;7;0;0;TWO;VOUT_IIN;FIRST_HARMONIC;PORT_EXT3;PORT_EXT3;false;Quadrants,0,IN_PHASE;441.0;-3925.0;2.1140172372436524E-8;-1.8815232780456544E-7;5281609.530744829;-1.458908887598216;4.730330398364413E7;0.38330078124999994; - ;0.0;0.0
78125.0;50000;40;7;0;0;TWO;VOUT_IIN;FIRST_HARMONIC;PORT_EXT3;PORT_EXT3;false;Quadrants,0,IN_PHASE;439.0;-3923.0;2.1044298574829095E-8;-1.88056454006958E-7;5284566.985687566;-1.4593558013555339;4.751880878539194E7;0.38310546875; - ;0.0;0.0
78125.0;50000;40;7;0;0;TWO;VOUT_IIN;FIRST_HARMONIC;PORT_EXT3;PORT_EXT3;false;Quadrants,0,IN_PHASE;446.0;-3921.0;2.1379856866455063E-8;-1.879605802093506E-7;5286177.409048904;-1.4575366209410183;4.6772997885172814E7;0.38291015625; - ;0.0;0.0
78125.0;50000;40;7;0;0;TWO;VOUT_IIN;FIRST_HARMONIC;PORT_EXT3;PORT_EXT3;false;Quadrants,0,IN_PHASE;464.0;-3919.0;2.224272104492188E-8;-1.8786470641174318E-7;5286058.60849208;-1.4529474008707044;4.495852813962726E7;0.38271484375000003; - ;0.0;0.0
78125.0;50000;40;7;0;0;TWO;VOUT_IIN;FIRST_HARMONIC;PORT_EXT3;PORT_EXT3;false;Quadrants,0,IN_PHASE;455.0;-3924.0;2.181128895568848E-8;-1.8810439090576175E-7;5280814.934831652;-1.4553587333239912;4.5847817707224295E7;0.38320312500000003; - ;0.0;0.0
78125.0;50000;40;7;0;0;TWO;VOUT_IIN;FIRST_HARMONIC;PORT_EXT3;PORT_EXT3;false;Quadrants,0,IN_PHASE;453.0;-3925.0;2.1715415158081067E-8;-1.8815232780456544E-7;5279794.418080655;-1.4558907103634904;4.605023632844823E7;0.38330078124999994; - ;0.0;0.0
78125.0;50000;40;7;0;0;TWO;VOUT_IIN;FIRST_HARMONIC;PORT_EXT3;PORT_EXT3;false;Quadrants,0,IN_PHASE;437.0;-3921.0;2.0948424777221676E-8;-1.8796058020935058E-7;5287526.6966961445;-1.4598032158054965;4.7736286171137445E7;0.38291015625; - ;0.0;0.0
78125.0;50000;40;7;0;0;TWO;VOUT_IIN;FIRST_HARMONIC;PORT_EXT3;PORT_EXT3;false;Quadrants,0,IN_PHASE;436.0;-3919.0;2.0900487878417948E-8;-1.8786470641174318E-7;5290340.481427389;-1.459999077056089;4.7845773066025406E7;0.38271484375000003; - ;0.0;0.0
78125.0;50000;40;7;0;0;TWO;VOUT_IIN;FIRST_HARMONIC;PORT_EXT3;PORT_EXT3;false;Quadrants,0,IN_PHASE;456.0;-3920.0;2.1859225854492177E-8;-1.8791264331054692E-7;5285977.319583765;-1.4549902816332398;4.574727424734006E7;0.3828125000000001; - ;0.0;0.0
78125.0;50000;40;7;0;0;TWO;VOUT_IIN;FIRST_HARMONIC;PORT_EXT3;PORT_EXT3;false;Quadrants,0,IN_PHASE;452.0;-3923.0;2.1667478259277333E-8;-1.88056454006958E-7;5282604.00007172;-1.4560842046089;4.6152117382272266E7;0.38310546875; - ;0.0;0.0
78125.0;50000;40;7;0;0;TWO;VOUT_IIN;FIRST_HARMONIC;PORT_EXT3;PORT_EXT3;false;Quadrants,0,IN_PHASE;442.0;-3924.0;2.1188109271240218E-8;-1.8810439090576173E-7;5282789.138696641;-1.4586289551945226;4.719628293390739E7;0.3832031250000001; - ;0.0;0.0
78125.0;50000;40;7;0;0;TWO;VOUT_IIN;FIRST_HARMONIC;PORT_EXT3;PORT_EXT3;false;Quadrants,0,IN_PHASE;436.0;-3927.0;2.0900487878417955E-8;-1.882482016021729E-7;5279694.47883637;-1.4602229536881066;4.7845773066025406E7;0.38349609375000004; - ;0.0;0.0
78125.0;50000;40;7;0;0;TWO;VOUT_IIN;FIRST_HARMONIC;PORT_EXT3;PORT_EXT3;false;Quadrants,0,IN_PHASE;439.0;-3927.0;2.1044298574829108E-8;-1.8824820160217287E-7;5279250.65482689;-1.4594683774224377;4.751880878539192E7;0.38349609375000004; - ;0.0;0.0
78125.0;50000;40;7;0;0;TWO;VOUT_IIN;FIRST_HARMONIC;PORT_EXT3;PORT_EXT3;false;Quadrants,0,IN_PHASE;438.0;-3919.0;2.0996361676025407E-8;-1.8786470641174315E-7;5290043.133060858;-1.4594950103839621;4.762729921640877E7;0.38271484375000003; - ;0.0;0.0
78125.0;50000;40;7;0;0;TWO;VOUT_IIN;FIRST_HARMONIC;PORT_EXT3;PORT_EXT3;false;Quadrants,0,IN_PHASE;459.0;-3928.0;2.2003036550903337E-8;-1.8829613850097656E-7;5274891.917098128;-1.4544705170401362;4.544827245487373E7;0.3835937499999999; - ;0.0;0.0
78125.0;50000;40;7;0;0;TWO;VOUT_IIN;FIRST_HARMONIC;PORT_EXT3;PORT_EXT3;false;Quadrants,0,IN_PHASE;466.0;-3921.0;2.2338594842529285E-8;-1.879605802093506E-7;5283084.418335141;-1.4525039582264803;4.476557308323406E7;0.3829101562500001; - ;0.0;0.0
78125.0;50000;40;7;0;0;TWO;VOUT_IIN;FIRST_HARMONIC;PORT_EXT3;PORT_EXT3;false;Quadrants,0,IN_PHASE;458.0;-3922.0;2.1955099652099623E-8;-1.8800851710815432E-7;5283008.010192154;-1.4545456971231896;4.55475044908014E7;0.38300781250000004; - ;0.0;0.0
78125.0;50000;40;7;0;0;TWO;VOUT_IIN;FIRST_HARMONIC;PORT_EXT3;PORT_EXT3;false;Quadrants,0,IN_PHASE;439.0;-3930.0;2.1044298574829098E-8;-1.8839201229858399E-7;5275270.377250249;-1.4595526609397036;4.751880878539195E7;0.38378906249999994; - ;0.0;0.0
78125.0;50000;40;7;0;0;TWO;VOUT_IIN;FIRST_HARMONIC;PORT_EXT3;PORT_EXT3;false;Quadrants,0,IN_PHASE;434.0;-3921.0;2.0804614080810556E-8;-1.879605802093506E-7;5287970.572720138;-1.460559003141322;4.806626049950933E7;0.3829101562500001; - ;0.0;0.0
78125.0;50000;40;7;0;0;TWO;VOUT_IIN;FIRST_HARMONIC;PORT_EXT3;PORT_EXT3;false;Quadrants,0,IN_PHASE;432.0;-3923.0;2.0708740283203114E-8;-1.88056454006958E-7;5285601.131452255;-1.4611184276168832;4.82887894833034E7;0.38310546875; - ;0.0;0.0
78125.0;50000;40;7;0;0;TWO;VOUT_IIN;FIRST_HARMONIC;PORT_EXT3;PORT_EXT3;false;Quadrants,0,IN_PHASE;439.0;-3915.0;2.1044298574829108E-8;-1.8767295881652832E-7;5295231.631921557;-1.4591299676555447;4.751880878539193E7;0.38232421875; - ;0.0;0.0
78125.0;50000;40;7;0;0;TWO;VOUT_IIN;FIRST_HARMONIC;PORT_EXT3;PORT_EXT3;false;Quadrants,0,IN_PHASE;435.0;-3927.0;2.085255097961426E-8;-1.8824820160217284E-7;5279841.768604154;-1.460474507251892;4.795576334893577E7;0.38349609375; - ;0.0;0.0
78125.0;50000;40;7;0;0;TWO;VOUT_IIN;FIRST_HARMONIC;PORT_EXT3;PORT_EXT3;false;Quadrants,0,IN_PHASE;462.0;-3920.0;2.214684724731447E-8;-1.879126433105469E-7;5285042.851407155;-1.4534803712902602;4.515315380256936E7;0.38281249999999994; - ;0.0;0.0
78125.0;50000;40;7;0;0;TWO;VOUT_IIN;FIRST_HARMONIC;PORT_EXT3;PORT_EXT3;false;Quadrants,0,IN_PHASE;459.0;-3928.0;2.2003036550903337E-8;-1.8829613850097656E-7;5274891.917098128;-1.4544705170401362;4.544827245487373E7;0.3835937499999999; - ;0.0;0.0
78125.0;50000;40;7;0;0;TWO;VOUT_IIN;FIRST_HARMONIC;PORT_EXT3;PORT_EXT3;false;Quadrants,0,IN_PHASE;467.0;-3917.0;2.2386531741333013E-8;-1.8776883261413575E-7;5288245.651885678;-1.4521325577864872;4.466971532502581E7;0.38251953125000004; - ;0.0;0.0
78125.0;50000;40;7;0;0;TWO;VOUT_IIN;FIRST_HARMONIC;PORT_EXT3;PORT_EXT3;false;Quadrants,0,IN_PHASE;456.0;-3925.0;2.1859225854492204E-8;-1.8815232780456547E-7;5279333.32441641;-1.4551364923130676;4.574727424734001E7;0.38330078125; - ;0.0;0.0
78125.0;50000;40;7;0;0;TWO;VOUT_IIN;FIRST_HARMONIC;PORT_EXT3;PORT_EXT3;false;Quadrants,0,IN_PHASE;444.0;-3927.0;2.1283983068847657E-8;-1.8824820160217284E-7;5278504.437479914;-1.4582110335697434;4.6983687064835705E7;0.38349609375; - ;0.0;0.0
78125.0;50000;40;7;0;0;TWO;VOUT_IIN;FIRST_HARMONIC;PORT_EXT3;PORT_EXT3;false;Quadrants,0,IN_PHASE;435.0;-3921.0;2.085255097961426E-8;-1.8796058020935058E-7;5287822.941383571;-1.4603070599358476;4.795576334893575E7;0.3829101562500001; - ;0.0;0.0
78125.0;50000;40;7;0;0;TWO;VOUT_IIN;FIRST_HARMONIC;PORT_EXT3;PORT_EXT3;false;Quadrants,0,IN_PHASE;437.0;-3926.0;2.094842477722168E-8;-1.8820026470336915E-7;5280875.172776498;-1.4599434163780207;4.773628617113743E7;0.3833984375; - ;0.0;0.0
78125.0;50000;40;7;0;0;TWO;VOUT_IIN;FIRST_HARMONIC;PORT_EXT3;PORT_EXT3;false;Quadrants,0,IN_PHASE;434.0;-3920.0;2.080461408081055E-8;-1.8791264331054687E-7;5289303.211859808;-1.4605311087369468;4.8066260499509335E7;0.38281250000000006; - ;0.0;0.0
78125.0;50000;40;7;0;0;TWO;VOUT_IIN;FIRST_HARMONIC;PORT_EXT3;PORT_EXT3;false;Quadrants,0,IN_PHASE;440.0;-3923.0;2.1092235473632836E-8;-1.88056454006958E-7;5284417.943712372;-1.4591040540981624;4.741081149269781E7;0.38310546875; - ;0.0;0.0
78125.0;50000;40;7;0;0;TWO;VOUT_IIN;FIRST_HARMONIC;PORT_EXT3;PORT_EXT3;false;Quadrants,0,IN_PHASE;461.0;-3920.0;2.209891034851073E-8;-1.8791264331054687E-7;5285199.409820322;-1.4537319858868647;4.525109990626262E7;0.3828125; - ;0.0;0.0
78125.0;50000;40;7;0;0;TWO;VOUT_IIN;FIRST_HARMONIC;PORT_EXT3;PORT_EXT3;false;Quadrants,0,IN_PHASE;455.0;-3922.0;2.1811288955688473E-8;-1.8800851710815435E-7;5283472.1009684615;-1.4553003885948017;4.584781770722432E7;0.38300781250000004; - ;0.0;0.0
78125.0;50000;40;7;0;0;TWO;VOUT_IIN;FIRST_HARMONIC;PORT_EXT3;PORT_EXT3;false;Quadrants,0,IN_PHASE;447.0;-3923.0;2.1427793765258797E-8;-1.8805645400695804E-7;5283365.513626405;-1.4573422230554662;4.6668360306011304E7;0.38310546875; - ;0.0;0.0
78125.0;50000;40;7;0;0;TWO;VOUT_IIN;FIRST_HARMONIC;PORT_EXT3;PORT_EXT3;false;Quadrants,0,IN_PHASE;439.0;-3920.0;2.1044298574829088E-8;-1.8791264331054692E-7;5288561.221742667;-1.4592712203997833;4.7518808785391964E7;0.38281250000000006; - ;0.0;0.0
78125.0;50000;40;7;0;0;TWO;VOUT_IIN;FIRST_HARMONIC;PORT_EXT3;PORT_EXT3;false;Quadrants,0,IN_PHASE;448.0;-3913.0;2.147573066406252E-8;-1.8757708501892092E-7;5296541.088285672;-1.4568025134887497;4.656418985889963E7;0.38212890625; - ;0.0;0.0
78125.0;50000;40;7;0;0;TWO;VOUT_IIN;FIRST_HARMONIC;PORT_EXT3;PORT_EXT3;false;Quadrants,0,IN_PHASE;453.0;-3922.0;2.1715415158081044E-8;-1.880085171081543E-7;5283779.8678748505;-1.4558035897239339;4.605023632844827E7;0.3830078125; - ;0.0;0.0
78125.0;50000;40;7;0;0;TWO;VOUT_IIN;FIRST_HARMONIC;PORT_EXT3;PORT_EXT3;false;Quadrants,0,IN_PHASE;440.0;-3921.0;2.1092235473632812E-8;-1.879605802093506E-7;5287079.87588918;-1.4590475557732374;4.7410811492697865E7;0.38291015625; - ;0.0;0.0
78125.0;50000;40;7;0;0;TWO;VOUT_IIN;FIRST_HARMONIC;PORT_EXT3;PORT_EXT3;false;Quadrants,0,IN_PHASE;441.0;-3917.0;2.114017237243653E-8;-1.8776883261413575E-7;5292261.695655079;-1.458682279173623;4.7303303983644105E7;0.38251953125000004; - ;0.0;0.0
78125.0;50000;40;7;0;0;TWO;VOUT_IIN;FIRST_HARMONIC;PORT_EXT3;PORT_EXT3;false;Quadrants,0,IN_PHASE;433.0;-3921.0;2.0756677182006825E-8;-1.879605802093506E-7;5288117.87660702;-1.4608109603992578;4.8177268029531345E7;0.38291015625; - ;0.0;0.0
78125.0;50000;40;7;0;0;TWO;VOUT_IIN;FIRST_HARMONIC;PORT_EXT3;PORT_EXT3;false;Quadrants,0,IN_PHASE;458.0;-3917.0;2.1955099652099632E-8;-1.8776883261413578E-7;5289660.804505209;-1.4543986405483098;4.5547504490801394E7;0.38251953125000004; - ;0.0;0.0
78125.0;50000;40;7;0;0;TWO;VOUT_IIN;FIRST_HARMONIC;PORT_EXT3;PORT_EXT3;false;Quadrants,0,IN_PHASE;458.0;-3922.0;2.1955099652099623E-8;-1.8800851710815432E-7;5283008.010192154;-1.4545456971231896;4.55475044908014E7;0.38300781250000004; - ;0.0;0.0
78125.0;50000;40;7;0;0;TWO;VOUT_IIN;FIRST_HARMONIC;PORT_EXT3;PORT_EXT3;false;Quadrants,0,IN_PHASE;460.0;-3924.0;2.205097344970703E-8;-1.8810439090576175E-7;5280040.992976174;-1.4541016118962182;4.534947186258055E7;0.3832031250000001; - ;0.0;0.0
78125.0;50000;40;7;0;0;TWO;VOUT_IIN;FIRST_HARMONIC;PORT_EXT3;PORT_EXT3;false;Quadrants,0,IN_PHASE;444.0;-3922.0;2.128398306884765E-8;-1.880085171081543E-7;5285148.692191138;-1.458068715204519;4.698368706483573E7;0.38300781250000004; - ;0.0;0.0
78125.0;50000;40;7;0;0;TWO;VOUT_IIN;FIRST_HARMONIC;PORT_EXT3;PORT_EXT3;false;Quadrants,0,IN_PHASE;437.0;-3921.0;2.0948424777221676E-8;-1.8796058020935058E-7;5287526.6966961445;-1.4598032158054965;4.7736286171137445E7;0.38291015625; - ;0.0;0.0
78125.0;50000;40;7;0;0;TWO;VOUT_IIN;FIRST_HARMONIC;PORT_EXT3;PORT_EXT3;false;Quadrants,0,IN_PHASE;437.0;-3923.0;2.094842477722167E-8;-1.8805645400695804E-7;5284864.089907841;-1.4598593383946386;4.773628617113746E7;0.38310546875; - ;0.0;0.0
78125.0;50000;40;7;0;0;TWO;VOUT_IIN;FIRST_HARMONIC;PORT_EXT3;PORT_EXT3;false;Quadrants,0,IN_PHASE;432.0;-3923.0;2.0708740283203114E-8;-1.88056454006958E-7;5285601.131452255;-1.4611184276168832;4.82887894833034E7;0.38310546875; - ;0.0;0.0
78125.0;50000;40;7;0;0;TWO;VOUT_IIN;FIRST_HARMONIC;PORT_EXT3;PORT_EXT3;false;Quadrants,0,IN_PHASE;445.0;-3918.0;2.1331919967651378E-8;-1.8781676951293947E-7;5290324.830263291;-1.4577026133970226;4.687810574558887E7;0.3826171875; - ;0.0;0.0
78125.0;50000;40;7;0;0;TWO;VOUT_IIN;FIRST_HARMONIC;PORT_EXT3;PORT_EXT3;false;Quadrants,0,IN_PHASE;456.0;-3918.0;2.1859225854492204E-8;-1.878167695129395E-7;5288639.570670657;-1.4549316942672097;4.574727424734001E7;0.3826171875; - ;0.0;0.0
78125.0;50000;40;7;0;0;TWO;VOUT_IIN;FIRST_HARMONIC;PORT_EXT3;PORT_EXT3;false;Quadrants,0,IN_PHASE;461.0;-3918.0;2.2098910348510756E-8;-1.8781676951293947E-7;5287860.485119517;-1.453672773556075;4.525109990626258E7;0.3826171875; - ;0.0;0.0
78125.0;50000;40;7;0;0;TWO;VOUT_IIN;FIRST_HARMONIC;PORT_EXT3;PORT_EXT3;false;Quadrants,0,IN_PHASE;441.0;-3924.0;2.1140172372436534E-8;-1.8810439090576173E-7;5282938.720529792;-1.4588806114452344;4.730330398364408E7;0.38320312500000003; - ;0.0;0.0
78125.0;50000;40;7;0;0;TWO;VOUT_IIN;FIRST_HARMONIC;PORT_EXT3;PORT_EXT3;false;Quadrants,0,IN_PHASE;435.0;-3924.0;2.0852550979614254E-8;-1.8810439090576175E-7;5283829.3596435245;-1.4603908468257192;4.795576334893579E7;0.383203125; - ;0.0;0.0
78125.0;50000;40;7;0;0;TWO;VOUT_IIN;FIRST_HARMONIC;PORT_EXT3;PORT_EXT3;false;Quadrants,0,IN_PHASE;442.0;-3915.0;2.118810927124022E-8;-1.8767295881652832E-7;5294780.808512148;-1.458373263915761;4.71962829339074E7;0.38232421875; - ;0.0;0.0
78125.0;50000;40;7;0;0;TWO;VOUT_IIN;FIRST_HARMONIC;PORT_EXT3;PORT_EXT3;false;Quadrants,0,IN_PHASE;446.0;-3924.0;2.1379856866455082E-8;-1.8810439090576173E-7;5282187.551658182;-1.457622473162057;4.677299788517278E7;0.383203125; - ;0.0;0.0
78125.0;50000;40;7;0;0;TWO;VOUT_IIN;FIRST_HARMONIC;PORT_EXT3;PORT_EXT3;false;Quadrants,0,IN_PHASE;465.0;-3916.0;2.2290657943725587E-8;-1.8772089571533204E-7;5289894.137520055;-1.4526061332110938;4.486184313287538E7;0.382421875; - ;0.0;0.0
78125.0;50000;40;7;0;0;TWO;VOUT_IIN;FIRST_HARMONIC;PORT_EXT3;PORT_EXT3;false;Quadrants,0,IN_PHASE;435.0;-3918.0;2.0852550979614273E-8;-1.8781676951293947E-7;5291822.527249691;-1.46022314629649;4.795576334893574E7;0.3826171875; - ;0.0;0.0
78125.0;50000;40;7;0;0;TWO;VOUT_IIN;FIRST_HARMONIC;PORT_EXT3;PORT_EXT3;false;Quadrants,0,IN_PHASE;458.0;-3923.0;2.195509965209961E-8;-1.88056454006958E-7;5281679.445271319;-1.4545750640604982;4.554750449080144E7;0.38310546875; - ;0.0;0.0
78125.0;50000;40;7;0;0;TWO;VOUT_IIN;FIRST_HARMONIC;PORT_EXT3;PORT_EXT3;false;Quadrants,0,IN_PHASE;464.0;-3918.0;2.2242721044921873E-8;-1.878167695129395E-7;5287389.122918697;-1.45291759985288;4.495852813962729E7;0.3826171875; - ;0.0;0.0
78125.0;50000;40;7;0;0;TWO;VOUT_IIN;FIRST_HARMONIC;PORT_EXT3;PORT_EXT3;false;Quadrants,0,IN_PHASE;461.0;-3922.0;2.2098910348510756E-8;-1.880085171081543E-7;5282540.993012311;-1.453791138651119;4.525109990626257E7;0.38300781250000004; - ;0.0;0.0
78125.0;50000;40;7;0;0;TWO;VOUT_IIN;FIRST_HARMONIC;PORT_EXT3;PORT_EXT3;false;Quadrants,0,IN_PHASE;451.0;-3918.0;2.1619541360473645E-8;-1.8781676951293947E-7;5289410.4990417585;-1.4561909840020102;4.625445023677837E7;0.3826171875000001; - ;0.0;0.0
78125.0;50000;40;7;0;0;TWO;VOUT_IIN;FIRST_HARMONIC;PORT_EXT3;PORT_EXT3;false;Quadrants,0,IN_PHASE;437.0;-3922.0;2.094842477722167E-8;-1.8800851710815432E-7;5286195.060100778;-1.4598312841671723;4.7736286171137445E7;0.38300781250000004; - ;0.0;0.0
78125.0;50000;40;7;0;0;TWO;VOUT_IIN;FIRST_HARMONIC;PORT_EXT3;PORT_EXT3;false;Quadrants,0,IN_PHASE;433.0;-3923.0;2.0756677182006854E-8;-1.88056454006958E-7;5285454.377078364;-1.4608665817097926;4.817726802953126E7;0.38310546875; - ;0.0;0.0
78125.0;50000;40;7;0;0;TWO;VOUT_IIN;FIRST_HARMONIC;PORT_EXT3;PORT_EXT3;false;Quadrants,0,IN_PHASE;441.0;-3920.0;2.1140172372436524E-8;-1.8791264331054687E-7;5288262.134211739;-1.4587673643689087;4.730330398364413E7;0.3828125; - ;0.0;0.0
78125.0;50000;40;7;0;0;TWO;VOUT_IIN;FIRST_HARMONIC;PORT_EXT3;PORT_EXT3;false;Quadrants,0,IN_PHASE;452.0;-3918.0;2.1667478259277333E-8;-1.8781676951293947E-7;5289256.966466903;-1.4559390967170636;4.6152117382272266E7;0.3826171875; - ;0.0;0.0
78125.0;50000;40;7;0;0;TWO;VOUT_IIN;FIRST_HARMONIC;PORT_EXT3;PORT_EXT3;false;Quadrants,0,IN_PHASE;435.0;-3917.0;2.0852550979614273E-8;-1.8776883261413575E-7;5293157.0591148175;-1.4601951468672996;4.795576334893573E7;0.3825195312500001; - ;0.0;0.0
78125.0;50000;40;7;0;0;TWO;VOUT_IIN;FIRST_HARMONIC;PORT_EXT3;PORT_EXT3;false;Quadrants,0,IN_PHASE;451.0;-3920.0;2.1619541360473625E-8;-1.879126433105469E-7;5286747.084137284;-1.4562489458487846;4.625445023677843E7;0.3828125; - ;0.0;0.0
78125.0;50000;40;7;0;0;TWO;VOUT_IIN;FIRST_HARMONIC;PORT_EXT3;PORT_EXT3;false;Quadrants,0,IN_PHASE;447.0;-3921.0;2.142779376525878E-8;-1.8796058020935058E-7;5286025.854890025;-1.4572848487649104;4.666836030601133E7;0.38291015625; - ;0.0;0.0
78125.0;50000;40;7;0;0;TWO;VOUT_IIN;FIRST_HARMONIC;PORT_EXT3;PORT_EXT3;false;Quadrants,0,IN_PHASE;447.0;-3923.0;2.1427793765258797E-8;-1.8805645400695804E-7;5283365.513626405;-1.4573422230554662;4.6668360306011304E7;0.38310546875; - ;0.0;0.0
