frequencies;rsense;ingain;outgain;dcbiasP;dcbiasN;contacts;modevi;harmonic;inport;outport;SequentialMode;phaseShift;VadcI;VadcQ;Conductance;Susceptance;Zmod;ZPha;Rp;Cp;Lp;Current[mA];Voltage[mV]
78125.0;50000;40;7;0;0;TWO;VOUT_IIN;FIRST_HARMONIC;PORT_EXT3;PORT_EXT3;false;Quadrants,0,IN_PHASE;435.0;-3849.0;2.085255133532045E-8;1.8450912664286977E-7;5385501.533651742;-1.4582574793777405;4.79557625308986E7;0.37587890625; - ;1.8585205078125E-5;0.92926025390625
78125.0;50000;40;7;0;0;TWO;VOUT_IIN;FIRST_HARMONIC;PORT_EXT3;PORT_EXT3;false;Quadrants,0,IN_PHASE;434.0;-3851.0;2.080461443569902E-8;1.8460500044211264E-7;5382895.568877479;-1.4585718427774825;4.806625967958731E7;0.37607421875; - ;1.854248046875E-5;0.9271240234375
78125.0;50000;40;7;0;0;TWO;VOUT_IIN;FIRST_HARMONIC;PORT_EXT3;PORT_EXT3;false;Quadrants,0,IN_PHASE;436.0;-3847.0;2.0900488234941858E-8;1.8441325284362693E-7;5388109.489594571;-1.4579428114827924;4.7845772249864474E7;0.37568359375; - ;1.86279296875E-5;0.931396484375
78125.0;50000;40;7;0;0;TWO;VOUT_IIN;FIRST_HARMONIC;PORT_EXT3;PORT_EXT3;false;Quadrants,0,IN_PHASE;436.0;-3849.0;2.0900488234941858E-8;1.8450912664286977E-7;5385345.223351514;-1.4580009556735187;4.7845772249864474E7;0.37587890625; - ;1.86279296875E-5;0.931396484375
78125.0;50000;40;7;0;0;TWO;VOUT_IIN;FIRST_HARMONIC;PORT_EXT3;PORT_EXT3;false;Quadrants,0,IN_PHASE;435.0;-3850.0;2.0852551335320443E-8;1.8455706354249122E-7;5384120.336823707;-1.4582864641607214;4.7955762530898616E7;0.3759765625; - ;1.8585205078125E-5;0.92926025390625
78125.0;50000;40;7;0;0;TWO;VOUT_IIN;FIRST_HARMONIC;PORT_EXT3;PORT_EXT3;false;Quadrants,0,IN_PHASE;436.0;-3847.0;2.0900488234941858E-8;1.8441325284362693E-7;5388109.489594571;-1.4579428114827924;4.7845772249864474E7;0.37568359375; - ;1.86279296875E-5;0.931396484375
78125.0;50000;40;7;0;0;TWO;VOUT_IIN;FIRST_HARMONIC;PORT_EXT3;PORT_EXT3;false;Quadrants,0,IN_PHASE;435.0;-3852.0;2.0852551335320436E-8;1.8465293734173406E-7;5381360.0539107695;-1.4583443891477983;4.795576253089863E7;0.376171875; - ;1.8585205078125E-5;0.92926025390625
78125.0;50000;40;7;0;0;TWO;VOUT_IIN;FIRST_HARMONIC;PORT_EXT3;PORT_EXT3;false;Quadrants,0,IN_PHASE;434.0;-3851.0;2.080461443569902E-8;1.8460500044211264E-7;5382895.568877479;-1.4585718427774825;4.806625967958731E7;0.37607421875; - ;1.854248046875E-5;0.9271240234375
78125.0;50000;40;7;0;0;TWO;VOUT_IIN;FIRST_HARMONIC;PORT_EXT3;PORT_EXT3;false;Quadrants,0,IN_PHASE;431.0;-3849.0;2.066080373683472E-8;1.8450912664286975E-7;5386123.320370139;-1.4592837226179445;4.840082761239191E7;0.3758789062499999; - ;1.8414306640625E-5;0.92071533203125
78125.0;50000;40;7;0;0;TWO;VOUT_IIN;FIRST_HARMONIC;PORT_EXT3;PORT_EXT3;false;Quadrants,0,IN_PHASE;435.0;-3851.0;2.0852551335320426E-8;1.846050004421126E-7;5382739.843754799;-1.4583154340802802;4.795576253089865E7;0.37607421875; - ;1.8585205078125E-5;0.92926025390625
78125.0;50000;40;7;0;0;TWO;VOUT_IIN;FIRST_HARMONIC;PORT_EXT3;PORT_EXT3;false;Quadrants,0,IN_PHASE;434.0;-3852.0;2.0804614435698987E-8;1.8465293734173408E-7;5381515.659306832;-1.4586007329527382;4.8066259679587394E7;0.376171875; - ;1.854248046875E-5;0.9271240234375
78125.0;50000;40;7;0;0;TWO;VOUT_IIN;FIRST_HARMONIC;PORT_EXT3;PORT_EXT3;false;Quadrants,0,IN_PHASE;438.0;-3850.0;2.0996362034184735E-8;1.845570635424912E-7;5383650.731686884;-1.4575171326053127;4.762729840397462E7;0.3759765625; - ;1.871337890625E-5;0.9356689453125
78125.0;50000;40;7;0;0;TWO;VOUT_IIN;FIRST_HARMONIC;PORT_EXT3;PORT_EXT3;false;Quadrants,0,IN_PHASE;434.0;-3851.0;2.080461443569902E-8;1.8460500044211264E-7;5382895.568877479;-1.4585718427774825;4.806625967958731E7;0.37607421875; - ;1.854248046875E-5;0.9271240234375
78125.0;50000;40;7;0;0;TWO;VOUT_IIN;FIRST_HARMONIC;PORT_EXT3;PORT_EXT3;false;Quadrants,0,IN_PHASE;433.0;-3848.0;2.075667753607758E-8;1.8446118974324835E-7;5387195.259142213;-1.4587417017109687;4.817726720771572E7;0.37578124999999996; - ;1.8499755859375E-5;0.92498779296875
78125.0;50000;40;7;0;0;TWO;VOUT_IIN;FIRST_HARMONIC;PORT_EXT3;PORT_EXT3;false;Quadrants,0,IN_PHASE;438.0;-3851.0;2.0996362034184712E-8;1.8460500044211264E-7;5382270.599715367;-1.4575462972305584;4.7627298403974675E7;0.37607421875; - ;1.871337890625E-5;0.9356689453125
78125.0;50000;40;7;0;0;TWO;VOUT_IIN;FIRST_HARMONIC;PORT_EXT3;PORT_EXT3;false;Quadrants,0,IN_PHASE;437.0;-3850.0;2.0948425134563284E-8;1.8455706354249122E-7;5383807.611677651;-1.4577735615396363;4.773628535684419E7;0.3759765625; - ;1.8670654296875E-5;0.93353271484375
78125.0;50000;40;7;0;0;TWO;VOUT_IIN;FIRST_HARMONIC;PORT_EXT3;PORT_EXT3;false;Quadrants,0,IN_PHASE;435.0;-3852.0;2.0852551335320436E-8;1.8465293734173406E-7;5381360.0539107695;-1.4583443891477983;4.795576253089863E7;0.376171875; - ;1.8585205078125E-5;0.92926025390625
78125.0;50000;40;7;0;0;TWO;VOUT_IIN;FIRST_HARMONIC;PORT_EXT3;PORT_EXT3;false;Quadrants,0,IN_PHASE;431.0;-3852.0;2.066080373683475E-8;1.8465293734173406E-7;5381980.407094794;-1.4593698530874741;4.8400827612391844E7;0.37617187499999993; - ;1.8414306640625E-5;0.92071533203125
78125.0;50000;40;7;0;0;TWO;VOUT_IIN;FIRST_HARMONIC;PORT_EXT3;PORT_EXT3;false;Quadrants,0,IN_PHASE;431.0;-3850.0;2.0660803736834734E-8;1.845570635424912E-7;5384741.645208561;-1.4593124475042383;4.840082761239188E7;0.3759765625; - ;1.8414306640625E-5;0.92071533203125
78125.0;50000;40;7;0;0;TWO;VOUT_IIN;FIRST_HARMONIC;PORT_EXT3;PORT_EXT3;false;Quadrants,0,IN_PHASE;435.0;-3843.0;2.085255133532043E-8;1.842215052451412E-7;5393803.523547184;-1.4580832579091703;4.7955762530898646E7;0.3752929687499999; - ;1.8585205078125E-5;0.92926025390625
78125.0;50000;40;7;0;0;TWO;VOUT_IIN;FIRST_HARMONIC;PORT_EXT3;PORT_EXT3;false;Quadrants,0,IN_PHASE;438.0;-3846.0;2.099636203418472E-8;1.8436531594400546E-7;5389178.298815989;-1.457400324382545;4.762729840397466E7;0.37558593749999997; - ;1.871337890625E-5;0.9356689453125
78125.0;50000;40;7;0;0;TWO;VOUT_IIN;FIRST_HARMONIC;PORT_EXT3;PORT_EXT3;false;Quadrants,0,IN_PHASE;431.0;-3849.0;2.066080373683472E-8;1.8450912664286975E-7;5386123.320370139;-1.4592837226179445;4.840082761239191E7;0.3758789062499999; - ;1.8414306640625E-5;0.92071533203125
78125.0;50000;40;7;0;0;TWO;VOUT_IIN;FIRST_HARMONIC;PORT_EXT3;PORT_EXT3;false;Quadrants,0,IN_PHASE;434.0;-3850.0;2.0804614435699014E-8;1.845570635424912E-7;5384276.181795475;-1.4585429377826142;4.806625967958733E7;0.3759765625; - ;1.854248046875E-5;0.9271240234375
78125.0;50000;40;7;0;0;TWO;VOUT_IIN;FIRST_HARMONIC;PORT_EXT3;PORT_EXT3;false;Quadrants,0,IN_PHASE;436.0;-3851.0;2.090048823494188E-8;1.8460500044211264E-7;5382583.773792488;-1.4580590402351163;4.7845772249864414E7;0.37607421875; - ;1.86279296875E-5;0.931396484375
78125.0;50000;40;7;0;0;TWO;VOUT_IIN;FIRST_HARMONIC;PORT_EXT3;PORT_EXT3;false;Quadrants,0,IN_PHASE;434.0;-3849.0;2.0804614435699E-8;1.845091266428698E-7;5385657.498595219;-1.4585140179567757;4.806625967958736E7;0.37587890625; - ;1.854248046875E-5;0.9271240234375
78125.0;50000;40;7;0;0;TWO;VOUT_IIN;FIRST_HARMONIC;PORT_EXT3;PORT_EXT3;false;Quadrants,0,IN_PHASE;438.0;-3851.0;2.0996362034184712E-8;1.8460500044211264E-7;5382270.599715367;-1.4575462972305584;4.7627298403974675E7;0.37607421875; - ;1.871337890625E-5;0.9356689453125
78125.0;50000;40;7;0;0;TWO;VOUT_IIN;FIRST_HARMONIC;PORT_EXT3;PORT_EXT3;false;Quadrants,0,IN_PHASE;435.0;-3851.0;2.0852551335320426E-8;1.846050004421126E-7;5382739.843754799;-1.4583154340802802;4.795576253089865E7;0.37607421875; - ;1.8585205078125E-5;0.92926025390625
78125.0;50000;40;7;0;0;TWO;VOUT_IIN;FIRST_HARMONIC;PORT_EXT3;PORT_EXT3;false;Quadrants,0,IN_PHASE;437.0;-3849.0;2.094842513456329E-8;1.8450912664286977E-7;5385188.567786317;-1.4577444468765741;4.773628535684417E7;0.37587890625; - ;1.8670654296875E-5;0.93353271484375
78125.0;50000;40;7;0;0;TWO;VOUT_IIN;FIRST_HARMONIC;PORT_EXT3;PORT_EXT3;false;Quadrants,0,IN_PHASE;438.0;-3853.0;2.0996362034184732E-8;1.847008742413555E-7;5379512.443806935;-1.4576045816447276;4.762729840397463E7;0.37626953125; - ;1.871337890625E-5;0.9356689453125
78125.0;50000;40;7;0;0;TWO;VOUT_IIN;FIRST_HARMONIC;PORT_EXT3;PORT_EXT3;false;Quadrants,0,IN_PHASE;435.0;-3848.0;2.085255133532043E-8;1.8446118974324835E-7;5386883.434773686;-1.4582284797199447;4.7955762530898646E7;0.37578125; - ;1.8585205078125E-5;0.92926025390625
78125.0;50000;40;7;0;0;TWO;VOUT_IIN;FIRST_HARMONIC;PORT_EXT3;PORT_EXT3;false;Quadrants,0,IN_PHASE;434.0;-3850.0;2.0804614435699014E-8;1.845570635424912E-7;5384276.181795475;-1.4585429377826142;4.806625967958733E7;0.3759765625; - ;1.854248046875E-5;0.9271240234375
78125.0;50000;40;7;0;0;TWO;VOUT_IIN;FIRST_HARMONIC;PORT_EXT3;PORT_EXT3;false;Quadrants,0,IN_PHASE;436.0;-3851.0;2.090048823494188E-8;1.8460500044211264E-7;5382583.773792488;-1.4580590402351163;4.7845772249864414E7;0.37607421875; - ;1.86279296875E-5;0.931396484375
78125.0;50000;40;7;0;0;TWO;VOUT_IIN;FIRST_HARMONIC;PORT_EXT3;PORT_EXT3;false;Quadrants,0,IN_PHASE;436.0;-3850.0;2.090048823494184E-8;1.8455706354249122E-7;5383964.146753877;-1.4580300054022488;4.784577224986451E7;0.37597656250000006; - ;1.86279296875E-5;0.931396484375
78125.0;50000;40;7;0;0;TWO;VOUT_IIN;FIRST_HARMONIC;PORT_EXT3;PORT_EXT3;false;Quadrants,0,IN_PHASE;435.0;-3849.0;2.085255133532045E-8;1.8450912664286977E-7;5385501.533651742;-1.4582574793777405;4.79557625308986E7;0.37587890625; - ;1.8585205078125E-5;0.92926025390625
78125.0;50000;40;7;0;0;TWO;VOUT_IIN;FIRST_HARMONIC;PORT_EXT3;PORT_EXT3;false;Quadrants,0,IN_PHASE;435.0;-3849.0;2.085255133532045E-8;1.8450912664286977E-7;5385501.533651742;-1.4582574793777405;4.79557625308986E7;0.37587890625; - ;1.8585205078125E-5;0.92926025390625
78125.0;50000;40;7;0;0;TWO;VOUT_IIN;FIRST_HARMONIC;PORT_EXT3;PORT_EXT3;false;Quadrants,0,IN_PHASE;433.0;-3851.0;2.0756677536077572E-8;1.846050004421126E-7;5383050.949069169;-1.458828266294296;4.817726720771574E7;0.37607421875; - ;1.8499755859375E-5;0.92498779296875
78125.0;50000;40;7;0;0;TWO;VOUT_IIN;FIRST_HARMONIC;PORT_EXT3;PORT_EXT3;false;Quadrants,0,IN_PHASE;437.0;-3852.0;2.094842513456327E-8;1.8465293734173403E-7;5381047.809465725;-1.4578317460923176;4.773628535684422E7;0.376171875; - ;1.8670654296875E-5;0.93353271484375
78125.0;50000;40;7;0;0;TWO;VOUT_IIN;FIRST_HARMONIC;PORT_EXT3;PORT_EXT3;false;Quadrants,0,IN_PHASE;432.0;-3851.0;2.070874063645614E-8;1.846050004421126E-7;5383205.984238694;-1.4590847045982809;4.828878865958547E7;0.37607421874999997; - ;1.845703125E-5;0.9228515625
78125.0;50000;40;7;0;0;TWO;VOUT_IIN;FIRST_HARMONIC;PORT_EXT3;PORT_EXT3;false;Quadrants,0,IN_PHASE;435.0;-3849.0;2.085255133532045E-8;1.8450912664286977E-7;5385501.533651742;-1.4582574793777405;4.79557625308986E7;0.37587890625; - ;1.8585205078125E-5;0.92926025390625
78125.0;50000;40;7;0;0;TWO;VOUT_IIN;FIRST_HARMONIC;PORT_EXT3;PORT_EXT3;false;Quadrants,0,IN_PHASE;438.0;-3852.0;2.0996362034184732E-8;1.8465293734173403E-7;5380891.170599797;-1.4575754469065494;4.762729840397463E7;0.376171875; - ;1.871337890625E-5;0.9356689453125
78125.0;50000;40;7;0;0;TWO;VOUT_IIN;FIRST_HARMONIC;PORT_EXT3;PORT_EXT3;false;Quadrants,0,IN_PHASE;437.0;-3851.0;2.0948425134563274E-8;1.8460500044211264E-7;5382427.359082098;-1.4578026612744077;4.773628535684421E7;0.37607421875; - ;1.8670654296875E-5;0.93353271484375
78125.0;50000;40;7;0;0;TWO;VOUT_IIN;FIRST_HARMONIC;PORT_EXT3;PORT_EXT3;false;Quadrants,0,IN_PHASE;437.0;-3849.0;2.094842513456329E-8;1.8450912664286977E-7;5385188.567786317;-1.4577444468765741;4.773628535684417E7;0.37587890625; - ;1.8670654296875E-5;0.93353271484375
78125.0;50000;40;7;0;0;TWO;VOUT_IIN;FIRST_HARMONIC;PORT_EXT3;PORT_EXT3;false;Quadrants,0,IN_PHASE;436.0;-3851.0;2.090048823494188E-8;1.8460500044211264E-7;5382583.773792488;-1.4580590402351163;4.7845772249864414E7;0.37607421875; - ;1.86279296875E-5;0.931396484375
78125.0;50000;40;7;0;0;TWO;VOUT_IIN;FIRST_HARMONIC;PORT_EXT3;PORT_EXT3;false;Quadrants,0,IN_PHASE;434.0;-3851.0;2.080461443569902E-8;1.8460500044211264E-7;5382895.568877479;-1.4585718427774825;4.806625967958731E7;0.37607421875; - ;1.854248046875E-5;0.9271240234375
78125.0;50000;40;7;0;0;TWO;VOUT_IIN;FIRST_HARMONIC;PORT_EXT3;PORT_EXT3;false;Quadrants,0,IN_PHASE;431.0;-3853.0;2.0660803736834747E-8;1.847008742413555E-7;5380600.843073407;-1.4593985338069757;4.840082761239185E7;0.37626953125; - ;1.8414306640625E-5;0.92071533203125
78125.0;50000;40;7;0;0;TWO;VOUT_IIN;FIRST_HARMONIC;PORT_EXT3;PORT_EXT3;false;Quadrants,0,IN_PHASE;436.0;-3851.0;2.090048823494188E-8;1.8460500044211264E-7;5382583.773792488;-1.4580590402351163;4.7845772249864414E7;0.37607421875; - ;1.86279296875E-5;0.931396484375
78125.0;50000;40;7;0;0;TWO;VOUT_IIN;FIRST_HARMONIC;PORT_EXT3;PORT_EXT3;false;Quadrants,0,IN_PHASE;435.0;-3850.0;2.0852551335320443E-8;1.8455706354249122E-7;5384120.336823707;-1.4582864641607214;4.7955762530898616E7;0.3759765625; - ;1.8585205078125E-5;0.92926025390625
78125.0;50000;40;7;0;0;TWO;VOUT_IIN;FIRST_HARMONIC;PORT_EXT3;PORT_EXT3;false;Quadrants,0,IN_PHASE;433.0;-3851.0;2.0756677536077572E-8;1.846050004421126E-7;5383050.949069169;-1.458828266294296;4.817726720771574E7;0.37607421875; - ;1.8499755859375E-5;0.92498779296875
78125.0;50000;40;7;0;0;TWO;VOUT_IIN;FIRST_HARMONIC;PORT_EXT3;PORT_EXT3;false;Quadrants,0,IN_PHASE;429.0;-3853.0;2.0564929937591886E-8;1.8470087424135547E-7;5380908.713472555;-1.4599112243510892;4.8626472496365726E7;0.37626953125; - ;1.8328857421875E-5;0.91644287109375
78125.0;50000;40;7;0;0;TWO;VOUT_IIN;FIRST_HARMONIC;PORT_EXT3;PORT_EXT3;false;Quadrants,0,IN_PHASE;435.0;-3851.0;2.0852551335320426E-8;1.846050004421126E-7;5382739.843754799;-1.4583154340802802;4.795576253089865E7;0.37607421875; - ;1.8585205078125E-5;0.92926025390625
78125.0;50000;40;7;0;0;TWO;VOUT_IIN;FIRST_HARMONIC;PORT_EXT3;PORT_EXT3;false;Quadrants,0,IN_PHASE;436.0;-3852.0;2.0900488234941865E-8;1.8465293734173406E-7;5381204.103933255;-1.4580880601835273;4.784577224986446E7;0.376171875; - ;1.86279296875E-5;0.931396484375
78125.0;50000;40;7;0;0;TWO;VOUT_IIN;FIRST_HARMONIC;PORT_EXT3;PORT_EXT3;false;Quadrants,0,IN_PHASE;436.0;-3850.0;2.090048823494184E-8;1.8455706354249122E-7;5383964.146753877;-1.4580300054022488;4.784577224986451E7;0.37597656250000006; - ;1.86279296875E-5;0.931396484375
78125.0;50000;40;7;0;0;TWO;VOUT_IIN;FIRST_HARMONIC;PORT_EXT3;PORT_EXT3;false;Quadrants,0,IN_PHASE;437.0;-3851.0;2.0948425134563274E-8;1.8460500044211264E-7;5382427.359082098;-1.4578026612744077;4.773628535684421E7;0.37607421875; - ;1.8670654296875E-5;0.93353271484375
78125.0;50000;40;7;0;0;TWO;VOUT_IIN;FIRST_HARMONIC;PORT_EXT3;PORT_EXT3;false;Quadrants,0,IN_PHASE;435.0;-3851.0;2.0852551335320426E-8;1.846050004421126E-7;5382739.843754799;-1.4583154340802802;4.795576253089865E7;0.37607421875; - ;1.8585205078125E-5;0.92926025390625
78125.0;50000;40;7;0;0;TWO;VOUT_IIN;FIRST_HARMONIC;PORT_EXT3;PORT_EXT3;false;Quadrants,0,IN_PHASE;435.0;-3850.0;2.0852551335320443E-8;1.8455706354249122E-7;5384120.336823707;-1.4582864641607214;4.7955762530898616E7;0.3759765625; - ;1.8585205078125E-5;0.92926025390625
78125.0;50000;40;7;0;0;TWO;VOUT_IIN;FIRST_HARMONIC;PORT_EXT3;PORT_EXT3;false;Quadrants,0,IN_PHASE;435.0;-3850.0;2.0852551335320443E-8;1.8455706354249122E-7;5384120.336823707;-1.4582864641607214;4.7955762530898616E7;0.3759765625; - ;1.8585205078125E-5;0.92926025390625
78125.0;50000;40;7;0;0;TWO;VOUT_IIN;FIRST_HARMONIC;PORT_EXT3;PORT_EXT3;false;Quadrants,0,IN_PHASE;435.0;-3851.0;2.0852551335320426E-8;1.846050004421126E-7;5382739.843754799;-1.4583154340802802;4.795576253089865E7;0.37607421875; - ;1.8585205078125E-5;0.92926025390625
78125.0;50000;40;7;0;0;TWO;VOUT_IIN;FIRST_HARMONIC;PORT_EXT3;PORT_EXT3;false;Quadrants,0,IN_PHASE;433.0;-3852.0;2.0756677536077562E-8;1.8465293734173403E-7;5381670.920030198;-1.458857091565943;4.8177267207715765E7;0.376171875; - ;1.8499755859375E-5;0.92498779296875
78125.0;50000;40;7;0;0;TWO;VOUT_IIN;FIRST_HARMONIC;PORT_EXT3;PORT_EXT3;false;Quadrants,0,IN_PHASE;435.0;-3852.0;2.0852551335320436E-8;1.8465293734173406E-7;5381360.0539107695;-1.4583443891477983;4.795576253089863E7;0.376171875; - ;1.8585205078125E-5;0.92926025390625
78125.0;50000;40;7;0;0;TWO;VOUT_IIN;FIRST_HARMONIC;PORT_EXT3;PORT_EXT3;false;Quadrants,0,IN_PHASE;433.0;-3854.0;2.0756677536077572E-8;1.847488111409769E-7;5378912.97022539;-1.4589146977929925;4.817726720771574E7;0.3763671875; - ;1.8499755859375E-5;0.92498779296875
78125.0;50000;40;7;0;0;TWO;VOUT_IIN;FIRST_HARMONIC;PORT_EXT3;PORT_EXT3;false;Quadrants,0,IN_PHASE;431.0;-3852.0;2.066080373683475E-8;1.8465293734173406E-7;5381980.407094794;-1.4593698530874741;4.8400827612391844E7;0.37617187499999993; - ;1.8414306640625E-5;0.92071533203125
78125.0;50000;40;7;0;0;TWO;VOUT_IIN;FIRST_HARMONIC;PORT_EXT3;PORT_EXT3;false;Quadrants,0,IN_PHASE;435.0;-3850.0;2.0852551335320443E-8;1.8455706354249122E-7;5384120.336823707;-1.4582864641607214;4.7955762530898616E7;0.3759765625; - ;1.8585205078125E-5;0.92926025390625
78125.0;50000;40;7;0;0;TWO;VOUT_IIN;FIRST_HARMONIC;PORT_EXT3;PORT_EXT3;false;Quadrants,0,IN_PHASE;435.0;-3851.0;2.0852551335320426E-8;1.846050004421126E-7;5382739.843754799;-1.4583154340802802;4.795576253089865E7;0.37607421875; - ;1.8585205078125E-5;0.92926025390625
78125.0;50000;40;7;0;0;TWO;VOUT_IIN;FIRST_HARMONIC;PORT_EXT3;PORT_EXT3;false;Quadrants,0,IN_PHASE;434.0;-3848.0;2.0804614435698984E-8;1.8446118974324835E-7;5387039.5198116535;-1.4584850832885978;4.80662596795874E7;0.37578125; - ;1.854248046875E-5;0.9271240234375
78125.0;50000;40;7;0;0;TWO;VOUT_IIN;FIRST_HARMONIC;PORT_EXT3;PORT_EXT3;false;Quadrants,0,IN_PHASE;435.0;-3849.0;2.085255133532045E-8;1.8450912664286977E-7;5385501.533651742;-1.4582574793777405;4.79557625308986E7;0.37587890625; - ;1.8585205078125E-5;0.92926025390625
78125.0;50000;40;7;0;0;TWO;VOUT_IIN;FIRST_HARMONIC;PORT_EXT3;PORT_EXT3;false;Quadrants,0,IN_PHASE;436.0;-3853.0;2.0900488234941845E-8;1.847008742413555E-7;5379825.136642627;-1.4581170652588753;4.7845772249864504E7;0.37626953125; - ;1.86279296875E-5;0.931396484375
78125.0;50000;40;7;0;0;TWO;VOUT_IIN;FIRST_HARMONIC;PORT_EXT3;PORT_EXT3;false;Quadrants,0,IN_PHASE;433.0;-3851.0;2.0756677536077572E-8;1.846050004421126E-7;5383050.949069169;-1.458828266294296;4.817726720771574E7;0.37607421875; - ;1.8499755859375E-5;0.92498779296875
78125.0;50000;40;7;0;0;TWO;VOUT_IIN;FIRST_HARMONIC;PORT_EXT3;PORT_EXT3;false;Quadrants,0,IN_PHASE;432.0;-3851.0;2.070874063645614E-8;1.846050004421126E-7;5383205.984238694;-1.4590847045982809;4.828878865958547E7;0.37607421874999997; - ;1.845703125E-5;0.9228515625
78125.0;50000;40;7;0;0;TWO;VOUT_IIN;FIRST_HARMONIC;PORT_EXT3;PORT_EXT3;false;Quadrants,0,IN_PHASE;436.0;-3850.0;2.090048823494184E-8;1.8455706354249122E-7;5383964.146753877;-1.4580300054022488;4.784577224986451E7;0.37597656250000006; - ;1.86279296875E-5;0.931396484375
78125.0;50000;40;7;0;0;TWO;VOUT_IIN;FIRST_HARMONIC;PORT_EXT3;PORT_EXT3;false;Quadrants,0,IN_PHASE;434.0;-3850.0;2.0804614435699014E-8;1.845570635424912E-7;5384276.181795475;-1.4585429377826142;4.806625967958733E7;0.3759765625; - ;1.854248046875E-5;0.9271240234375
78125.0;50000;40;7;0;0;TWO;VOUT_IIN;FIRST_HARMONIC;PORT_EXT3;PORT_EXT3;false;Quadrants,0,IN_PHASE;435.0;-3851.0;2.0852551335320426E-8;1.846050004421126E-7;5382739.843754799;-1.4583154340802802;4.795576253089865E7;0.37607421875; - ;1.8585205078125E-5;0.92926025390625
78125.0;50000;40;7;0;0;TWO;VOUT_IIN;FIRST_HARMONIC;PORT_EXT3;PORT_EXT3;false;Quadrants,0,IN_PHASE;436.0;-3851.0;2.090048823494188E-8;1.8460500044211264E-7;5382583.773792488;-1.4580590402351163;4.7845772249864414E7;0.37607421875; - ;1.86279296875E-5;0.931396484375
78125.0;50000;40;7;0;0;TWO;VOUT_IIN;FIRST_HARMONIC;PORT_EXT3;PORT_EXT3;false;Quadrants,0,IN_PHASE;433.0;-3849.0;2.0756677536077598E-8;1.8450912664286977E-7;5385813.11809035;-1.458770571378148;4.817726720771568E7;0.37587890625; - ;1.8499755859375E-5;0.92498779296875
78125.0;50000;40;7;0;0;TWO;VOUT_IIN;FIRST_HARMONIC;PORT_EXT3;PORT_EXT3;false;Quadrants,0,IN_PHASE;435.0;-3842.0;2.0852551335320416E-8;1.841735683455198E-7;5395189.6616932275;-1.4580541687625799;4.7955762530898675E7;0.3751953125; - ;1.8585205078125E-5;0.92926025390625
78125.0;50000;40;7;0;0;TWO;VOUT_IIN;FIRST_HARMONIC;PORT_EXT3;PORT_EXT3;false;Quadrants,0,IN_PHASE;417.0;-3568.0;1.9989687142134767E-8;1.7103885784924898E-7;5807099.24343028;-1.4544519340063216;5.002579544590144E7;0.3484375; - ;1.7816162109375E-5;0.89080810546875
78125.0;50000;40;7;0;0;TWO;VOUT_IIN;FIRST_HARMONIC;PORT_EXT3;PORT_EXT3;false;Quadrants,0,IN_PHASE;383.0;-3461.0;1.835983255500626E-8;1.6590960958975637E-7;5990808.308411967;-1.4605830989953528;5.44667276786969E7;0.3379882812499999; - ;1.6363525390625E-5;0.81817626953125
78125.0;50000;40;7;0;0;TWO;VOUT_IIN;FIRST_HARMONIC;PORT_EXT3;PORT_EXT3;false;Quadrants,0,IN_PHASE;374.0;-3420.0;1.7928400458413436E-8;1.6394419670527788E-7;6063487.912639821;-1.4618724286588334;5.577742433406658E7;0.33398437499999994; - ;1.597900390625E-5;0.7989501953125
78125.0;50000;40;7;0;0;TWO;VOUT_IIN;FIRST_HARMONIC;PORT_EXT3;PORT_EXT3;false;Quadrants,0,IN_PHASE;336.0;-3814.0;1.6106798272799228E-8;1.8283133515611985E-7;5448420.239017197;-1.4829266900971134;6.2085585419467E7;0.37246093750000003; - ;1.435546875E-5;0.7177734375
78125.0;50000;40;7;0;0;TWO;VOUT_IIN;FIRST_HARMONIC;PORT_EXT3;PORT_EXT3;false;Quadrants,0,IN_PHASE;381.0;-3825.0;1.8263958755763414E-8;1.8335864105195553E-7;5426936.771058578;-1.4715159634820152;5.475264225968742E7;0.37353515624999994; - ;1.6278076171875E-5;0.81390380859375
78125.0;50000;40;7;0;0;TWO;VOUT_IIN;FIRST_HARMONIC;PORT_EXT3;PORT_EXT3;false;Quadrants,0,IN_PHASE;399.0;-3823.0;1.9126822948949086E-8;1.832627672527127E-7;5427167.44126354;-1.4668045243487902;5.2282598247972205E7;0.37333984374999996; - ;1.7047119140625E-5;0.85235595703125
78125.0;50000;40;7;0;0;TWO;VOUT_IIN;FIRST_HARMONIC;PORT_EXT3;PORT_EXT3;false;Quadrants,0,IN_PHASE;404.0;-3830.0;1.936650744705624E-8;1.8359832555006265E-7;5416621.649801733;-1.4657019317632165;5.1635536388467535E7;0.37402343749999994; - ;1.72607421875E-5;0.863037109375
78125.0;50000;40;7;0;0;TWO;VOUT_IIN;FIRST_HARMONIC;PORT_EXT3;PORT_EXT3;false;Quadrants,0,IN_PHASE;410.0;-3832.0;1.9654128844784796E-8;1.8369419934930552E-7;5412935.4809561465;-1.4642080842536067;5.087989439253875E7;0.37421874999999993; - ;1.751708984375E-5;0.8758544921875
78125.0;50000;40;7;0;0;TWO;VOUT_IIN;FIRST_HARMONIC;PORT_EXT3;PORT_EXT3;false;Quadrants,0,IN_PHASE;410.0;-3832.0;1.9654128844784796E-8;1.8369419934930552E-7;5412935.4809561465;-1.4642080842536067;5.087989439253875E7;0.37421874999999993; - ;1.751708984375E-5;0.8758544921875
78125.0;50000;40;7;0;0;TWO;VOUT_IIN;FIRST_HARMONIC;PORT_EXT3;PORT_EXT3;false;Quadrants,0,IN_PHASE;411.0;-3833.0;1.9702065744406218E-8;1.8374213624892694E-7;5411389.780222602;-1.4639777483913703;5.075609902905326E7;0.37431640624999996; - ;1.7559814453125E-5;0.87799072265625
78125.0;50000;40;7;0;0;TWO;VOUT_IIN;FIRST_HARMONIC;PORT_EXT3;PORT_EXT3;false;Quadrants,0,IN_PHASE;413.0;-3833.0;1.9797939543649065E-8;1.8374213624892696E-7;5411089.75523396;-1.4634619235263697;5.0510306781939216E7;0.37431640625; - ;1.7645263671875E-5;0.88226318359375
78125.0;50000;40;7;0;0;TWO;VOUT_IIN;FIRST_HARMONIC;PORT_EXT3;PORT_EXT3;false;Quadrants,0,IN_PHASE;410.0;-3832.0;1.9654128844784796E-8;1.8369419934930552E-7;5412935.4809561465;-1.4642080842536067;5.087989439253875E7;0.37421874999999993; - ;1.751708984375E-5;0.8758544921875
78125.0;50000;40;7;0;0;TWO;VOUT_IIN;FIRST_HARMONIC;PORT_EXT3;PORT_EXT3;false;Quadrants,0,IN_PHASE;411.0;-3833.0;1.9702065744406218E-8;1.8374213624892694E-7;5411389.780222602;-1.4639777483913703;5.075609902905326E7;0.37431640624999996; - ;1.7559814453125E-5;0.87799072265625
78125.0;50000;40;7;0;0;TWO;VOUT_IIN;FIRST_HARMONIC;PORT_EXT3;PORT_EXT3;false;Quadrants,0,IN_PHASE;411.0;-3831.0;1.9702065744406205E-8;1.836462624496841E-7;5414182.696719403;-1.4639224065728866;5.07560990290533E7;0.37412109374999997; - ;1.7559814453125E-5;0.87799072265625
78125.0;50000;40;7;0;0;TWO;VOUT_IIN;FIRST_HARMONIC;PORT_EXT3;PORT_EXT3;false;Quadrants,0,IN_PHASE;410.0;-3833.0;1.965412884478479E-8;1.8374213624892694E-7;5411539.265180055;-1.464235682240589;5.087989439253876E7;0.37431640624999996; - ;1.751708984375E-5;0.8758544921875
78125.0;50000;40;7;0;0;TWO;VOUT_IIN;FIRST_HARMONIC;PORT_EXT3;PORT_EXT3;false;Quadrants,0,IN_PHASE;414.0;-3832.0;1.984587644327049E-8;1.836941993493055E-7;5412334.9666374;-1.463176171522476;5.038830121000217E7;0.37421874999999993; - ;1.768798828125E-5;0.8843994140625
78125.0;50000;40;7;0;0;TWO;VOUT_IIN;FIRST_HARMONIC;PORT_EXT3;PORT_EXT3;false;Quadrants,0,IN_PHASE;409.0;-3833.0;1.9606191945163364E-8;1.8374213624892694E-7;5411688.398327768;-1.4644936303234377;5.100429511232492E7;0.37431640624999996; - ;1.7474365234375E-5;0.87371826171875
78125.0;50000;40;7;0;0;TWO;VOUT_IIN;FIRST_HARMONIC;PORT_EXT3;PORT_EXT3;false;Quadrants,0,IN_PHASE;412.0;-3832.0;1.9750002644027643E-8;1.8369419934930555E-7;5412635.927592009;-1.4636920992661964;5.0632904613934204E7;0.37421875; - ;1.76025390625E-5;0.880126953125
78125.0;50000;40;7;0;0;TWO;VOUT_IIN;FIRST_HARMONIC;PORT_EXT3;PORT_EXT3;false;Quadrants,0,IN_PHASE;410.0;-3828.0;1.965412884478476E-8;1.8350245175081982E-7;5418527.514810305;-1.4640975497496331;5.0879894392538846E7;0.37382812499999996; - ;1.751708984375E-5;0.8758544921875
78125.0;50000;40;7;0;0;TWO;VOUT_IIN;FIRST_HARMONIC;PORT_EXT3;PORT_EXT3;false;Quadrants,0,IN_PHASE;409.0;-3829.0;1.960619194516335E-8;1.8355038865044124E-7;5417278.025358716;-1.4643834162404374;5.100429511232495E7;0.3739257812499999; - ;1.7474365234375E-5;0.87371826171875
78125.0;50000;40;7;0;0;TWO;VOUT_IIN;FIRST_HARMONIC;PORT_EXT3;PORT_EXT3;false;Quadrants,0,IN_PHASE;409.0;-3828.0;1.960619194516333E-8;1.8350245175081982E-7;5418677.226474521;-1.4643558271362385;5.1004295112325005E7;0.37382812499999996; - ;1.7474365234375E-5;0.87371826171875
78125.0;50000;40;7;0;0;TWO;VOUT_IIN;FIRST_HARMONIC;PORT_EXT3;PORT_EXT3;false;Quadrants,0,IN_PHASE;409.0;-3829.0;1.960619194516335E-8;1.8355038865044124E-7;5417278.025358716;-1.4643834162404374;5.100429511232495E7;0.3739257812499999; - ;1.7474365234375E-5;0.87371826171875
78125.0;50000;40;7;0;0;TWO;VOUT_IIN;FIRST_HARMONIC;PORT_EXT3;PORT_EXT3;false;Quadrants,0,IN_PHASE;408.0;-3827.0;1.955825504554191E-8;1.834545148511984E-7;5420226.620659753;-1.464586581390129;5.112930563956108E7;0.37373046874999993; - ;1.7431640625E-5;0.87158203125
78125.0;50000;40;7;0;0;TWO;VOUT_IIN;FIRST_HARMONIC;PORT_EXT3;PORT_EXT3;false;Quadrants,0,IN_PHASE;409.0;-3824.0;1.9606191945163367E-8;1.833107041523341E-7;5424281.224879748;-1.4642453280557013;5.1004295112324916E7;0.3734374999999999; - ;1.7474365234375E-5;0.87371826171875
78125.0;50000;40;7;0;0;TWO;VOUT_IIN;FIRST_HARMONIC;PORT_EXT3;PORT_EXT3;false;Quadrants,0,IN_PHASE;409.0;-3828.0;1.960619194516333E-8;1.8350245175081982E-7;5418677.226474521;-1.4643558271362385;5.1004295112325005E7;0.37382812499999996; - ;1.7474365234375E-5;0.87371826171875
78125.0;50000;40;7;0;0;TWO;VOUT_IIN;FIRST_HARMONIC;PORT_EXT3;PORT_EXT3;false;Quadrants,0,IN_PHASE;409.0;-3824.0;1.9606191945163367E-8;1.833107041523341E-7;5424281.224879748;-1.4642453280557013;5.1004295112324916E7;0.3734374999999999; - ;1.7474365234375E-5;0.87371826171875
78125.0;50000;40;7;0;0;TWO;VOUT_IIN;FIRST_HARMONIC;PORT_EXT3;PORT_EXT3;false;Quadrants,0,IN_PHASE;409.0;-3829.0;1.960619194516335E-8;1.8355038865044124E-7;5417278.025358716;-1.4643834162404374;5.100429511232495E7;0.3739257812499999; - ;1.7474365234375E-5;0.87371826171875
78125.0;50000;40;7;0;0;TWO;VOUT_IIN;FIRST_HARMONIC;PORT_EXT3;PORT_EXT3;false;Quadrants,0,IN_PHASE;408.0;-3827.0;1.955825504554191E-8;1.834545148511984E-7;5420226.620659753;-1.464586581390129;5.112930563956108E7;0.37373046874999993; - ;1.7431640625E-5;0.87158203125
78125.0;50000;40;7;0;0;TWO;VOUT_IIN;FIRST_HARMONIC;PORT_EXT3;PORT_EXT3;false;Quadrants,0,IN_PHASE;409.0;-3823.0;1.960619194516336E-8;1.832627672527127E-7;5425684.02572517;-1.4642176675645;5.100429511232493E7;0.37333984374999996; - ;1.7474365234375E-5;0.87371826171875
78125.0;50000;40;7;0;0;TWO;VOUT_IIN;FIRST_HARMONIC;PORT_EXT3;PORT_EXT3;false;Quadrants,0,IN_PHASE;408.0;-3827.0;1.955825504554191E-8;1.834545148511984E-7;5420226.620659753;-1.464586581390129;5.112930563956108E7;0.37373046874999993; - ;1.7431640625E-5;0.87158203125
78125.0;50000;40;7;0;0;TWO;VOUT_IIN;FIRST_HARMONIC;PORT_EXT3;PORT_EXT3;false;Quadrants,0,IN_PHASE;409.0;-3823.0;1.960619194516336E-8;1.832627672527127E-7;5425684.02572517;-1.4642176675645;5.100429511232493E7;0.37333984374999996; - ;1.7474365234375E-5;0.87371826171875
