m;n;
0.0;0.0;15.241999999999962; -0.00128173828125; 0.0; 0.0; 0.0; 0.0; 0.0; 0.0; 0.0; 
0.0;0.0;15.215999999999951; -0.00128173828125; 0.0; 0.0; 0.0; 0.0; 0.0; 0.0; 0.0; 
0.0;0.0;15.215999999999951; -0.00128173828125; 0.0; 0.0; 0.0; 0.0; 0.0; 0.0; 0.0; 
0.0;0.0;15.111999999999966; -0.00128173828125; 0.0; 0.0; 0.0; 0.0; 0.0; 0.0; 0.0; 
0.0;0.0;15.137999999999977; -0.00128173828125; 0.0; 0.0; 0.0; 0.0; 0.0; 0.0; 0.0; 
0.0;0.0;15.18999999999994; -0.00128173828125; 0.0; 0.0; 0.0; 0.0; 0.0; 0.0; 0.0; 
0.0;0.0;15.215999999999951; -0.00128173828125; 0.0; 0.0; 0.0; 0.0; 0.0; 0.0; 0.0; 
0.0;0.0;15.215999999999951; -0.00128173828125; 0.0; 0.0; 0.0; 0.0; 0.0; 0.0; 0.0; 
0.0;0.0;15.18999999999994; -0.00128173828125; 0.0; 0.0; 0.0; 0.0; 0.0; 0.0; 0.0; 
0.0;0.0;15.18999999999994; -0.00128173828125; 0.0; 0.0; 0.0; 0.0; 0.0; 0.0; 0.0; 
0.0;0.0;15.137999999999977; -0.00128173828125; 0.0; 0.0; 0.0; 0.0; 0.0; 0.0; 0.0; 
0.0;0.0;15.163999999999987; -0.00128173828125; 0.0; 0.0; 0.0; 0.0; 0.0; 0.0; 0.0; 
0.0;0.0;15.137999999999977; -0.00128173828125; 0.0; 0.0; 0.0; 0.0; 0.0; 0.0; 0.0; 
0.0;0.0;15.163999999999987; -0.00128173828125; 0.0; 0.0; 0.0; 0.0; 0.0; 0.0; 0.0; 
0.0;0.0;15.111999999999966; -0.00128173828125; 0.0; 0.0; 0.0; 0.0; 0.0; 0.0; 0.0; 
0.0;0.0;15.163999999999987; -0.00128173828125; 0.0; 0.0; 0.0; 0.0; 0.0; 0.0; 0.0; 
0.0;0.0;15.137999999999977; -0.00128173828125; 0.0; 0.0; 0.0; 0.0; 0.0; 0.0; 0.0; 
0.0;0.0;15.111999999999966; -0.00128173828125; 0.0; 0.0; 0.0; 0.0; 0.0; 0.0; 0.0; 
0.0;0.0;15.085999999999956; -0.00128173828125; 0.0; 0.0; 0.0; 0.0; 0.0; 0.0; 0.0; 
0.0;0.0;15.085999999999956; -0.00128173828125; 0.0; 0.0; 0.0; 0.0; 0.0; 0.0; 0.0; 
0.0;0.0;15.085999999999956; -0.00128173828125; 0.0; 0.0; 0.0; 0.0; 0.0; 0.0; 0.0; 
0.0;0.0;15.085999999999956; -0.00128173828125; 0.0; 0.0; 0.0; 0.0; 0.0; 0.0; 0.0; 
0.0;0.0;15.059999999999945; -0.00128173828125; 0.0; 0.0; 0.0; 0.0; 0.0; 0.0; 0.0; 
0.0;0.0;15.111999999999966; -0.00128173828125; 0.0; 0.0; 0.0; 0.0; 0.0; 0.0; 0.0; 
0.0;0.0;15.137999999999977; -0.00128173828125; 0.0; 0.0; 0.0; 0.0; 0.0; 0.0; 0.0; 
0.0;0.0;15.033999999999935; -0.00128173828125; 0.0; 0.0; 0.0; 0.0; 0.0; 0.0; 0.0; 
0.0;0.0;15.007999999999981; -0.00128173828125; 0.0; 0.0; 0.0; 0.0; 0.0; 0.0; 0.0; 
0.0;0.0;15.111999999999966; -0.00128173828125; 0.0; 0.0; 0.0; 0.0; 0.0; 0.0; 0.0; 
0.0;0.0;15.085999999999956; -0.00128173828125; 0.0; 0.0; 0.0; 0.0; 0.0; 0.0; 0.0; 
0.0;0.0;15.059999999999945; -0.00128173828125; 0.0; 0.0; 0.0; 0.0; 0.0; 0.0; 0.0; 
0.0;0.0;15.137999999999977; -0.00128173828125; 0.0; 0.0; 0.0; 0.0; 0.0; 0.0; 0.0; 
0.0;0.0;15.241999999999962; -0.00128173828125; 0.0; 0.0; 0.0; 0.0; 0.0; 0.0; 0.0; 
0.0;0.0;15.657999999999959; -0.00128173828125; 0.0; 0.0; 0.0; 0.0; 0.0; 0.0; 0.0; 
0.0;0.0;16.151999999999987; -0.00128173828125; 0.0; 0.0; 0.0; 0.0; 0.0; 0.0; 0.0; 
0.0;0.0;16.359999999999957; -0.00128173828125; 0.0; 0.0; 0.0; 0.0; 0.0; 0.0; 0.0; 
0.0;0.0;16.515999999999963; -0.00128173828125; 0.0; 0.0; 0.0; 0.0; 0.0; 0.0; 0.0; 
0.0;0.0;16.541999999999973; -0.00128173828125; 0.0; 0.0; 0.0; 0.0; 0.0; 0.0; 0.0; 
0.0;0.0;16.72399999999999; -0.00128173828125; 0.0; 0.0; 0.0; 0.0; 0.0; 0.0; 0.0; 
0.0;0.0;16.69799999999998; -0.00128173828125; 0.0; 0.0; 0.0; 0.0; 0.0; 0.0; 0.0; 
0.0;0.0;16.72399999999999; -0.00128173828125; 0.0; 0.0; 0.0; 0.0; 0.0; 0.0; 0.0; 
0.0;0.0;16.827999999999975; -0.00128173828125; 0.0; 0.0; 0.0; 0.0; 0.0; 0.0; 0.0; 
0.0;0.0;16.827999999999975; -0.00128173828125; 0.0; 0.0; 0.0; 0.0; 0.0; 0.0; 0.0; 
0.0;0.0;16.87999999999994; -0.00128173828125; 0.0; 0.0; 0.0; 0.0; 0.0; 0.0; 0.0; 
0.0;0.0;16.827999999999975; -0.00128173828125; 0.0; 0.0; 0.0; 0.0; 0.0; 0.0; 0.0; 
0.0;0.0;17.009999999999934; -0.00128173828125; 0.0; 0.0; 0.0; 0.0; 0.0; 0.0; 0.0; 
0.0;0.0;16.95799999999997; -0.00128173828125; 0.0; 0.0; 0.0; 0.0; 0.0; 0.0; 0.0; 
0.0;0.0;17.087999999999965; -0.00128173828125; 0.0; 0.0; 0.0; 0.0; 0.0; 0.0; 0.0; 
0.0;0.0;17.061999999999955; -0.00128173828125; 0.0; 0.0; 0.0; 0.0; 0.0; 0.0; 0.0; 
0.0;0.0;17.061999999999955; -0.00128173828125; 0.0; 0.0; 0.0; 0.0; 0.0; 0.0; 0.0; 
0.0;0.0;17.16599999999994; -0.00128173828125; 0.0; 0.0; 0.0; 0.0; 0.0; 0.0; 0.0; 
0.0;0.0;17.139999999999986; -0.00128173828125; 0.0; 0.0; 0.0; 0.0; 0.0; 0.0; 0.0; 
0.0;0.0;17.21799999999996; -0.00128173828125; 0.0; 0.0; 0.0; 0.0; 0.0; 0.0; 0.0; 
0.0;0.0;17.21799999999996; -0.00128173828125; 0.0; 0.0; 0.0; 0.0; 0.0; 0.0; 0.0; 
0.0;0.0;17.24399999999997; -0.00128173828125; 0.0; 0.0; 0.0; 0.0; 0.0; 0.0; 0.0; 
0.0;0.0;17.269999999999982; -0.00128173828125; 0.0; 0.0; 0.0; 0.0; 0.0; 0.0; 0.0; 
0.0;0.0;17.347999999999956; -0.00128173828125; 0.0; 0.0; 0.0; 0.0; 0.0; 0.0; 0.0; 
0.0;0.0;17.399999999999977; -0.00128173828125; 0.0; 0.0; 0.0; 0.0; 0.0; 0.0; 0.0; 
0.0;0.0;17.295999999999935; -0.00128173828125; 0.0; 0.0; 0.0; 0.0; 0.0; 0.0; 0.0; 
0.0;0.0;17.399999999999977; -0.00128173828125; 0.0; 0.0; 0.0; 0.0; 0.0; 0.0; 0.0; 
0.0;0.0;17.373999999999967; -0.00128173828125; 0.0; 0.0; 0.0; 0.0; 0.0; 0.0; 0.0; 
0.0;0.0;17.321999999999946; -0.00128173828125; 0.0; 0.0; 0.0; 0.0; 0.0; 0.0; 0.0; 
0.0;0.0;17.45199999999994; -0.00128173828125; 0.0; 0.0; 0.0; 0.0; 0.0; 0.0; 0.0; 
0.0;0.0;17.477999999999952; -0.00128173828125; 0.0; 0.0; 0.0; 0.0; 0.0; 0.0; 0.0; 
0.0;0.0;17.45199999999994; -0.00128173828125; 0.0; 0.0; 0.0; 0.0; 0.0; 0.0; 0.0; 
0.0;0.0;17.581999999999937; -0.00128173828125; 0.0; 0.0; 0.0; 0.0; 0.0; 0.0; 0.0; 
0.0;0.0;17.581999999999937; -0.00128173828125; 0.0; 0.0; 0.0; 0.0; 0.0; 0.0; 0.0; 
0.0;0.0;17.607999999999947; -0.00128173828125; 0.0; 0.0; 0.0; 0.0; 0.0; 0.0; 0.0; 
0.0;0.0;17.581999999999937; -0.00128173828125; 0.0; 0.0; 0.0; 0.0; 0.0; 0.0; 0.0; 
0.0;0.0;17.607999999999947; -0.00128173828125; 0.0; 0.0; 0.0; 0.0; 0.0; 0.0; 0.0; 
0.0;0.0;17.581999999999937; -0.00128173828125; 0.0; 0.0; 0.0; 0.0; 0.0; 0.0; 0.0; 
0.0;0.0;17.555999999999983; -0.00128173828125; 0.0; 0.0; 0.0; 0.0; 0.0; 0.0; 0.0; 
0.0;0.0;17.581999999999937; -0.00128173828125; 0.0; 0.0; 0.0; 0.0; 0.0; 0.0; 0.0; 
0.0;0.0;17.633999999999958; -0.00128173828125; 0.0; 0.0; 0.0; 0.0; 0.0; 0.0; 0.0; 
0.0;0.0;17.581999999999937; -0.00128173828125; 0.0; 0.0; 0.0; 0.0; 0.0; 0.0; 0.0; 
0.0;0.0;17.68599999999998; -0.00128173828125; 0.0; 0.0; 0.0; 0.0; 0.0; 0.0; 0.0; 
0.0;0.0;17.71199999999999; -0.00128173828125; 0.0; 0.0; 0.0; 0.0; 0.0; 0.0; 0.0; 
0.0;0.0;17.737999999999943; -0.00128173828125; 0.0; 0.0; 0.0; 0.0; 0.0; 0.0; 0.0; 
0.0;0.0;17.789999999999964; -0.00128173828125; 0.0; 0.0; 0.0; 0.0; 0.0; 0.0; 0.0; 
0.0;0.0;17.71199999999999; -0.00128173828125; 0.0; 0.0; 0.0; 0.0; 0.0; 0.0; 0.0; 
0.0;0.0;17.789999999999964; -0.00128173828125; 0.0; 0.0; 0.0; 0.0; 0.0; 0.0; 0.0; 
0.0;0.0;17.737999999999943; -0.00128173828125; 0.0; 0.0; 0.0; 0.0; 0.0; 0.0; 0.0; 
0.0;0.0;17.789999999999964; -0.00128173828125; 0.0; 0.0; 0.0; 0.0; 0.0; 0.0; 0.0; 
0.0;0.0;17.71199999999999; -0.00128173828125; 0.0; 0.0; 0.0; 0.0; 0.0; 0.0; 0.0; 
0.0;0.0;17.789999999999964; -0.00128173828125; 0.0; 0.0; 0.0; 0.0; 0.0; 0.0; 0.0; 
0.0;0.0;17.763999999999953; -0.00128173828125; 0.0; 0.0; 0.0; 0.0; 0.0; 0.0; 0.0; 
0.0;0.0;17.815999999999974; -0.00128173828125; 0.0; 0.0; 0.0; 0.0; 0.0; 0.0; 0.0; 
0.0;0.0;17.789999999999964; -0.00128173828125; 0.0; 0.0; 0.0; 0.0; 0.0; 0.0; 0.0; 
0.0;0.0;17.789999999999964; -0.00128173828125; 0.0; 0.0; 0.0; 0.0; 0.0; 0.0; 0.0; 
0.0;0.0;17.841999999999985; -0.00128173828125; 0.0; 0.0; 0.0; 0.0; 0.0; 0.0; 0.0; 
0.0;0.0;17.89399999999995; -0.00128173828125; 0.0; 0.0; 0.0; 0.0; 0.0; 0.0; 0.0; 
0.0;0.0;17.841999999999985; -0.00128173828125; 0.0; 0.0; 0.0; 0.0; 0.0; 0.0; 0.0; 
0.0;0.0;17.867999999999938; -0.00128173828125; 0.0; 0.0; 0.0; 0.0; 0.0; 0.0; 0.0; 
0.0;0.0;17.789999999999964; -0.00128173828125; 0.0; 0.0; 0.0; 0.0; 0.0; 0.0; 0.0; 
0.0;0.0;17.89399999999995; -0.00128173828125; 0.0; 0.0; 0.0; 0.0; 0.0; 0.0; 0.0; 
0.0;0.0;17.89399999999995; -0.00128173828125; 0.0; 0.0; 0.0; 0.0; 0.0; 0.0; 0.0; 
0.0;0.0;17.89399999999995; -0.00128173828125; 0.0; 0.0; 0.0; 0.0; 0.0; 0.0; 0.0; 
0.0;0.0;17.91999999999996; -0.00128173828125; 0.0; 0.0; 0.0; 0.0; 0.0; 0.0; 0.0; 
0.0;0.0;17.841999999999985; -0.00128173828125; 0.0; 0.0; 0.0; 0.0; 0.0; 0.0; 0.0; 
0.0;0.0;17.867999999999938; -0.00128173828125; 0.0; 0.0; 0.0; 0.0; 0.0; 0.0; 0.0; 
0.0;0.0;17.789999999999964; -0.00128173828125; 0.0; 0.0; 0.0; 0.0; 0.0; 0.0; 0.0; 
0.0;0.0;17.16599999999994; -0.00128173828125; 0.0; 0.0; 0.0; 0.0; 0.0; 0.0; 0.0; 
0.0;0.0;17.89399999999995; -0.00128173828125; 0.0; 0.0; 0.0; 0.0; 0.0; 0.0; 0.0; 
0.0;0.0;17.815999999999974; -0.00128173828125; 0.0; 0.0; 0.0; 0.0; 0.0; 0.0; 0.0; 
0.0;0.0;17.763999999999953; -0.00128173828125; 0.0; 0.0; 0.0; 0.0; 0.0; 0.0; 0.0; 
0.0;0.0;17.71199999999999; -0.00128173828125; 0.0; 0.0; 0.0; 0.0; 0.0; 0.0; 0.0; 
0.0;0.0;17.633999999999958; -0.00128173828125; 0.0; 0.0; 0.0; 0.0; 0.0; 0.0; 0.0; 
0.0;0.0;17.633999999999958; -0.00128173828125; 0.0; 0.0; 0.0; 0.0; 0.0; 0.0; 0.0; 
0.0;0.0;17.581999999999937; -0.00128173828125; 0.0; 0.0; 0.0; 0.0; 0.0; 0.0; 0.0; 
0.0;0.0;17.581999999999937; -0.00128173828125; 0.0; 0.0; 0.0; 0.0; 0.0; 0.0; 0.0; 
0.0;0.0;17.555999999999983; -0.00128173828125; 0.0; 0.0; 0.0; 0.0; 0.0; 0.0; 0.0; 
0.0;0.0;17.399999999999977; -0.00128173828125; 0.0; 0.0; 0.0; 0.0; 0.0; 0.0; 0.0; 
0.0;0.0;17.45199999999994; -0.00128173828125; 0.0; 0.0; 0.0; 0.0; 0.0; 0.0; 0.0; 
0.0;0.0;17.347999999999956; -0.00128173828125; 0.0; 0.0; 0.0; 0.0; 0.0; 0.0; 0.0; 
0.0;0.0;17.347999999999956; -0.00128173828125; 0.0; 0.0; 0.0; 0.0; 0.0; 0.0; 0.0; 
0.0;0.0;17.347999999999956; -0.00128173828125; 0.0; 0.0; 0.0; 0.0; 0.0; 0.0; 0.0; 
0.0;0.0;17.19199999999995; -0.00128173828125; 0.0; 0.0; 0.0; 0.0; 0.0; 0.0; 0.0; 
0.0;0.0;17.24399999999997; -0.00128173828125; 0.0; 0.0; 0.0; 0.0; 0.0; 0.0; 0.0; 
0.0;0.0;17.269999999999982; -0.00128173828125; 0.0; 0.0; 0.0; 0.0; 0.0; 0.0; 0.0; 
0.0;0.0;17.24399999999997; -0.00128173828125; 0.0; 0.0; 0.0; 0.0; 0.0; 0.0; 0.0; 
0.0;0.0;17.21799999999996; -0.00128173828125; 0.0; 0.0; 0.0; 0.0; 0.0; 0.0; 0.0; 
0.0;0.0;17.19199999999995; -0.00128173828125; 0.0; 0.0; 0.0; 0.0; 0.0; 0.0; 0.0; 
0.0;0.0;17.139999999999986; -0.00128173828125; 0.0; 0.0; 0.0; 0.0; 0.0; 0.0; 0.0; 
0.0;0.0;17.19199999999995; -0.00128173828125; 0.0; 0.0; 0.0; 0.0; 0.0; 0.0; 0.0; 
0.0;0.0;17.16599999999994; -0.00128173828125; 0.0; 0.0; 0.0; 0.0; 0.0; 0.0; 0.0; 
0.0;0.0;17.21799999999996; -0.00128173828125; 0.0; 0.0; 0.0; 0.0; 0.0; 0.0; 0.0; 
0.0;0.0;17.087999999999965; -0.00128173828125; 0.0; 0.0; 0.0; 0.0; 0.0; 0.0; 0.0; 
0.0;0.0;17.061999999999955; -0.00128173828125; 0.0; 0.0; 0.0; 0.0; 0.0; 0.0; 0.0; 
0.0;0.0;17.009999999999934; -0.00128173828125; 0.0; 0.0; 0.0; 0.0; 0.0; 0.0; 0.0; 
0.0;0.0;17.009999999999934; -0.00128173828125; 0.0; 0.0; 0.0; 0.0; 0.0; 0.0; 0.0; 
0.0;0.0;16.93199999999996; -0.00128173828125; 0.0; 0.0; 0.0; 0.0; 0.0; 0.0; 0.0; 
0.0;0.0;16.98399999999998; -0.00128173828125; 0.0; 0.0; 0.0; 0.0; 0.0; 0.0; 0.0; 
0.0;0.0;17.009999999999934; -0.00128173828125; 0.0; 0.0; 0.0; 0.0; 0.0; 0.0; 0.0; 
0.0;0.0;16.827999999999975; -0.00128173828125; 0.0; 0.0; 0.0; 0.0; 0.0; 0.0; 0.0; 
0.0;0.0;16.87999999999994; -0.00128173828125; 0.0; 0.0; 0.0; 0.0; 0.0; 0.0; 0.0; 
0.0;0.0;16.90599999999995; -0.00128173828125; 0.0; 0.0; 0.0; 0.0; 0.0; 0.0; 0.0; 
0.0;0.0;16.853999999999985; -0.00128173828125; 0.0; 0.0; 0.0; 0.0; 0.0; 0.0; 0.0; 
0.0;0.0;16.90599999999995; -0.00128173828125; 0.0; 0.0; 0.0; 0.0; 0.0; 0.0; 0.0; 
0.0;0.0;16.87999999999994; -0.00128173828125; 0.0; 0.0; 0.0; 0.0; 0.0; 0.0; 0.0; 
0.0;0.0;16.801999999999964; -0.00128173828125; 0.0; 0.0; 0.0; 0.0; 0.0; 0.0; 0.0; 
0.0;0.0;16.827999999999975; -0.00128173828125; 0.0; 0.0; 0.0; 0.0; 0.0; 0.0; 0.0; 
0.0;0.0;16.801999999999964; -0.00128173828125; 0.0; 0.0; 0.0; 0.0; 0.0; 0.0; 0.0; 
0.0;0.0;16.801999999999964; -0.00128173828125; 0.0; 0.0; 0.0; 0.0; 0.0; 0.0; 0.0; 
0.0;0.0;16.749999999999943; -0.00128173828125; 0.0; 0.0; 0.0; 0.0; 0.0; 0.0; 0.0; 
0.0;0.0;16.775999999999954; -0.00128173828125; 0.0; 0.0; 0.0; 0.0; 0.0; 0.0; 0.0; 
0.0;0.0;16.801999999999964; -0.00128173828125; 0.0; 0.0; 0.0; 0.0; 0.0; 0.0; 0.0; 
0.0;0.0;16.67199999999997; -0.00128173828125; 0.0; 0.0; 0.0; 0.0; 0.0; 0.0; 0.0; 
0.0;0.0;16.801999999999964; -0.00128173828125; 0.0; 0.0; 0.0; 0.0; 0.0; 0.0; 0.0; 
0.0;0.0;16.72399999999999; -0.00128173828125; 0.0; 0.0; 0.0; 0.0; 0.0; 0.0; 0.0; 
0.0;0.0;16.72399999999999; -0.00128173828125; 0.0; 0.0; 0.0; 0.0; 0.0; 0.0; 0.0; 
0.0;0.0;16.645999999999958; -0.00128173828125; 0.0; 0.0; 0.0; 0.0; 0.0; 0.0; 0.0; 
0.0;0.0;16.69799999999998; -0.00128173828125; 0.0; 0.0; 0.0; 0.0; 0.0; 0.0; 0.0; 
0.0;0.0;16.72399999999999; -0.00128173828125; 0.0; 0.0; 0.0; 0.0; 0.0; 0.0; 0.0; 
0.0;0.0;16.645999999999958; -0.00128173828125; 0.0; 0.0; 0.0; 0.0; 0.0; 0.0; 0.0; 
0.0;0.0;16.619999999999948; -0.00128173828125; 0.0; 0.0; 0.0; 0.0; 0.0; 0.0; 0.0; 
0.0;0.0;16.645999999999958; -0.00128173828125; 0.0; 0.0; 0.0; 0.0; 0.0; 0.0; 0.0; 
0.0;0.0;16.593999999999937; -0.00128173828125; 0.0; 0.0; 0.0; 0.0; 0.0; 0.0; 0.0; 
0.0;0.0;16.619999999999948; -0.00128173828125; 0.0; 0.0; 0.0; 0.0; 0.0; 0.0; 0.0; 
0.0;0.0;16.619999999999948; -0.00128173828125; 0.0; 0.0; 0.0; 0.0; 0.0; 0.0; 0.0; 
0.0;0.0;16.593999999999937; -0.00128173828125; 0.0; 0.0; 0.0; 0.0; 0.0; 0.0; 0.0; 
0.0;0.0;16.567999999999984; -0.00128173828125; 0.0; 0.0; 0.0; 0.0; 0.0; 0.0; 0.0; 
0.0;0.0;16.593999999999937; -0.00128173828125; 0.0; 0.0; 0.0; 0.0; 0.0; 0.0; 0.0; 
0.0;0.0;16.567999999999984; -0.00128173828125; 0.0; 0.0; 0.0; 0.0; 0.0; 0.0; 0.0; 
0.0;0.0;16.541999999999973; -0.00128173828125; 0.0; 0.0; 0.0; 0.0; 0.0; 0.0; 0.0; 
0.0;0.0;16.515999999999963; -0.00128173828125; 0.0; 0.0; 0.0; 0.0; 0.0; 0.0; 0.0; 
0.0;0.0;16.541999999999973; -0.00128173828125; 0.0; 0.0; 0.0; 0.0; 0.0; 0.0; 0.0; 
0.0;0.0;16.463999999999942; -0.00128173828125; 0.0; 0.0; 0.0; 0.0; 0.0; 0.0; 0.0; 
0.0;0.0;16.541999999999973; -0.00128173828125; 0.0; 0.0; 0.0; 0.0; 0.0; 0.0; 0.0; 
0.0;0.0;16.515999999999963; -0.00128173828125; 0.0; 0.0; 0.0; 0.0; 0.0; 0.0; 0.0; 
0.0;0.0;16.541999999999973; -0.00128173828125; 0.0; 0.0; 0.0; 0.0; 0.0; 0.0; 0.0; 
0.0;0.0;16.593999999999937; -0.00128173828125; 0.0; 0.0; 0.0; 0.0; 0.0; 0.0; 0.0; 
0.0;0.0;16.489999999999952; -0.00128173828125; 0.0; 0.0; 0.0; 0.0; 0.0; 0.0; 0.0; 
0.0;0.0;16.541999999999973; -0.00128173828125; 0.0; 0.0; 0.0; 0.0; 0.0; 0.0; 0.0; 
0.0;0.0;16.411999999999978; -0.00128173828125; 0.0; 0.0; 0.0; 0.0; 0.0; 0.0; 0.0; 
0.0;0.0;16.463999999999942; -0.00128173828125; 0.0; 0.0; 0.0; 0.0; 0.0; 0.0; 0.0; 
0.0;0.0;16.437999999999988; -0.00128173828125; 0.0; 0.0; 0.0; 0.0; 0.0; 0.0; 0.0; 
0.0;0.0;16.437999999999988; -0.00128173828125; 0.0; 0.0; 0.0; 0.0; 0.0; 0.0; 0.0; 
0.0;0.0;16.515999999999963; -0.00128173828125; 0.0; 0.0; 0.0; 0.0; 0.0; 0.0; 0.0; 
0.0;0.0;16.359999999999957; -0.00128173828125; 0.0; 0.0; 0.0; 0.0; 0.0; 0.0; 0.0; 
0.0;0.0;16.359999999999957; -0.00128173828125; 0.0; 0.0; 0.0; 0.0; 0.0; 0.0; 0.0; 
0.0;0.0;16.411999999999978; -0.00128173828125; 0.0; 0.0; 0.0; 0.0; 0.0; 0.0; 0.0; 
0.0;0.0;16.411999999999978; -0.00128173828125; 0.0; 0.0; 0.0; 0.0; 0.0; 0.0; 0.0; 
0.0;0.0;16.385999999999967; -0.00128173828125; 0.0; 0.0; 0.0; 0.0; 0.0; 0.0; 0.0; 
0.0;0.0;16.411999999999978; -0.00128173828125; 0.0; 0.0; 0.0; 0.0; 0.0; 0.0; 0.0; 
0.0;0.0;16.333999999999946; -0.00128173828125; 0.0; 0.0; 0.0; 0.0; 0.0; 0.0; 0.0; 
0.0;0.0;16.385999999999967; -0.00128173828125; 0.0; 0.0; 0.0; 0.0; 0.0; 0.0; 0.0; 
0.0;0.0;16.333999999999946; -0.00128173828125; 0.0; 0.0; 0.0; 0.0; 0.0; 0.0; 0.0; 
