frequencies;rsense;ingain;outgain;dcbiasP;dcbiasN;contacts;modevi;harmonic;inport;outport;SequentialMode;phaseShift;VadcI;VadcQ;Conductance;Susceptance;Zmod;ZPha;Rp;Cp;Lp;Current[mA];Voltage[mV]
78125.0;50000;40;7;0;0;TWO;VOUT_IIN;FIRST_HARMONIC;PORT_EXT3;PORT_EXT3;false;Quadrants,0,IN_PHASE;487.0;-3782.0;2.334526971740722E-8;-1.8129735127563475E-7;5470632.141275558;-1.4427331880368726;4.2835230096072E7;0.3693359375; - ;0.0;0.0
78125.0;50000;40;7;0;0;TWO;VOUT_IIN;FIRST_HARMONIC;PORT_EXT3;PORT_EXT3;false;Quadrants,0,IN_PHASE;486.0;-3782.0;2.329733281860351E-8;-1.8129735127563478E-7;5470815.185929228;-1.442993294387134;4.2923368429603E7;0.3693359375000001; - ;0.0;0.0
78125.0;50000;40;7;0;0;TWO;VOUT_IIN;FIRST_HARMONIC;PORT_EXT3;PORT_EXT3;false;Quadrants,0,IN_PHASE;488.0;-3780.0;2.3393206616210943E-8;-1.8120147747802735E-7;5473295.718217121;-1.4424059467068255;4.274745298521936E7;0.36914062500000006; - ;0.0;0.0
78125.0;50000;40;7;0;0;TWO;VOUT_IIN;FIRST_HARMONIC;PORT_EXT3;PORT_EXT3;false;Quadrants,0,IN_PHASE;481.0;-3783.0;2.3057648324584955E-8;-1.813452881744385E-7;5470301.653943158;-1.4443271704931537;4.3369557290617585E7;0.36943359375; - ;0.0;0.0
78125.0;50000;40;7;0;0;TWO;VOUT_IIN;FIRST_HARMONIC;PORT_EXT3;PORT_EXT3;false;Quadrants,0,IN_PHASE;498.0;-3780.0;2.3872575604248064E-8;-1.8120147747802735E-7;5471439.143157385;-1.4398046933993847;4.188907039515471E7;0.369140625; - ;0.0;0.0
78125.0;50000;40;7;0;0;TWO;VOUT_IIN;FIRST_HARMONIC;PORT_EXT3;PORT_EXT3;false;Quadrants,0,IN_PHASE;480.0;-3781.0;2.3009711425781247E-8;-1.812494143768311E-7;5473330.193815034;-1.4445212617100118;4.345991053497304E7;0.36923828125; - ;0.0;0.0
78125.0;50000;40;7;0;0;TWO;VOUT_IIN;FIRST_HARMONIC;PORT_EXT3;PORT_EXT3;false;Quadrants,0,IN_PHASE;480.0;-3783.0;2.3009711425781267E-8;-1.813452881744385E-7;5470482.408233122;-1.4445873140758185;4.345991053497301E7;0.36943359374999996; - ;0.0;0.0
78125.0;50000;40;7;0;0;TWO;VOUT_IIN;FIRST_HARMONIC;PORT_EXT3;PORT_EXT3;false;Quadrants,0,IN_PHASE;496.0;-3776.0;2.3776701806640612E-8;-1.8100972988281252E-7;5477511.465252279;-1.4401881568490826;4.205797793707071E7;0.36875; - ;0.0;0.0
78125.0;50000;40;7;0;0;TWO;VOUT_IIN;FIRST_HARMONIC;PORT_EXT3;PORT_EXT3;false;Quadrants,0,IN_PHASE;481.0;-3778.0;2.3057648324584968E-8;-1.8110560368041995E-7;5477425.929478471;-1.4441615772007481;4.336955729061756E7;0.3689453125000001; - ;0.0;0.0
78125.0;50000;40;7;0;0;TWO;VOUT_IIN;FIRST_HARMONIC;PORT_EXT3;PORT_EXT3;false;Quadrants,0,IN_PHASE;487.0;-3787.0;2.3345269717407205E-8;-1.8153703576965335E-7;5463526.812492236;-1.4429004316064464;4.2835230096072026E7;0.36982421875000004; - ;0.0;0.0
78125.0;50000;40;7;0;0;TWO;VOUT_IIN;FIRST_HARMONIC;PORT_EXT3;PORT_EXT3;false;Quadrants,0,IN_PHASE;490.0;-3782.0;2.3489080413818355E-8;-1.812973512756348E-7;5470080.8608399425;-1.4419529736547552;4.257297358527972E7;0.3693359375000001; - ;0.0;0.0
78125.0;50000;40;7;0;0;TWO;VOUT_IIN;FIRST_HARMONIC;PORT_EXT3;PORT_EXT3;false;Quadrants,0,IN_PHASE;480.0;-3784.0;2.300971142578125E-8;-1.8139322507324223E-7;5469059.617496321;-1.4446203144899619;4.345991053497303E7;0.3695312500000001; - ;0.0;0.0
78125.0;50000;40;7;0;0;TWO;VOUT_IIN;FIRST_HARMONIC;PORT_EXT3;PORT_EXT3;false;Quadrants,0,IN_PHASE;488.0;-3785.0;2.3393206616210926E-8;-1.814411619720459E-7;5466183.7725276705;-1.442573696826871;4.27474529852194E7;0.36962890625000006; - ;0.0;0.0
78125.0;50000;40;7;0;0;TWO;VOUT_IIN;FIRST_HARMONIC;PORT_EXT3;PORT_EXT3;false;Quadrants,0,IN_PHASE;495.0;-3781.0;2.3728764907836937E-8;-1.8124941437683107E-7;5470577.024542344;-1.440618934392476;4.2142943549064726E7;0.36923828125; - ;0.0;0.0
78125.0;50000;40;7;0;0;TWO;VOUT_IIN;FIRST_HARMONIC;PORT_EXT3;PORT_EXT3;false;Quadrants,0,IN_PHASE;483.0;-3787.0;2.31535221221924E-8;-1.8153703576965335E-7;5464254.001884224;-1.4439396317586792;4.318997320245765E7;0.36982421875000004; - ;0.0;0.0
78125.0;50000;40;7;0;0;TWO;VOUT_IIN;FIRST_HARMONIC;PORT_EXT3;PORT_EXT3;false;Quadrants,0,IN_PHASE;490.0;-3781.0;2.3489080413818345E-8;-1.8124941437683107E-7;5471503.696152703;-1.4419192731510073;4.257297358527974E7;0.36923828125; - ;0.0;0.0
78125.0;50000;40;7;0;0;TWO;VOUT_IIN;FIRST_HARMONIC;PORT_EXT3;PORT_EXT3;false;Quadrants,0,IN_PHASE;477.0;-3779.0;2.286590072937011E-8;-1.8115354057922366E-7;5476722.724315141;-1.445236474320625;4.3733243305633254E7;0.36904296875000003; - ;0.0;0.0
78125.0;50000;40;7;0;0;TWO;VOUT_IIN;FIRST_HARMONIC;PORT_EXT3;PORT_EXT3;false;Quadrants,0,IN_PHASE;491.0;-3781.0;2.3537017312622073E-8;-1.8124941437683107E-7;5471319.07689924;-1.4416591701929717;4.24862669180999E7;0.36923828125; - ;0.0;0.0
78125.0;50000;40;7;0;0;TWO;VOUT_IIN;FIRST_HARMONIC;PORT_EXT3;PORT_EXT3;false;Quadrants,0,IN_PHASE;496.0;-3783.0;2.3776701806640648E-8;-1.813452881744385E-7;5467547.41615007;-1.440427100471457;4.205797793707064E7;0.36943359375; - ;0.0;0.0
78125.0;50000;40;7;0;0;TWO;VOUT_IIN;FIRST_HARMONIC;PORT_EXT3;PORT_EXT3;false;Quadrants,0,IN_PHASE;481.0;-3781.0;2.3057648324584952E-8;-1.8124941437683107E-7;5473149.157100013;-1.4442609848945211;4.33695572906176E7;0.36923828125; - ;0.0;0.0
78125.0;50000;40;7;0;0;TWO;VOUT_IIN;FIRST_HARMONIC;PORT_EXT3;PORT_EXT3;false;Quadrants,0,IN_PHASE;486.0;-3779.0;2.3297332818603517E-8;-1.8115354057922366E-7;5475087.616453618;-1.4428929390414424;4.2923368429603E7;0.36904296875; - ;0.0;0.0
78125.0;50000;40;7;0;0;TWO;VOUT_IIN;FIRST_HARMONIC;PORT_EXT3;PORT_EXT3;false;Quadrants,0,IN_PHASE;481.0;-3786.0;2.3057648324584965E-8;-1.814890988708496E-7;5466035.9055643035;-1.4444263198626943;4.336955729061758E7;0.3697265625; - ;0.0;0.0
78125.0;50000;40;7;0;0;TWO;VOUT_IIN;FIRST_HARMONIC;PORT_EXT3;PORT_EXT3;false;Quadrants,0,IN_PHASE;476.0;-3782.0;2.2817963830566406E-8;-1.8129735127563478E-7;5472625.928245496;-1.4455953087613207;4.382511986719969E7;0.3693359375000001; - ;0.0;0.0
78125.0;50000;40;7;0;0;TWO;VOUT_IIN;FIRST_HARMONIC;PORT_EXT3;PORT_EXT3;false;Quadrants,0,IN_PHASE;489.0;-3778.0;2.3441143515014667E-8;-1.8110560368041992E-7;5475961.302880612;-1.4420783865978972;4.2660034880955085E7;0.36894531249999996; - ;0.0;0.0
78125.0;50000;40;7;0;0;TWO;VOUT_IIN;FIRST_HARMONIC;PORT_EXT3;PORT_EXT3;false;Quadrants,0,IN_PHASE;481.0;-3782.0;2.3057648324584942E-8;-1.812973512756348E-7;5471725.038055314;-1.444294086304636;4.336955729061762E7;0.36933593750000004; - ;0.0;0.0
78125.0;50000;40;7;0;0;TWO;VOUT_IIN;FIRST_HARMONIC;PORT_EXT3;PORT_EXT3;false;Quadrants,0,IN_PHASE;485.0;-3781.0;2.3249395919799803E-8;-1.812494143768311E-7;5472421.423850396;-1.4432200503176347;4.301187022017951E7;0.3692382812500001; - ;0.0;0.0
78125.0;50000;40;7;0;0;TWO;VOUT_IIN;FIRST_HARMONIC;PORT_EXT3;PORT_EXT3;false;Quadrants,0,IN_PHASE;489.0;-3782.0;2.3441143515014647E-8;-1.812973512756348E-7;5470264.978620395;-1.442213027637256;4.266003488095512E7;0.36933593750000016; - ;0.0;0.0
78125.0;50000;40;7;0;0;TWO;VOUT_IIN;FIRST_HARMONIC;PORT_EXT3;PORT_EXT3;false;Quadrants,0,IN_PHASE;477.0;-3783.0;2.286590072937012E-8;-1.813452881744385E-7;5471022.520769979;-1.4453678477380691;4.373324330563324E7;0.36943359375; - ;0.0;0.0
78125.0;50000;40;7;0;0;TWO;VOUT_IIN;FIRST_HARMONIC;PORT_EXT3;PORT_EXT3;false;Quadrants,0,IN_PHASE;490.0;-3773.0;2.3489080413818355E-8;-1.8086591918640138E-7;5482912.856032425;-1.4416490366668766;4.257297358527972E7;0.36845703125; - ;0.0;0.0
78125.0;50000;40;7;0;0;TWO;VOUT_IIN;FIRST_HARMONIC;PORT_EXT3;PORT_EXT3;false;Quadrants,0,IN_PHASE;486.0;-3779.0;2.3297332818603517E-8;-1.8115354057922366E-7;5475087.616453618;-1.4428929390414424;4.2923368429603E7;0.36904296875; - ;0.0;0.0
