frequencies;rsense;ingain;outgain;dcbiasP;dcbiasN;contacts;modevi;harmonic;inport;outport;SequentialMode;phaseShift;VadcI;VadcQ;Conductance;Susceptance;Zmod;ZPha;Rp;Cp;Lp;Current[mA];Voltage[mV]
78125.0;50000;40;7;0;0;TWO;VOUT_IIN;FIRST_HARMONIC;PORT_EXT3;PORT_EXT3;false;Quadrants,0,IN_PHASE;438.0;-3874.0;2.09963616760254E-8;-1.8570754596557616E-7;5350720.570272367;-1.4582129806519433;4.76272992164088E7;0.3783203125; - ;0.0;0.0
78125.0;50000;40;7;0;0;TWO;VOUT_IIN;FIRST_HARMONIC;PORT_EXT3;PORT_EXT3;false;Quadrants,0,IN_PHASE;434.0;-3869.0;2.080461408081056E-8;-1.8546786147155764E-7;5358164.384907606;-1.4590896094810053;4.806626049950931E7;0.3778320312500001; - ;0.0;0.0
78125.0;50000;40;7;0;0;TWO;VOUT_IIN;FIRST_HARMONIC;PORT_EXT3;PORT_EXT3;false;Quadrants,0,IN_PHASE;432.0;-3872.0;2.0708740283203114E-8;-1.8561167216796873E-7;5354369.89784695;-1.4596855909128643;4.828878948330339E7;0.3781250000000001; - ;0.0;0.0
78125.0;50000;40;7;0;0;TWO;VOUT_IIN;FIRST_HARMONIC;PORT_EXT3;PORT_EXT3;false;Quadrants,0,IN_PHASE;431.0;-3877.0;2.0660803384399402E-8;-1.858513566619873E-7;5347700.971564509;-1.4600824868915858;4.840082843802103E7;0.3786132812500001; - ;0.0;0.0
78125.0;50000;40;7;0;0;TWO;VOUT_IIN;FIRST_HARMONIC;PORT_EXT3;PORT_EXT3;false;Quadrants,0,IN_PHASE;434.0;-3874.0;2.080461408081053E-8;-1.857075459655762E-7;5351334.612046726;-1.4592325902885803;4.806626049950938E7;0.37832031250000003; - ;0.0;0.0
78125.0;50000;40;7;0;0;TWO;VOUT_IIN;FIRST_HARMONIC;PORT_EXT3;PORT_EXT3;false;Quadrants,0,IN_PHASE;437.0;-3873.0;2.09484247772217E-8;-1.8565960906677247E-7;5352238.8070899565;-1.4584391015919955;4.773628617113738E7;0.37822265625; - ;0.0;0.0
78125.0;50000;40;7;0;0;TWO;VOUT_IIN;FIRST_HARMONIC;PORT_EXT3;PORT_EXT3;false;Quadrants,0,IN_PHASE;437.0;-3876.0;2.094842477722166E-8;-1.8580341976318362E-7;5348148.224793836;-1.4585253361773498;4.773628617113747E7;0.37851562500000013; - ;0.0;0.0
78125.0;50000;40;7;0;0;TWO;VOUT_IIN;FIRST_HARMONIC;PORT_EXT3;PORT_EXT3;false;Quadrants,0,IN_PHASE;437.0;-3873.0;2.09484247772217E-8;-1.8565960906677247E-7;5352238.8070899565;-1.4584391015919955;4.773628617113738E7;0.37822265625; - ;0.0;0.0
78125.0;50000;40;7;0;0;TWO;VOUT_IIN;FIRST_HARMONIC;PORT_EXT3;PORT_EXT3;false;Quadrants,0,IN_PHASE;439.0;-3870.0;2.104429857482909E-8;-1.8551579837036136E-7;5356026.290487034;-1.457842475220702;4.751880878539194E7;0.3779296875000001; - ;0.0;0.0
78125.0;50000;40;7;0;0;TWO;VOUT_IIN;FIRST_HARMONIC;PORT_EXT3;PORT_EXT3;false;Quadrants,0,IN_PHASE;435.0;-3875.0;2.085255097961428E-8;-1.857554828643799E-7;5349817.848042179;-1.4590062825428505;4.7955763348935716E7;0.37841796875000006; - ;0.0;0.0
78125.0;50000;40;7;0;0;TWO;VOUT_IIN;FIRST_HARMONIC;PORT_EXT3;PORT_EXT3;false;Quadrants,0,IN_PHASE;430.0;-3875.0;2.061286648559569E-8;-1.8575548286437988E-7;5350578.8848013645;-1.4602807286196293;4.851338850415596E7;0.3784179687500001; - ;0.0;0.0
78125.0;50000;40;7;0;0;TWO;VOUT_IIN;FIRST_HARMONIC;PORT_EXT3;PORT_EXT3;false;Quadrants,0,IN_PHASE;437.0;-3874.0;2.09484247772217E-8;-1.8570754596557622E-7;5350874.588986183;-1.4584678611072246;4.773628617113739E7;0.37832031250000003; - ;0.0;0.0
78125.0;50000;40;7;0;0;TWO;VOUT_IIN;FIRST_HARMONIC;PORT_EXT3;PORT_EXT3;false;Quadrants,0,IN_PHASE;437.0;-3874.0;2.09484247772217E-8;-1.8570754596557622E-7;5350874.588986183;-1.4584678611072246;4.773628617113739E7;0.37832031250000003; - ;0.0;0.0
78125.0;50000;40;7;0;0;TWO;VOUT_IIN;FIRST_HARMONIC;PORT_EXT3;PORT_EXT3;false;Quadrants,0,IN_PHASE;436.0;-3873.0;2.0900487878417975E-8;-1.8565960906677247E-7;5352392.604592855;-1.458694060867045;4.7845773066025354E7;0.37822265625; - ;0.0;0.0
78125.0;50000;40;7;0;0;TWO;VOUT_IIN;FIRST_HARMONIC;PORT_EXT3;PORT_EXT3;false;Quadrants,0,IN_PHASE;428.0;-3874.0;2.051699268798829E-8;-1.857075459655762E-7;5352245.501321546;-1.4607624409513873;4.874008658127815E7;0.3783203125000001; - ;0.0;0.0
78125.0;50000;40;7;0;0;TWO;VOUT_IIN;FIRST_HARMONIC;PORT_EXT3;PORT_EXT3;false;Quadrants,0,IN_PHASE;435.0;-3871.0;2.085255097961428E-8;-1.8556373526916505E-7;5355277.04431637;-1.4588917285960135;4.795576334893574E7;0.37802734374999997; - ;0.0;0.0
78125.0;50000;40;7;0;0;TWO;VOUT_IIN;FIRST_HARMONIC;PORT_EXT3;PORT_EXT3;false;Quadrants,0,IN_PHASE;436.0;-3874.0;2.0900487878417965E-8;-1.857075459655762E-7;5351028.268912553;-1.4587227562196667;4.784577306602537E7;0.3783203125; - ;0.0;0.0
78125.0;50000;40;7;0;0;TWO;VOUT_IIN;FIRST_HARMONIC;PORT_EXT3;PORT_EXT3;false;Quadrants,0,IN_PHASE;435.0;-3873.0;2.0852550979614267E-8;-1.8565960906677247E-7;5352546.0629666755;-1.458949034778537;4.795576334893574E7;0.37822265625; - ;0.0;0.0
78125.0;50000;40;7;0;0;TWO;VOUT_IIN;FIRST_HARMONIC;PORT_EXT3;PORT_EXT3;false;Quadrants,0,IN_PHASE;437.0;-3879.0;2.094842477722167E-8;-1.8594723045959476E-7;5344063.850732541;-1.458611439048855;4.773628617113745E7;0.37880859375; - ;0.0;0.0
78125.0;50000;40;7;0;0;TWO;VOUT_IIN;FIRST_HARMONIC;PORT_EXT3;PORT_EXT3;false;Quadrants,0,IN_PHASE;435.0;-3876.0;2.0852550979614257E-8;-1.8580341976318362E-7;5348454.77668455;-1.4590348845459693;4.7955763348935775E7;0.3785156250000001; - ;0.0;0.0
78125.0;50000;40;7;0;0;TWO;VOUT_IIN;FIRST_HARMONIC;PORT_EXT3;PORT_EXT3;false;Quadrants,0,IN_PHASE;428.0;-3875.0;2.0516992687988296E-8;-1.857554828643799E-7;5350880.926040986;-1.4607906082339754;4.8740086581278145E7;0.37841796875; - ;0.0;0.0
78125.0;50000;40;7;0;0;TWO;VOUT_IIN;FIRST_HARMONIC;PORT_EXT3;PORT_EXT3;false;Quadrants,0,IN_PHASE;431.0;-3873.0;2.066080338439942E-8;-1.8565960906677247E-7;5353156.503393268;-1.4599690761508644;4.840082843802099E7;0.3782226562500001; - ;0.0;0.0
78125.0;50000;40;7;0;0;TWO;VOUT_IIN;FIRST_HARMONIC;PORT_EXT3;PORT_EXT3;false;Quadrants,0,IN_PHASE;433.0;-3877.0;2.0756677182006825E-8;-1.8585135666198733E-7;5347397.360237695;-1.4595729504417245;4.817726802953134E7;0.37861328125000004; - ;0.0;0.0
78125.0;50000;40;7;0;0;TWO;VOUT_IIN;FIRST_HARMONIC;PORT_EXT3;PORT_EXT3;false;Quadrants,0,IN_PHASE;435.0;-3875.0;2.085255097961428E-8;-1.857554828643799E-7;5349817.848042179;-1.4590062825428505;4.7955763348935716E7;0.37841796875000006; - ;0.0;0.0
78125.0;50000;40;7;0;0;TWO;VOUT_IIN;FIRST_HARMONIC;PORT_EXT3;PORT_EXT3;false;Quadrants,0,IN_PHASE;434.0;-3878.0;2.0804614080810526E-8;-1.8589929356079105E-7;5345883.238560268;-1.459346712759904;4.806626049950941E7;0.3787109375; - ;0.0;0.0
78125.0;50000;40;7;0;0;TWO;VOUT_IIN;FIRST_HARMONIC;PORT_EXT3;PORT_EXT3;false;Quadrants,0,IN_PHASE;431.0;-3877.0;2.0660803384399402E-8;-1.858513566619873E-7;5347700.971564509;-1.4600824868915858;4.840082843802103E7;0.3786132812500001; - ;0.0;0.0
78125.0;50000;40;7;0;0;TWO;VOUT_IIN;FIRST_HARMONIC;PORT_EXT3;PORT_EXT3;false;Quadrants,0,IN_PHASE;429.0;-3872.0;2.0564929586792003E-8;-1.8561167216796876E-7;5354825.53048183;-1.4604509235092422;4.862647332584392E7;0.3781250000000001; - ;0.0;0.0
78125.0;50000;40;7;0;0;TWO;VOUT_IIN;FIRST_HARMONIC;PORT_EXT3;PORT_EXT3;false;Quadrants,0,IN_PHASE;436.0;-3870.0;2.0900487878417968E-8;-1.8551579837036133E-7;5356489.76264499;-1.458607886945885;4.7845773066025354E7;0.3779296875; - ;0.0;0.0
78125.0;50000;40;7;0;0;TWO;VOUT_IIN;FIRST_HARMONIC;PORT_EXT3;PORT_EXT3;false;Quadrants,0,IN_PHASE;438.0;-3874.0;2.09963616760254E-8;-1.8570754596557616E-7;5350720.570272367;-1.4582129806519433;4.76272992164088E7;0.3783203125; - ;0.0;0.0
78125.0;50000;40;7;0;0;TWO;VOUT_IIN;FIRST_HARMONIC;PORT_EXT3;PORT_EXT3;false;Quadrants,0,IN_PHASE;436.0;-3879.0;2.0900487878417955E-8;-1.8594723045959473E-7;5344216.944564809;-1.4588660138256986;4.7845773066025384E7;0.37880859375000003; - ;0.0;0.0
78125.0;50000;40;7;0;0;TWO;VOUT_IIN;FIRST_HARMONIC;PORT_EXT3;PORT_EXT3;false;Quadrants,0,IN_PHASE;434.0;-3875.0;2.0804614080810542E-8;-1.857554828643799E-7;5349970.733174116;-1.4592611427210358;4.806626049950937E7;0.37841796875; - ;0.0;0.0
78125.0;50000;40;7;0;0;TWO;VOUT_IIN;FIRST_HARMONIC;PORT_EXT3;PORT_EXT3;false;Quadrants,0,IN_PHASE;437.0;-3876.0;2.094842477722166E-8;-1.8580341976318362E-7;5348148.224793836;-1.4585253361773498;4.773628617113747E7;0.37851562500000013; - ;0.0;0.0
78125.0;50000;40;7;0;0;TWO;VOUT_IIN;FIRST_HARMONIC;PORT_EXT3;PORT_EXT3;false;Quadrants,0,IN_PHASE;433.0;-3876.0;2.075667718200685E-8;-1.858034197631836E-7;5348759.974731735;-1.4595444911994748;4.8177268029531285E7;0.37851562499999997; - ;0.0;0.0
78125.0;50000;40;7;0;0;TWO;VOUT_IIN;FIRST_HARMONIC;PORT_EXT3;PORT_EXT3;false;Quadrants,0,IN_PHASE;434.0;-3876.0;2.0804614080810542E-8;-1.8580341976318362E-7;5348607.544982863;-1.459289680603028;4.8066260499509364E7;0.378515625; - ;0.0;0.0
78125.0;50000;40;7;0;0;TWO;VOUT_IIN;FIRST_HARMONIC;PORT_EXT3;PORT_EXT3;false;Quadrants,0,IN_PHASE;429.0;-3875.0;2.0564929586791974E-8;-1.857554828643799E-7;5350730.075042214;-1.460535661231304;4.862647332584399E7;0.37841796875000006; - ;0.0;0.0
78125.0;50000;40;7;0;0;TWO;VOUT_IIN;FIRST_HARMONIC;PORT_EXT3;PORT_EXT3;false;Quadrants,0,IN_PHASE;435.0;-3877.0;2.0852550979614237E-8;-1.858513566619873E-7;5347092.395368467;-1.459063471977862;4.7955763348935805E7;0.3786132812500001; - ;0.0;0.0
78125.0;50000;40;7;0;0;TWO;VOUT_IIN;FIRST_HARMONIC;PORT_EXT3;PORT_EXT3;false;Quadrants,0,IN_PHASE;431.0;-3874.0;2.0660803384399436E-8;-1.857075459655762E-7;5351791.583620516;-1.4599974505237814;4.840082843802097E7;0.3783203125000001; - ;0.0;0.0
78125.0;50000;40;7;0;0;TWO;VOUT_IIN;FIRST_HARMONIC;PORT_EXT3;PORT_EXT3;false;Quadrants,0,IN_PHASE;433.0;-3874.0;2.0756677182006845E-8;-1.857075459655762E-7;5351487.275076873;-1.4594875291812972;4.817726802953129E7;0.37832031250000003; - ;0.0;0.0
78125.0;50000;40;7;0;0;TWO;VOUT_IIN;FIRST_HARMONIC;PORT_EXT3;PORT_EXT3;false;Quadrants,0,IN_PHASE;437.0;-3872.0;2.0948424777221676E-8;-1.8561167216796876E-7;5353603.716560969;-1.4584103274084381;4.773628617113745E7;0.37812500000000004; - ;0.0;0.0
78125.0;50000;40;7;0;0;TWO;VOUT_IIN;FIRST_HARMONIC;PORT_EXT3;PORT_EXT3;false;Quadrants,0,IN_PHASE;435.0;-3878.0;2.085255097961424E-8;-1.8589929356079105E-7;5345730.703573432;-1.4590920448496136;4.7955763348935805E7;0.3787109375; - ;0.0;0.0
78125.0;50000;40;7;0;0;TWO;VOUT_IIN;FIRST_HARMONIC;PORT_EXT3;PORT_EXT3;false;Quadrants,0,IN_PHASE;436.0;-3873.0;2.0900487878417975E-8;-1.8565960906677247E-7;5352392.604592855;-1.458694060867045;4.7845773066025354E7;0.37822265625; - ;0.0;0.0
78125.0;50000;40;7;0;0;TWO;VOUT_IIN;FIRST_HARMONIC;PORT_EXT3;PORT_EXT3;false;Quadrants,0,IN_PHASE;435.0;-3875.0;2.085255097961428E-8;-1.857554828643799E-7;5349817.848042179;-1.4590062825428505;4.7955763348935716E7;0.37841796875000006; - ;0.0;0.0
78125.0;50000;40;7;0;0;TWO;VOUT_IIN;FIRST_HARMONIC;PORT_EXT3;PORT_EXT3;false;Quadrants,0,IN_PHASE;432.0;-3873.0;2.070874028320313E-8;-1.8565960906677247E-7;5353004.402424255;-1.4597140440126637;4.828878948330337E7;0.37822265624999996; - ;0.0;0.0
78125.0;50000;40;7;0;0;TWO;VOUT_IIN;FIRST_HARMONIC;PORT_EXT3;PORT_EXT3;false;Quadrants,0,IN_PHASE;438.0;-3871.0;2.099636167602539E-8;-1.8556373526916507E-7;5354814.945361185;-1.4581264655401287;4.7627299216408804E7;0.3780273437500001; - ;0.0;0.0
78125.0;50000;40;7;0;0;TWO;VOUT_IIN;FIRST_HARMONIC;PORT_EXT3;PORT_EXT3;false;Quadrants,0,IN_PHASE;430.0;-3873.0;2.0612866485595685E-8;-1.8565960906677247E-7;5353308.264789874;-1.4602241227659205;4.8513388504155986E7;0.37822265625; - ;0.0;0.0
78125.0;50000;40;7;0;0;TWO;VOUT_IIN;FIRST_HARMONIC;PORT_EXT3;PORT_EXT3;false;Quadrants,0,IN_PHASE;430.0;-3869.0;2.0612866485595715E-8;-1.8546786147155762E-7;5358775.335346966;-1.460110737631448;4.851338850415592E7;0.37783203125; - ;0.0;0.0
78125.0;50000;40;7;0;0;TWO;VOUT_IIN;FIRST_HARMONIC;PORT_EXT3;PORT_EXT3;false;Quadrants,0,IN_PHASE;436.0;-3875.0;2.090048787841798E-8;-1.857554828643799E-7;5349664.624197167;-1.4587514369469863;4.784577306602534E7;0.37841796875; - ;0.0;0.0
78125.0;50000;40;7;0;0;TWO;VOUT_IIN;FIRST_HARMONIC;PORT_EXT3;PORT_EXT3;false;Quadrants,0,IN_PHASE;431.0;-3878.0;2.066080338439943E-8;-1.85899293560791E-7;5346338.814894526;-1.4601108034672146;4.840082843802098E7;0.3787109375; - ;0.0;0.0
78125.0;50000;40;7;0;0;TWO;VOUT_IIN;FIRST_HARMONIC;PORT_EXT3;PORT_EXT3;false;Quadrants,0,IN_PHASE;435.0;-3875.0;2.085255097961428E-8;-1.857554828643799E-7;5349817.848042179;-1.4590062825428505;4.7955763348935716E7;0.37841796875000006; - ;0.0;0.0
78125.0;50000;40;7;0;0;TWO;VOUT_IIN;FIRST_HARMONIC;PORT_EXT3;PORT_EXT3;false;Quadrants,0,IN_PHASE;436.0;-3873.0;2.0900487878417975E-8;-1.8565960906677247E-7;5352392.604592855;-1.458694060867045;4.7845773066025354E7;0.37822265625; - ;0.0;0.0
78125.0;50000;40;7;0;0;TWO;VOUT_IIN;FIRST_HARMONIC;PORT_EXT3;PORT_EXT3;false;Quadrants,0,IN_PHASE;432.0;-3874.0;2.0708740283203137E-8;-1.857075459655762E-7;5351639.59896426;-1.459742482603666;4.828878948330336E7;0.3783203124999999; - ;0.0;0.0
78125.0;50000;40;7;0;0;TWO;VOUT_IIN;FIRST_HARMONIC;PORT_EXT3;PORT_EXT3;false;Quadrants,0,IN_PHASE;436.0;-3874.0;2.0900487878417965E-8;-1.857075459655762E-7;5351028.268912553;-1.4587227562196667;4.784577306602537E7;0.3783203125; - ;0.0;0.0
78125.0;50000;40;7;0;0;TWO;VOUT_IIN;FIRST_HARMONIC;PORT_EXT3;PORT_EXT3;false;Quadrants,0,IN_PHASE;430.0;-3874.0;2.0612866485595705E-8;-1.857075459655762E-7;5351943.228957455;-1.460252432909727;4.851338850415596E7;0.3783203124999999; - ;0.0;0.0
78125.0;50000;40;7;0;0;TWO;VOUT_IIN;FIRST_HARMONIC;PORT_EXT3;PORT_EXT3;false;Quadrants,0,IN_PHASE;429.0;-3873.0;2.0564929586791977E-8;-1.8565960906677247E-7;5353459.686525956;-1.4604791838258808;4.862647332584399E7;0.37822265625; - ;0.0;0.0
78125.0;50000;40;7;0;0;TWO;VOUT_IIN;FIRST_HARMONIC;PORT_EXT3;PORT_EXT3;false;Quadrants,0,IN_PHASE;439.0;-3877.0;2.104429857482909E-8;-1.8585135666198733E-7;5346478.407831607;-1.4580446900261368;4.751880878539196E7;0.37861328125000004; - ;0.0;0.0
78125.0;50000;40;7;0;0;TWO;VOUT_IIN;FIRST_HARMONIC;PORT_EXT3;PORT_EXT3;false;Quadrants,0,IN_PHASE;433.0;-3876.0;2.075667718200685E-8;-1.858034197631836E-7;5348759.974731735;-1.4595444911994748;4.8177268029531285E7;0.37851562499999997; - ;0.0;0.0
78125.0;50000;40;7;0;0;TWO;VOUT_IIN;FIRST_HARMONIC;PORT_EXT3;PORT_EXT3;false;Quadrants,0,IN_PHASE;437.0;-3870.0;2.0948424777221702E-8;-1.8551579837036133E-7;5356335.611694364;-1.4583527349916174;4.7736286171137385E7;0.3779296875; - ;0.0;0.0
78125.0;50000;40;7;0;0;TWO;VOUT_IIN;FIRST_HARMONIC;PORT_EXT3;PORT_EXT3;false;Quadrants,0,IN_PHASE;432.0;-3874.0;2.0708740283203137E-8;-1.857075459655762E-7;5351639.59896426;-1.459742482603666;4.828878948330336E7;0.3783203124999999; - ;0.0;0.0
78125.0;50000;40;7;0;0;TWO;VOUT_IIN;FIRST_HARMONIC;PORT_EXT3;PORT_EXT3;false;Quadrants,0,IN_PHASE;437.0;-3869.0;2.0948424777221663E-8;-1.8546786147155764E-7;5357702.598402879;-1.4583239167359663;4.7736286171137474E7;0.37783203125; - ;0.0;0.0
78125.0;50000;40;7;0;0;TWO;VOUT_IIN;FIRST_HARMONIC;PORT_EXT3;PORT_EXT3;false;Quadrants,0,IN_PHASE;435.0;-3875.0;2.085255097961428E-8;-1.857554828643799E-7;5349817.848042179;-1.4590062825428505;4.7955763348935716E7;0.37841796875000006; - ;0.0;0.0
78125.0;50000;40;7;0;0;TWO;VOUT_IIN;FIRST_HARMONIC;PORT_EXT3;PORT_EXT3;false;Quadrants,0,IN_PHASE;432.0;-3873.0;2.070874028320313E-8;-1.8565960906677247E-7;5353004.402424255;-1.4597140440126637;4.828878948330337E7;0.37822265624999996; - ;0.0;0.0
78125.0;50000;40;7;0;0;TWO;VOUT_IIN;FIRST_HARMONIC;PORT_EXT3;PORT_EXT3;false;Quadrants,0,IN_PHASE;434.0;-3874.0;2.080461408081053E-8;-1.857075459655762E-7;5351334.612046726;-1.4592325902885803;4.806626049950938E7;0.37832031250000003; - ;0.0;0.0
78125.0;50000;40;7;0;0;TWO;VOUT_IIN;FIRST_HARMONIC;PORT_EXT3;PORT_EXT3;false;Quadrants,0,IN_PHASE;430.0;-3874.0;2.0612866485595705E-8;-1.857075459655762E-7;5351943.228957455;-1.460252432909727;4.851338850415596E7;0.3783203124999999; - ;0.0;0.0
78125.0;50000;40;7;0;0;TWO;VOUT_IIN;FIRST_HARMONIC;PORT_EXT3;PORT_EXT3;false;Quadrants,0,IN_PHASE;435.0;-3871.0;2.085255097961428E-8;-1.8556373526916505E-7;5355277.04431637;-1.4588917285960135;4.795576334893574E7;0.37802734374999997; - ;0.0;0.0
78125.0;50000;40;7;0;0;TWO;VOUT_IIN;FIRST_HARMONIC;PORT_EXT3;PORT_EXT3;false;Quadrants,0,IN_PHASE;437.0;-3876.0;2.094842477722166E-8;-1.8580341976318362E-7;5348148.224793836;-1.4585253361773498;4.773628617113747E7;0.37851562500000013; - ;0.0;0.0
78125.0;50000;40;7;0;0;TWO;VOUT_IIN;FIRST_HARMONIC;PORT_EXT3;PORT_EXT3;false;Quadrants,0,IN_PHASE;433.0;-3878.0;2.0756677182006825E-8;-1.8589929356079102E-7;5346035.435501437;-1.4596013951874698;4.817726802953132E7;0.3787109375000001; - ;0.0;0.0
78125.0;50000;40;7;0;0;TWO;VOUT_IIN;FIRST_HARMONIC;PORT_EXT3;PORT_EXT3;false;Quadrants,0,IN_PHASE;434.0;-3873.0;2.0804614080810556E-8;-1.8565960906677247E-7;5352699.182122384;-1.4592040232945769;4.806626049950933E7;0.37822265625; - ;0.0;0.0
78125.0;50000;40;7;0;0;TWO;VOUT_IIN;FIRST_HARMONIC;PORT_EXT3;PORT_EXT3;false;Quadrants,0,IN_PHASE;432.0;-3870.0;2.0708740283203143E-8;-1.8551579837036136E-7;5357102.966673112;-1.4596286411426231;4.828878948330334E7;0.3779296875; - ;0.0;0.0
78125.0;50000;40;7;0;0;TWO;VOUT_IIN;FIRST_HARMONIC;PORT_EXT3;PORT_EXT3;false;Quadrants,0,IN_PHASE;437.0;-3874.0;2.09484247772217E-8;-1.8570754596557622E-7;5350874.588986183;-1.4584678611072246;4.773628617113739E7;0.37832031250000003; - ;0.0;0.0
78125.0;50000;40;7;0;0;TWO;VOUT_IIN;FIRST_HARMONIC;PORT_EXT3;PORT_EXT3;false;Quadrants,0,IN_PHASE;432.0;-3877.0;2.0708740283203114E-8;-1.858513566619873E-7;5347549.335137945;-1.4598277114343214;4.828878948330339E7;0.3786132812500001; - ;0.0;0.0
78125.0;50000;40;7;0;0;TWO;VOUT_IIN;FIRST_HARMONIC;PORT_EXT3;PORT_EXT3;false;Quadrants,0,IN_PHASE;436.0;-3878.0;2.090048787841797E-8;-1.8589929356079102E-7;5345577.830629219;-1.4588373914883879;4.784577306602536E7;0.37871093749999996; - ;0.0;0.0
78125.0;50000;40;7;0;0;TWO;VOUT_IIN;FIRST_HARMONIC;PORT_EXT3;PORT_EXT3;false;Quadrants,0,IN_PHASE;432.0;-3874.0;2.0708740283203137E-8;-1.857075459655762E-7;5351639.59896426;-1.459742482603666;4.828878948330336E7;0.3783203124999999; - ;0.0;0.0
78125.0;50000;40;7;0;0;TWO;VOUT_IIN;FIRST_HARMONIC;PORT_EXT3;PORT_EXT3;false;Quadrants,0,IN_PHASE;439.0;-3874.0;2.10442985748291E-8;-1.857075459655762E-7;5350566.212860391;-1.4579581148856717;4.751880878539192E7;0.3783203125000001; - ;0.0;0.0
78125.0;50000;40;7;0;0;TWO;VOUT_IIN;FIRST_HARMONIC;PORT_EXT3;PORT_EXT3;false;Quadrants,0,IN_PHASE;438.0;-3876.0;2.0996361676025384E-8;-1.858034197631836E-7;5347994.441379009;-1.4582705839294272;4.7627299216408834E7;0.37851562499999997; - ;0.0;0.0
78125.0;50000;40;7;0;0;TWO;VOUT_IIN;FIRST_HARMONIC;PORT_EXT3;PORT_EXT3;false;Quadrants,0,IN_PHASE;433.0;-3880.0;2.075667718200682E-8;-1.8599516735839845E-7;5343313.653221671;-1.4596582412335461;4.817726802953135E7;0.37890625; - ;0.0;0.0
78125.0;50000;40;7;0;0;TWO;VOUT_IIN;FIRST_HARMONIC;PORT_EXT3;PORT_EXT3;false;Quadrants,0,IN_PHASE;436.0;-3876.0;2.0900487878417988E-8;-1.8580341976318362E-7;5348301.669925309;-1.4587801030601348;4.7845773066025324E7;0.378515625; - ;0.0;0.0
78125.0;50000;40;7;0;0;TWO;VOUT_IIN;FIRST_HARMONIC;PORT_EXT3;PORT_EXT3;false;Quadrants,0,IN_PHASE;432.0;-3872.0;2.0708740283203114E-8;-1.8561167216796873E-7;5354369.89784695;-1.4596855909128643;4.828878948330339E7;0.3781250000000001; - ;0.0;0.0
78125.0;50000;40;7;0;0;TWO;VOUT_IIN;FIRST_HARMONIC;PORT_EXT3;PORT_EXT3;false;Quadrants,0,IN_PHASE;432.0;-3876.0;2.070874028320315E-8;-1.858034197631836E-7;5348912.065842835;-1.4597993163034628;4.828878948330331E7;0.3785156250000001; - ;0.0;0.0
78125.0;50000;40;7;0;0;TWO;VOUT_IIN;FIRST_HARMONIC;PORT_EXT3;PORT_EXT3;false;Quadrants,0,IN_PHASE;432.0;-3878.0;2.0708740283203143E-8;-1.8589929356079102E-7;5346187.294308832;-1.4598560921005104;4.828878948330332E7;0.3787109375; - ;0.0;0.0
78125.0;50000;40;7;0;0;TWO;VOUT_IIN;FIRST_HARMONIC;PORT_EXT3;PORT_EXT3;false;Quadrants,0,IN_PHASE;435.0;-3873.0;2.0852550979614267E-8;-1.8565960906677247E-7;5352546.0629666755;-1.458949034778537;4.795576334893574E7;0.37822265625; - ;0.0;0.0
78125.0;50000;40;7;0;0;TWO;VOUT_IIN;FIRST_HARMONIC;PORT_EXT3;PORT_EXT3;false;Quadrants,0,IN_PHASE;433.0;-3875.0;2.075667718200684E-8;-1.8575548286437988E-7;5350123.279504354;-1.4595160174496824;4.817726802953131E7;0.37841796875; - ;0.0;0.0
78125.0;50000;40;7;0;0;TWO;VOUT_IIN;FIRST_HARMONIC;PORT_EXT3;PORT_EXT3;false;Quadrants,0,IN_PHASE;431.0;-3872.0;2.066080338439942E-8;-1.856116721679688E-7;5354522.115247066;-1.45994068730109;4.840082843802103E7;0.378125; - ;0.0;0.0
78125.0;50000;40;7;0;0;TWO;VOUT_IIN;FIRST_HARMONIC;PORT_EXT3;PORT_EXT3;false;Quadrants,0,IN_PHASE;434.0;-3876.0;2.0804614080810542E-8;-1.8580341976318362E-7;5348607.544982863;-1.459289680603028;4.8066260499509364E7;0.378515625; - ;0.0;0.0
78125.0;50000;40;7;0;0;TWO;VOUT_IIN;FIRST_HARMONIC;PORT_EXT3;PORT_EXT3;false;Quadrants,0,IN_PHASE;434.0;-3872.0;2.0804614080810533E-8;-1.8561167216796876E-7;5354064.443923304;-1.4591754417279303;4.8066260499509364E7;0.3781250000000001; - ;0.0;0.0
78125.0;50000;40;7;0;0;TWO;VOUT_IIN;FIRST_HARMONIC;PORT_EXT3;PORT_EXT3;false;Quadrants,0,IN_PHASE;436.0;-3878.0;2.090048787841797E-8;-1.8589929356079102E-7;5345577.830629219;-1.4588373914883879;4.784577306602536E7;0.37871093749999996; - ;0.0;0.0
78125.0;50000;40;7;0;0;TWO;VOUT_IIN;FIRST_HARMONIC;PORT_EXT3;PORT_EXT3;false;Quadrants,0,IN_PHASE;434.0;-3876.0;2.0804614080810542E-8;-1.8580341976318362E-7;5348607.544982863;-1.459289680603028;4.8066260499509364E7;0.378515625; - ;0.0;0.0
78125.0;50000;40;7;0;0;TWO;VOUT_IIN;FIRST_HARMONIC;PORT_EXT3;PORT_EXT3;false;Quadrants,0,IN_PHASE;433.0;-3874.0;2.0756677182006845E-8;-1.857075459655762E-7;5351487.275076873;-1.4594875291812972;4.817726802953129E7;0.37832031250000003; - ;0.0;0.0
78125.0;50000;40;7;0;0;TWO;VOUT_IIN;FIRST_HARMONIC;PORT_EXT3;PORT_EXT3;false;Quadrants,0,IN_PHASE;433.0;-3873.0;2.075667718200684E-8;-1.8565960906677247E-7;5352851.961971133;-1.4594590263832583;4.817726802953131E7;0.37822265624999996; - ;0.0;0.0
78125.0;50000;40;7;0;0;TWO;VOUT_IIN;FIRST_HARMONIC;PORT_EXT3;PORT_EXT3;false;Quadrants,0,IN_PHASE;431.0;-3875.0;2.0660803384399416E-8;-1.8575548286437988E-7;5350427.355406146;-1.4600258104308665;4.8400828438021004E7;0.37841796875000006; - ;0.0;0.0
78125.0;50000;40;7;0;0;TWO;VOUT_IIN;FIRST_HARMONIC;PORT_EXT3;PORT_EXT3;false;Quadrants,0,IN_PHASE;433.0;-3877.0;2.0756677182006825E-8;-1.8585135666198733E-7;5347397.360237695;-1.4595729504417245;4.817726802953134E7;0.37861328125000004; - ;0.0;0.0
78125.0;50000;40;7;0;0;TWO;VOUT_IIN;FIRST_HARMONIC;PORT_EXT3;PORT_EXT3;false;Quadrants,0,IN_PHASE;433.0;-3874.0;2.0756677182006845E-8;-1.857075459655762E-7;5351487.275076873;-1.4594875291812972;4.817726802953129E7;0.37832031250000003; - ;0.0;0.0
78125.0;50000;40;7;0;0;TWO;VOUT_IIN;FIRST_HARMONIC;PORT_EXT3;PORT_EXT3;false;Quadrants,0,IN_PHASE;436.0;-3875.0;2.090048787841798E-8;-1.857554828643799E-7;5349664.624197167;-1.4587514369469863;4.784577306602534E7;0.37841796875; - ;0.0;0.0
78125.0;50000;40;7;0;0;TWO;VOUT_IIN;FIRST_HARMONIC;PORT_EXT3;PORT_EXT3;false;Quadrants,0,IN_PHASE;437.0;-3872.0;2.0948424777221676E-8;-1.8561167216796876E-7;5353603.716560969;-1.4584103274084381;4.773628617113745E7;0.37812500000000004; - ;0.0;0.0
78125.0;50000;40;7;0;0;TWO;VOUT_IIN;FIRST_HARMONIC;PORT_EXT3;PORT_EXT3;false;Quadrants,0,IN_PHASE;435.0;-3874.0;2.0852550979614244E-8;-1.857075459655762E-7;5351181.609962374;-1.4589776659574092;4.795576334893581E7;0.3783203125; - ;0.0;0.0
78125.0;50000;40;7;0;0;TWO;VOUT_IIN;FIRST_HARMONIC;PORT_EXT3;PORT_EXT3;false;Quadrants,0,IN_PHASE;438.0;-3874.0;2.09963616760254E-8;-1.8570754596557616E-7;5350720.570272367;-1.4582129806519433;4.76272992164088E7;0.3783203125; - ;0.0;0.0
78125.0;50000;40;7;0;0;TWO;VOUT_IIN;FIRST_HARMONIC;PORT_EXT3;PORT_EXT3;false;Quadrants,0,IN_PHASE;432.0;-3874.0;2.0708740283203137E-8;-1.857075459655762E-7;5351639.59896426;-1.459742482603666;4.828878948330336E7;0.3783203124999999; - ;0.0;0.0
78125.0;50000;40;7;0;0;TWO;VOUT_IIN;FIRST_HARMONIC;PORT_EXT3;PORT_EXT3;false;Quadrants,0,IN_PHASE;434.0;-3876.0;2.0804614080810542E-8;-1.8580341976318362E-7;5348607.544982863;-1.459289680603028;4.8066260499509364E7;0.378515625; - ;0.0;0.0
78125.0;50000;40;7;0;0;TWO;VOUT_IIN;FIRST_HARMONIC;PORT_EXT3;PORT_EXT3;false;Quadrants,0,IN_PHASE;429.0;-3872.0;2.0564929586792003E-8;-1.8561167216796876E-7;5354825.53048183;-1.4604509235092422;4.862647332584392E7;0.3781250000000001; - ;0.0;0.0
78125.0;50000;40;7;0;0;TWO;VOUT_IIN;FIRST_HARMONIC;PORT_EXT3;PORT_EXT3;false;Quadrants,0,IN_PHASE;434.0;-3876.0;2.0804614080810542E-8;-1.8580341976318362E-7;5348607.544982863;-1.459289680603028;4.8066260499509364E7;0.378515625; - ;0.0;0.0
78125.0;50000;40;7;0;0;TWO;VOUT_IIN;FIRST_HARMONIC;PORT_EXT3;PORT_EXT3;false;Quadrants,0,IN_PHASE;435.0;-3872.0;2.085255097961427E-8;-1.856116721679688E-7;5353911.207577146;-1.4589203889951152;4.795576334893574E7;0.37812500000000004; - ;0.0;0.0
78125.0;50000;40;7;0;0;TWO;VOUT_IIN;FIRST_HARMONIC;PORT_EXT3;PORT_EXT3;false;Quadrants,0,IN_PHASE;430.0;-3875.0;2.061286648559569E-8;-1.8575548286437988E-7;5350578.8848013645;-1.4602807286196293;4.851338850415596E7;0.3784179687500001; - ;0.0;0.0
78125.0;50000;40;7;0;0;TWO;VOUT_IIN;FIRST_HARMONIC;PORT_EXT3;PORT_EXT3;false;Quadrants,0,IN_PHASE;431.0;-3875.0;2.0660803384399416E-8;-1.8575548286437988E-7;5350427.355406146;-1.4600258104308665;4.8400828438021004E7;0.37841796875000006; - ;0.0;0.0
78125.0;50000;40;7;0;0;TWO;VOUT_IIN;FIRST_HARMONIC;PORT_EXT3;PORT_EXT3;false;Quadrants,0,IN_PHASE;434.0;-3876.0;2.0804614080810542E-8;-1.8580341976318362E-7;5348607.544982863;-1.459289680603028;4.8066260499509364E7;0.378515625; - ;0.0;0.0
78125.0;50000;40;7;0;0;TWO;VOUT_IIN;FIRST_HARMONIC;PORT_EXT3;PORT_EXT3;false;Quadrants,0,IN_PHASE;433.0;-3874.0;2.0756677182006845E-8;-1.857075459655762E-7;5351487.275076873;-1.4594875291812972;4.817726802953129E7;0.37832031250000003; - ;0.0;0.0
78125.0;50000;40;7;0;0;TWO;VOUT_IIN;FIRST_HARMONIC;PORT_EXT3;PORT_EXT3;false;Quadrants,0,IN_PHASE;437.0;-3874.0;2.09484247772217E-8;-1.8570754596557622E-7;5350874.588986183;-1.4584678611072246;4.773628617113739E7;0.37832031250000003; - ;0.0;0.0
78125.0;50000;40;7;0;0;TWO;VOUT_IIN;FIRST_HARMONIC;PORT_EXT3;PORT_EXT3;false;Quadrants,0,IN_PHASE;434.0;-3876.0;2.0804614080810542E-8;-1.8580341976318362E-7;5348607.544982863;-1.459289680603028;4.8066260499509364E7;0.378515625; - ;0.0;0.0
78125.0;50000;40;7;0;0;TWO;VOUT_IIN;FIRST_HARMONIC;PORT_EXT3;PORT_EXT3;false;Quadrants,0,IN_PHASE;437.0;-3877.0;2.0948424777221676E-8;-1.8585135666198736E-7;5346786.077663305;-1.4585540517545437;4.7736286171137445E7;0.3786132812500001; - ;0.0;0.0
