frequencies;rsense;ingain;outgain;dcbiasP;dcbiasN;contacts;modevi;harmonic;inport;outport;SequentialMode;phaseShift;VadcI;VadcQ;Conductance;Susceptance;Zmod;ZPha;Rp;Cp;Lp;Current[mA];Voltage[mV]
78125.0;50000;40;7;0;0;TWO;VOUT_IIN;FIRST_HARMONIC;PORT_EXT3;PORT_EXT3;false;Quadrants,0,IN_PHASE;456.0;-3757.0;2.1859225854492174E-8;-1.8009892880554202E-7;5512051.883096841;-1.4500136820228182;4.574727424734006E7;0.36689453125000004; - ;0.0;0.0
78125.0;50000;40;7;0;0;TWO;VOUT_IIN;FIRST_HARMONIC;PORT_EXT3;PORT_EXT3;false;Quadrants,0,IN_PHASE;448.0;-3753.0;2.147573066406251E-8;-1.7990718121032717E-7;5519237.781645132;-1.4519873504706955;4.656418985889967E7;0.36650390624999996; - ;0.0;0.0
78125.0;50000;40;7;0;0;TWO;VOUT_IIN;FIRST_HARMONIC;PORT_EXT3;PORT_EXT3;false;Quadrants,0,IN_PHASE;457.0;-3755.0;2.190716275329591E-8;-1.8000305500793457E-7;5514769.126862258;-1.4496875417851334;4.564717080259746E7;0.36669921875000006; - ;0.0;0.0
78125.0;50000;40;7;0;0;TWO;VOUT_IIN;FIRST_HARMONIC;PORT_EXT3;PORT_EXT3;false;Quadrants,0,IN_PHASE;454.0;-3751.0;2.1763352056884758E-8;-1.7981130741271974E-7;5521092.407407624;-1.4503478188432624;4.5948804089839354E7;0.36630859375; - ;0.0;0.0
78125.0;50000;40;7;0;0;TWO;VOUT_IIN;FIRST_HARMONIC;PORT_EXT3;PORT_EXT3;false;Quadrants,0,IN_PHASE;449.0;-3757.0;2.152366756286623E-8;-1.8009892880554202E-7;5513271.267055655;-1.4518502288522304;4.646048342268829E7;0.3668945312500001; - ;0.0;0.0
78125.0;50000;40;7;0;0;TWO;VOUT_IIN;FIRST_HARMONIC;PORT_EXT3;PORT_EXT3;false;Quadrants,0,IN_PHASE;449.0;-3760.0;2.15236675628662E-8;-1.8024273950195314E-7;5508934.250592378;-1.4519442410956;4.646048342268836E7;0.36718750000000006; - ;0.0;0.0
78125.0;50000;40;7;0;0;TWO;VOUT_IIN;FIRST_HARMONIC;PORT_EXT3;PORT_EXT3;false;Quadrants,0,IN_PHASE;445.0;-3754.0;2.1331919967651375E-8;-1.7995511810913088E-7;5518305.377090801;-1.4528067021937714;4.6878105745588884E7;0.36660156250000003; - ;0.0;0.0
78125.0;50000;40;7;0;0;TWO;VOUT_IIN;FIRST_HARMONIC;PORT_EXT3;PORT_EXT3;false;Quadrants,0,IN_PHASE;455.0;-3759.0;2.1811288955688486E-8;-1.801948026031494E-7;5509336.730551466;-1.4503395009917341;4.584781770722428E7;0.36708984375000003; - ;0.0;0.0
78125.0;50000;40;7;0;0;TWO;VOUT_IIN;FIRST_HARMONIC;PORT_EXT3;PORT_EXT3;false;Quadrants,0,IN_PHASE;453.0;-3756.0;2.171541515808105E-8;-1.800509919067383E-7;5514023.319021107;-1.450769032189893;4.605023632844825E7;0.3667968750000001; - ;0.0;0.0
78125.0;50000;40;7;0;0;TWO;VOUT_IIN;FIRST_HARMONIC;PORT_EXT3;PORT_EXT3;false;Quadrants,0,IN_PHASE;452.0;-3757.0;2.1667478259277356E-8;-1.8009892880554197E-7;5512750.884760285;-1.451063037901436;4.615211738227221E7;0.3668945312500001; - ;0.0;0.0
78125.0;50000;40;7;0;0;TWO;VOUT_IIN;FIRST_HARMONIC;PORT_EXT3;PORT_EXT3;false;Quadrants,0,IN_PHASE;454.0;-3763.0;2.1763352056884778E-8;-1.8038655019836428E-7;5503738.949120707;-1.450728235759917;4.594880408983931E7;0.36748046874999996; - ;0.0;0.0
78125.0;50000;40;7;0;0;TWO;VOUT_IIN;FIRST_HARMONIC;PORT_EXT3;PORT_EXT3;false;Quadrants,0,IN_PHASE;457.0;-3760.0;2.1907162753295898E-8;-1.8024273950195312E-7;5507542.484593508;-1.449847023635968;4.5647170802597485E7;0.36718750000000006; - ;0.0;0.0
78125.0;50000;40;7;0;0;TWO;VOUT_IIN;FIRST_HARMONIC;PORT_EXT3;PORT_EXT3;false;Quadrants,0,IN_PHASE;453.0;-3754.0;2.171541515808107E-8;-1.7995511810913088E-7;5516918.845776369;-1.4507056987231266;4.605023632844823E7;0.3666015625; - ;0.0;0.0
78125.0;50000;40;7;0;0;TWO;VOUT_IIN;FIRST_HARMONIC;PORT_EXT3;PORT_EXT3;false;Quadrants,0,IN_PHASE;453.0;-3756.0;2.171541515808105E-8;-1.800509919067383E-7;5514023.319021107;-1.450769032189893;4.605023632844825E7;0.3667968750000001; - ;0.0;0.0
78125.0;50000;40;7;0;0;TWO;VOUT_IIN;FIRST_HARMONIC;PORT_EXT3;PORT_EXT3;false;Quadrants,0,IN_PHASE;457.0;-3759.0;2.1907162753295895E-8;-1.8019480260314943E-7;5508986.308665333;-1.4498151607126455;4.5647170802597515E7;0.36708984375; - ;0.0;0.0
78125.0;50000;40;7;0;0;TWO;VOUT_IIN;FIRST_HARMONIC;PORT_EXT3;PORT_EXT3;false;Quadrants,0,IN_PHASE;458.0;-3755.0;2.19550996520996E-8;-1.8000305500793457E-7;5514592.810690964;-1.4494251256097157;4.554750449080145E7;0.36669921875; - ;0.0;0.0
78125.0;50000;40;7;0;0;TWO;VOUT_IIN;FIRST_HARMONIC;PORT_EXT3;PORT_EXT3;false;Quadrants,0,IN_PHASE;450.0;-3760.0;2.157160446166991E-8;-1.8024273950195312E-7;5508761.566667095;-1.4516820310755627;4.635723790397125E7;0.36718750000000006; - ;0.0;0.0
78125.0;50000;40;7;0;0;TWO;VOUT_IIN;FIRST_HARMONIC;PORT_EXT3;PORT_EXT3;false;Quadrants,0,IN_PHASE;459.0;-3757.0;2.200303655090333E-8;-1.80098928805542E-7;5511523.766648547;-1.449226840364143;4.544827245487374E7;0.3668945312500001; - ;0.0;0.0
78125.0;50000;40;7;0;0;TWO;VOUT_IIN;FIRST_HARMONIC;PORT_EXT3;PORT_EXT3;false;Quadrants,0,IN_PHASE;450.0;-3759.0;2.1571604461669907E-8;-1.801948026031494E-7;5510206.3499642955;-1.4516506423110767;4.635723790397126E7;0.36708984375000003; - ;0.0;0.0
78125.0;50000;40;7;0;0;TWO;VOUT_IIN;FIRST_HARMONIC;PORT_EXT3;PORT_EXT3;false;Quadrants,0,IN_PHASE;455.0;-3753.0;2.1811288955688492E-8;-1.7990718121032717E-7;5518017.138023357;-1.4501487859790043;4.584781770722427E7;0.36650390624999996; - ;0.0;0.0
78125.0;50000;40;7;0;0;TWO;VOUT_IIN;FIRST_HARMONIC;PORT_EXT3;PORT_EXT3;false;Quadrants,0,IN_PHASE;449.0;-3757.0;2.152366756286623E-8;-1.8009892880554202E-7;5513271.267055655;-1.4518502288522304;4.646048342268829E7;0.3668945312500001; - ;0.0;0.0
78125.0;50000;40;7;0;0;TWO;VOUT_IIN;FIRST_HARMONIC;PORT_EXT3;PORT_EXT3;false;Quadrants,0,IN_PHASE;447.0;-3757.0;2.1427793765258794E-8;-1.8009892880554197E-7;5513616.344629277;-1.4523751051779712;4.6668360306011304E7;0.36689453125; - ;0.0;0.0
78125.0;50000;40;7;0;0;TWO;VOUT_IIN;FIRST_HARMONIC;PORT_EXT3;PORT_EXT3;false;Quadrants,0,IN_PHASE;447.0;-3758.0;2.1427793765258794E-8;-1.8014686570434574E-7;5512169.647789774;-1.4524063232811086;4.666836030601132E7;0.3669921875; - ;0.0;0.0
78125.0;50000;40;7;0;0;TWO;VOUT_IIN;FIRST_HARMONIC;PORT_EXT3;PORT_EXT3;false;Quadrants,0,IN_PHASE;454.0;-3758.0;2.1763352056884768E-8;-1.801468657043457E-7;5510956.379001832;-1.4505700197133904;4.594880408983934E7;0.3669921875; - ;0.0;0.0
78125.0;50000;40;7;0;0;TWO;VOUT_IIN;FIRST_HARMONIC;PORT_EXT3;PORT_EXT3;false;Quadrants,0,IN_PHASE;449.0;-3753.0;2.1523667562866193E-8;-1.7990718121032717E-7;5519064.513318979;-1.4517246486914237;4.646048342268837E7;0.36650390625; - ;0.0;0.0
78125.0;50000;40;7;0;0;TWO;VOUT_IIN;FIRST_HARMONIC;PORT_EXT3;PORT_EXT3;false;Quadrants,0,IN_PHASE;454.0;-3755.0;2.1763352056884778E-8;-1.800030550079346E-7;5515295.863746514;-1.4504748907496736;4.5948804089839295E7;0.3666992187500001; - ;0.0;0.0
78125.0;50000;40;7;0;0;TWO;VOUT_IIN;FIRST_HARMONIC;PORT_EXT3;PORT_EXT3;false;Quadrants,0,IN_PHASE;459.0;-3756.0;2.2003036550903327E-8;-1.8005099190673826E-7;5512969.569837988;-1.4491947917071708;4.544827245487374E7;0.366796875; - ;0.0;0.0
78125.0;50000;40;7;0;0;TWO;VOUT_IIN;FIRST_HARMONIC;PORT_EXT3;PORT_EXT3;false;Quadrants,0,IN_PHASE;453.0;-3759.0;2.1715415158081037E-8;-1.8019480260314943E-7;5509685.681938737;-1.4508639078365377;4.6050236328448296E7;0.36708984375000003; - ;0.0;0.0
78125.0;50000;40;7;0;0;TWO;VOUT_IIN;FIRST_HARMONIC;PORT_EXT3;PORT_EXT3;false;Quadrants,0,IN_PHASE;449.0;-3756.0;2.1523667562866226E-8;-1.800509919067383E-7;5514718.446274571;-1.4518188585345837;4.646048342268828E7;0.3667968750000001; - ;0.0;0.0
78125.0;50000;40;7;0;0;TWO;VOUT_IIN;FIRST_HARMONIC;PORT_EXT3;PORT_EXT3;false;Quadrants,0,IN_PHASE;452.0;-3763.0;2.166747825927734E-8;-1.8038655019836428E-7;5504086.071514018;-1.4512521342494205;4.615211738227226E7;0.36748046875; - ;0.0;0.0
78125.0;50000;40;7;0;0;TWO;VOUT_IIN;FIRST_HARMONIC;PORT_EXT3;PORT_EXT3;false;Quadrants,0,IN_PHASE;450.0;-3760.0;2.157160446166991E-8;-1.8024273950195312E-7;5508761.566667095;-1.4516820310755627;4.635723790397125E7;0.36718750000000006; - ;0.0;0.0
78125.0;50000;40;7;0;0;TWO;VOUT_IIN;FIRST_HARMONIC;PORT_EXT3;PORT_EXT3;false;Quadrants,0,IN_PHASE;451.0;-3757.0;2.1619541360473625E-8;-1.8009892880554202E-7;5512924.714174998;-1.4513254183672124;4.625445023677842E7;0.36689453125000004; - ;0.0;0.0
78125.0;50000;40;7;0;0;TWO;VOUT_IIN;FIRST_HARMONIC;PORT_EXT3;PORT_EXT3;false;Quadrants,0,IN_PHASE;455.0;-3753.0;2.1811288955688492E-8;-1.7990718121032717E-7;5518017.138023357;-1.4501487859790043;4.584781770722427E7;0.36650390624999996; - ;0.0;0.0
78125.0;50000;40;7;0;0;TWO;VOUT_IIN;FIRST_HARMONIC;PORT_EXT3;PORT_EXT3;false;Quadrants,0,IN_PHASE;452.0;-3758.0;2.166747825927733E-8;-1.801468657043457E-7;5511304.868889394;-1.45109459529364;4.615211738227227E7;0.3669921875000001; - ;0.0;0.0
78125.0;50000;40;7;0;0;TWO;VOUT_IIN;FIRST_HARMONIC;PORT_EXT3;PORT_EXT3;false;Quadrants,0,IN_PHASE;450.0;-3751.0;2.157160446166991E-8;-1.7981130741271974E-7;5521791.759462206;-1.4513989382272705;4.635723790397127E7;0.36630859374999997; - ;0.0;0.0
78125.0;50000;40;7;0;0;TWO;VOUT_IIN;FIRST_HARMONIC;PORT_EXT3;PORT_EXT3;false;Quadrants,0,IN_PHASE;452.0;-3757.0;2.1667478259277356E-8;-1.8009892880554197E-7;5512750.884760285;-1.451063037901436;4.615211738227221E7;0.3668945312500001; - ;0.0;0.0
78125.0;50000;40;7;0;0;TWO;VOUT_IIN;FIRST_HARMONIC;PORT_EXT3;PORT_EXT3;false;Quadrants,0,IN_PHASE;451.0;-3756.0;2.161954136047365E-8;-1.800509919067383E-7;5514371.6204393245;-1.4512939122776405;4.625445023677836E7;0.3667968750000001; - ;0.0;0.0
78125.0;50000;40;7;0;0;TWO;VOUT_IIN;FIRST_HARMONIC;PORT_EXT3;PORT_EXT3;false;Quadrants,0,IN_PHASE;451.0;-3758.0;2.1619541360473658E-8;-1.801468657043457E-7;5511478.561547292;-1.451356907927435;4.625445023677834E7;0.3669921875; - ;0.0;0.0
78125.0;50000;40;7;0;0;TWO;VOUT_IIN;FIRST_HARMONIC;PORT_EXT3;PORT_EXT3;false;Quadrants,0,IN_PHASE;450.0;-3752.0;2.157160446166994E-8;-1.7985924431152345E-7;5520340.938893817;-1.4514304591054288;4.635723790397122E7;0.36640625; - ;0.0;0.0
78125.0;50000;40;7;0;0;TWO;VOUT_IIN;FIRST_HARMONIC;PORT_EXT3;PORT_EXT3;false;Quadrants,0,IN_PHASE;452.0;-3757.0;2.1667478259277356E-8;-1.8009892880554197E-7;5512750.884760285;-1.451063037901436;4.615211738227221E7;0.3668945312500001; - ;0.0;0.0
78125.0;50000;40;7;0;0;TWO;VOUT_IIN;FIRST_HARMONIC;PORT_EXT3;PORT_EXT3;false;Quadrants,0,IN_PHASE;451.0;-3759.0;2.1619541360473625E-8;-1.8019480260314943E-7;5510033.161971882;-1.4513883809712513;4.62544502367784E7;0.3670898437500001; - ;0.0;0.0
78125.0;50000;40;7;0;0;TWO;VOUT_IIN;FIRST_HARMONIC;PORT_EXT3;PORT_EXT3;false;Quadrants,0,IN_PHASE;449.0;-3752.0;2.152366756286619E-8;-1.7985924431152345E-7;5520514.7140846765;-1.4516932124038622;4.646048342268835E7;0.3664062500000001; - ;0.0;0.0
78125.0;50000;40;7;0;0;TWO;VOUT_IIN;FIRST_HARMONIC;PORT_EXT3;PORT_EXT3;false;Quadrants,0,IN_PHASE;454.0;-3757.0;2.1763352056884745E-8;-1.80098928805542E-7;5512402.120515421;-1.4505383266961547;4.5948804089839384E7;0.36689453125000004; - ;0.0;0.0
78125.0;50000;40;7;0;0;TWO;VOUT_IIN;FIRST_HARMONIC;PORT_EXT3;PORT_EXT3;false;Quadrants,0,IN_PHASE;452.0;-3762.0;2.166747825927733E-8;-1.8033861329956054E-7;5505528.328667366;-1.4512206594825148;4.615211738227227E7;0.36738281250000004; - ;0.0;0.0
78125.0;50000;40;7;0;0;TWO;VOUT_IIN;FIRST_HARMONIC;PORT_EXT3;PORT_EXT3;false;Quadrants,0,IN_PHASE;451.0;-3762.0;2.1619541360473638E-8;-1.8033861329956057E-7;5505701.475725142;-1.4514827011334783;4.6254450236778386E7;0.36738281250000004; - ;0.0;0.0
78125.0;50000;40;7;0;0;TWO;VOUT_IIN;FIRST_HARMONIC;PORT_EXT3;PORT_EXT3;false;Quadrants,0,IN_PHASE;455.0;-3754.0;2.181128895568849E-8;-1.7995511810913088E-7;5516568.518352176;-1.4501806135377002;4.584781770722428E7;0.36660156250000003; - ;0.0;0.0
78125.0;50000;40;7;0;0;TWO;VOUT_IIN;FIRST_HARMONIC;PORT_EXT3;PORT_EXT3;false;Quadrants,0,IN_PHASE;451.0;-3756.0;2.161954136047365E-8;-1.800509919067383E-7;5514371.6204393245;-1.4512939122776405;4.625445023677836E7;0.3667968750000001; - ;0.0;0.0
78125.0;50000;40;7;0;0;TWO;VOUT_IIN;FIRST_HARMONIC;PORT_EXT3;PORT_EXT3;false;Quadrants,0,IN_PHASE;451.0;-3758.0;2.1619541360473658E-8;-1.801468657043457E-7;5511478.561547292;-1.451356907927435;4.625445023677834E7;0.3669921875; - ;0.0;0.0
78125.0;50000;40;7;0;0;TWO;VOUT_IIN;FIRST_HARMONIC;PORT_EXT3;PORT_EXT3;false;Quadrants,0,IN_PHASE;446.0;-3759.0;2.1379856866455073E-8;-1.8019480260314943E-7;5510895.419297732;-1.4526998520144825;4.6772997885172784E7;0.36708984375000003; - ;0.0;0.0
78125.0;50000;40;7;0;0;TWO;VOUT_IIN;FIRST_HARMONIC;PORT_EXT3;PORT_EXT3;false;Quadrants,0,IN_PHASE;452.0;-3757.0;2.1667478259277356E-8;-1.8009892880554197E-7;5512750.884760285;-1.451063037901436;4.615211738227221E7;0.3668945312500001; - ;0.0;0.0
78125.0;50000;40;7;0;0;TWO;VOUT_IIN;FIRST_HARMONIC;PORT_EXT3;PORT_EXT3;false;Quadrants,0,IN_PHASE;451.0;-3757.0;2.1619541360473625E-8;-1.8009892880554202E-7;5512924.714174998;-1.4513254183672124;4.625445023677842E7;0.36689453125000004; - ;0.0;0.0
78125.0;50000;40;7;0;0;TWO;VOUT_IIN;FIRST_HARMONIC;PORT_EXT3;PORT_EXT3;false;Quadrants,0,IN_PHASE;450.0;-3755.0;2.157160446166991E-8;-1.8000305500793457E-7;5515993.015105219;-1.4515249224344835;4.635723790397126E7;0.36669921875; - ;0.0;0.0
78125.0;50000;40;7;0;0;TWO;VOUT_IIN;FIRST_HARMONIC;PORT_EXT3;PORT_EXT3;false;Quadrants,0,IN_PHASE;454.0;-3760.0;2.1763352056884755E-8;-1.8024273950195317E-7;5508067.15325973;-1.4506333559009528;4.594880408983935E7;0.36718750000000006; - ;0.0;0.0
78125.0;50000;40;7;0;0;TWO;VOUT_IIN;FIRST_HARMONIC;PORT_EXT3;PORT_EXT3;false;Quadrants,0,IN_PHASE;445.0;-3757.0;2.133191996765136E-8;-1.8009892880554202E-7;5513959.946048367;-1.4529000470675697;4.68781057455889E7;0.36689453125000004; - ;0.0;0.0
78125.0;50000;40;7;0;0;TWO;VOUT_IIN;FIRST_HARMONIC;PORT_EXT3;PORT_EXT3;false;Quadrants,0,IN_PHASE;453.0;-3755.0;2.1715415158081054E-8;-1.800030550079346E-7;5515470.705138801;-1.450737373768753;4.605023632844825E7;0.36669921875; - ;0.0;0.0
78125.0;50000;40;7;0;0;TWO;VOUT_IIN;FIRST_HARMONIC;PORT_EXT3;PORT_EXT3;false;Quadrants,0,IN_PHASE;450.0;-3756.0;2.1571604461669937E-8;-1.8005099190673828E-7;5514545.217858144;-1.4515563771522613;4.635723790397121E7;0.3667968750000001; - ;0.0;0.0
78125.0;50000;40;7;0;0;TWO;VOUT_IIN;FIRST_HARMONIC;PORT_EXT3;PORT_EXT3;false;Quadrants,0,IN_PHASE;452.0;-3758.0;2.166747825927733E-8;-1.801468657043457E-7;5511304.868889394;-1.45109459529364;4.615211738227227E7;0.3669921875000001; - ;0.0;0.0
78125.0;50000;40;7;0;0;TWO;VOUT_IIN;FIRST_HARMONIC;PORT_EXT3;PORT_EXT3;false;Quadrants,0,IN_PHASE;452.0;-3758.0;2.166747825927733E-8;-1.801468657043457E-7;5511304.868889394;-1.45109459529364;4.615211738227227E7;0.3669921875000001; - ;0.0;0.0
78125.0;50000;40;7;0;0;TWO;VOUT_IIN;FIRST_HARMONIC;PORT_EXT3;PORT_EXT3;false;Quadrants,0,IN_PHASE;452.0;-3752.0;2.1667478259277343E-8;-1.7985924431152343E-7;5519992.278221597;-1.4509050022219312;4.615211738227224E7;0.36640625000000004; - ;0.0;0.0
78125.0;50000;40;7;0;0;TWO;VOUT_IIN;FIRST_HARMONIC;PORT_EXT3;PORT_EXT3;false;Quadrants,0,IN_PHASE;450.0;-3754.0;2.157160446166992E-8;-1.7995511810913086E-7;5517441.567302545;-1.4514934511960587;4.635723790397124E7;0.3666015625; - ;0.0;0.0
78125.0;50000;40;7;0;0;TWO;VOUT_IIN;FIRST_HARMONIC;PORT_EXT3;PORT_EXT3;false;Quadrants,0,IN_PHASE;449.0;-3757.0;2.152366756286623E-8;-1.8009892880554202E-7;5513271.267055655;-1.4518502288522304;4.646048342268829E7;0.3668945312500001; - ;0.0;0.0
78125.0;50000;40;7;0;0;TWO;VOUT_IIN;FIRST_HARMONIC;PORT_EXT3;PORT_EXT3;false;Quadrants,0,IN_PHASE;454.0;-3756.0;2.176335205688476E-8;-1.800509919067383E-7;5513848.615235526;-1.4505066170459269;4.594880408983935E7;0.3667968750000001; - ;0.0;0.0
78125.0;50000;40;7;0;0;TWO;VOUT_IIN;FIRST_HARMONIC;PORT_EXT3;PORT_EXT3;false;Quadrants,0,IN_PHASE;455.0;-3750.0;2.1811288955688463E-8;-1.7976337051391602E-7;5522367.531801214;-1.4500532029314568;4.584781770722435E7;0.36621093749999994; - ;0.0;0.0
78125.0;50000;40;7;0;0;TWO;VOUT_IIN;FIRST_HARMONIC;PORT_EXT3;PORT_EXT3;false;Quadrants,0,IN_PHASE;452.0;-3753.0;2.166747825927735E-8;-1.7990718121032717E-7;5518542.489029613;-1.4509366425636363;4.615211738227224E7;0.36650390625; - ;0.0;0.0
78125.0;50000;40;7;0;0;TWO;VOUT_IIN;FIRST_HARMONIC;PORT_EXT3;PORT_EXT3;false;Quadrants,0,IN_PHASE;445.0;-3754.0;2.1331919967651375E-8;-1.7995511810913088E-7;5518305.377090801;-1.4528067021937714;4.6878105745588884E7;0.36660156250000003; - ;0.0;0.0
78125.0;50000;40;7;0;0;TWO;VOUT_IIN;FIRST_HARMONIC;PORT_EXT3;PORT_EXT3;false;Quadrants,0,IN_PHASE;453.0;-3757.0;2.171541515808105E-8;-1.8009892880554202E-7;5512576.686838134;-1.4508006739995676;4.605023632844826E7;0.3668945312500001; - ;0.0;0.0
